F://SIPFlowData//best//green/20181005_1528_SampleID_G1.tiff
F://SIPFlowData//best//green/20181005_1528_SampleID_G2.tiff
F://SIPFlowData//best//green/20181005_1528_SampleID_G3.tiff
F://SIPFlowData//best//green/20181005_1528_SampleID_G4.tiff
F://SIPFlowData//best//green/20181005_1528_SampleID_G5.tiff
F://SIPFlowData//best//green/20181005_1528_SampleID_G6.tiff
F://SIPFlowData//best//green/20181005_1528_SampleID_G7.tiff
F://SIPFlowData//best//green/20181005_1528_SampleID_G8.tiff
F://SIPFlowData//best//green/20181005_1528_SampleID_G9.tiff
F://SIPFlowData//best//green/20181005_1528_SampleID_G10.tiff
F://SIPFlowData//best//green/20181005_1528_SampleID_G11.tiff
F://SIPFlowData//best//green/20181005_1528_SampleID_G12.tiff
F://SIPFlowData//best//green/20181005_1528_SampleID_G13.tiff
F://SIPFlowData//best//green/20181005_1528_SampleID_G14.tiff
F://SIPFlowData//best//green/20181005_1528_SampleID_G15.tiff
F://SIPFlowData//best//green/20181005_1528_SampleID_G16.tiff
F://SIPFlowData//best//green/20181005_1528_SampleID_G17.tiff
F://SIPFlowData//best//green/20181005_1528_SampleID_G18.tiff
F://SIPFlowData//best//green/20181005_1528_SampleID_G19.tiff
F://SIPFlowData//best//green/20181005_1528_SampleID_G20.tiff
F://SIPFlowData//best//green/20181005_1528_SampleID_G21.tiff
F://SIPFlowData//best//green/20181005_1528_SampleID_G22.tiff
F://SIPFlowData//best//green/20181005_1528_SampleID_G23.tiff
F://SIPFlowData//best//green/20181005_1528_SampleID_G24.tiff
F://SIPFlowData//best//green/20181005_1528_SampleID_G25.tiff
F://SIPFlowData//best//green/20181005_1528_SampleID_G26.tiff
F://SIPFlowData//best//green/20181005_1528_SampleID_G27.tiff
F://SIPFlowData//best//green/20181005_1528_SampleID_G28.tiff
F://SIPFlowData//best//green/20181005_1528_SampleID_G29.tiff
F://SIPFlowData//best//green/20181005_1528_SampleID_G30.tiff
F://SIPFlowData//best//green/20181005_1528_SampleID_G31.tiff
F://SIPFlowData//best//green/20181005_1528_SampleID_G32.tiff
F://SIPFlowData//best//green/20181005_1528_SampleID_G33.tiff
F://SIPFlowData//best//green/20181005_1528_SampleID_G34.tiff
F://SIPFlowData//best//green/20181005_1528_SampleID_G35.tiff
F://SIPFlowData//best//green/20181005_1528_SampleID_G36.tiff
F://SIPFlowData//best//green/20181005_1528_SampleID_G37.tiff
F://SIPFlowData//best//green/20181005_1528_SampleID_G38.tiff
F://SIPFlowData//best//green/20181005_1528_SampleID_G39.tiff
F://SIPFlowData//best//green/20181005_1528_SampleID_G40.tiff
F://SIPFlowData//best//green/20181005_1528_SampleID_G41.tiff
F://SIPFlowData//best//green/20181005_1528_SampleID_G42.tiff
F://SIPFlowData//best//green/20181005_1528_SampleID_G43.tiff
F://SIPFlowData//best//green/20181005_1528_SampleID_G44.tiff
F://SIPFlowData//best//green/20181005_1528_SampleID_G45.tiff
F://SIPFlowData//best//green/20181005_1528_SampleID_G46.tiff
F://SIPFlowData//best//green/20181005_1528_SampleID_G47.tiff
F://SIPFlowData//best//green/20181005_1528_SampleID_G48.tiff
F://SIPFlowData//best//green/20181005_1528_SampleID_G49.tiff
F://SIPFlowData//best//green/20181005_1528_SampleID_G50.tiff
F://SIPFlowData//best//green/20181005_1528_SampleID_G51.tiff
F://SIPFlowData//best//green/20181005_1528_SampleID_G52.tiff
F://SIPFlowData//best//green/20181005_1528_SampleID_G53.tiff
F://SIPFlowData//best//green/20181005_1528_SampleID_G54.tiff
F://SIPFlowData//best//green/20181005_1528_SampleID_G55.tiff
F://SIPFlowData//best//green/20181005_1528_SampleID_G56.tiff
F://SIPFlowData//best//green/20181005_1528_SampleID_G57.tiff
F://SIPFlowData//best//green/20181005_1528_SampleID_G58.tiff
F://SIPFlowData//best//green/20181005_1528_SampleID_G59.tiff
F://SIPFlowData//best//green/20181005_1528_SampleID_G60.tiff
F://SIPFlowData//best//green/20181005_1528_SampleID_G61.tiff
F://SIPFlowData//best//green/20181005_1528_SampleID_G62.tiff
F://SIPFlowData//best//green/20181005_1528_SampleID_G63.tiff
F://SIPFlowData//best//green/20181005_1528_SampleID_G64.tiff
F://SIPFlowData//best//green/20181005_1528_SampleID_G65.tiff
F://SIPFlowData//best//green/20181005_1528_SampleID_G66.tiff
F://SIPFlowData//best//green/20181005_1528_SampleID_G67.tiff
F://SIPFlowData//best//green/20181005_1528_SampleID_G68.tiff
F://SIPFlowData//best//green/20181005_1528_SampleID_G69.tiff
F://SIPFlowData//best//green/20181005_1528_SampleID_G70.tiff
F://SIPFlowData//best//green/20181005_1528_SampleID_G71.tiff
F://SIPFlowData//best//green/20181005_1528_SampleID_G72.tiff
F://SIPFlowData//best//green/20181005_1528_SampleID_G73.tiff
F://SIPFlowData//best//green/20181005_1528_SampleID_G74.tiff
F://SIPFlowData//best//green/20181005_1528_SampleID_G75.tiff
F://SIPFlowData//best//green/20181005_1528_SampleID_G76.tiff
F://SIPFlowData//best//green/20181005_1528_SampleID_G77.tiff
F://SIPFlowData//best//green/20181005_1528_SampleID_G78.tiff
F://SIPFlowData//best//green/20181005_1528_SampleID_G79.tiff
F://SIPFlowData//best//green/20181005_1528_SampleID_G80.tiff
F://SIPFlowData//best//green/20181005_1528_SampleID_G81.tiff
F://SIPFlowData//best//green/20181005_1528_SampleID_G82.tiff
F://SIPFlowData//best//green/20181005_1528_SampleID_G83.tiff
F://SIPFlowData//best//green/20181005_1528_SampleID_G84.tiff
F://SIPFlowData//best//green/20181005_1528_SampleID_G85.tiff
F://SIPFlowData//best//green/20181005_1528_SampleID_G86.tiff
F://SIPFlowData//best//green/20181005_1528_SampleID_G87.tiff
F://SIPFlowData//best//green/20181005_1528_SampleID_G88.tiff
F://SIPFlowData//best//green/20181005_1528_SampleID_G89.tiff
F://SIPFlowData//best//green/20181005_1528_SampleID_G90.tiff
F://SIPFlowData//best//green/20181005_1528_SampleID_G91.tiff
F://SIPFlowData//best//green/20181005_1528_SampleID_G92.tiff
F://SIPFlowData//best//green/20181005_1528_SampleID_G93.tiff
F://SIPFlowData//best//green/20181005_1528_SampleID_G94.tiff
F://SIPFlowData//best//green/20181005_1528_SampleID_G95.tiff
F://SIPFlowData//best//green/20181005_1528_SampleID_G96.tiff
F://SIPFlowData//best//green/20181005_1528_SampleID_G97.tiff
F://SIPFlowData//best//green/20181005_1528_SampleID_G98.tiff
F://SIPFlowData//best//green/20181005_1528_SampleID_G99.tiff
F://SIPFlowData//best//green/20181005_1528_SampleID_G100.tiff
F://SIPFlowData//best//green/20181005_1528_SampleID_G101.tiff
F://SIPFlowData//best//green/20181005_1528_SampleID_G102.tiff
F://SIPFlowData//best//green/20181005_1528_SampleID_G103.tiff
F://SIPFlowData//best//green/20181005_1528_SampleID_G104.tiff
F://SIPFlowData//best//green/20181005_1528_SampleID_G105.tiff
F://SIPFlowData//best//green/20181005_1528_SampleID_G106.tiff
F://SIPFlowData//best//green/20181005_1528_SampleID_G107.tiff
F://SIPFlowData//best//green/20181005_1528_SampleID_G108.tiff
F://SIPFlowData//best//green/20181005_1528_SampleID_G109.tiff
F://SIPFlowData//best//green/20181005_1528_SampleID_G110.tiff
F://SIPFlowData//best//green/20181005_1528_SampleID_G111.tiff
F://SIPFlowData//best//green/20181005_1528_SampleID_G112.tiff
F://SIPFlowData//best//green/20181005_1528_SampleID_G113.tiff
F://SIPFlowData//best//green/20181005_1528_SampleID_G114.tiff
F://SIPFlowData//best//green/20181005_1528_SampleID_G115.tiff
F://SIPFlowData//best//green/20181005_1528_SampleID_G116.tiff
F://SIPFlowData//best//green/20181005_1528_SampleID_G117.tiff
F://SIPFlowData//best//green/20181005_1528_SampleID_G118.tiff
F://SIPFlowData//best//green/20181005_1528_SampleID_G119.tiff
F://SIPFlowData//best//green/20181005_1528_SampleID_G120.tiff
F://SIPFlowData//best//green/20181005_1528_SampleID_G121.tiff
F://SIPFlowData//best//green/20181005_1528_SampleID_G122.tiff
F://SIPFlowData//best//green/20181005_1528_SampleID_G123.tiff
F://SIPFlowData//best//green/20181005_1528_SampleID_G124.tiff
F://SIPFlowData//best//green/20181005_1528_SampleID_G125.tiff
F://SIPFlowData//best//green/20181005_1528_SampleID_G126.tiff
F://SIPFlowData//best//green/20181005_1528_SampleID_G127.tiff
F://SIPFlowData//best//green/20181005_1528_SampleID_G128.tiff
F://SIPFlowData//best//green/20181005_1528_SampleID_G129.tiff
F://SIPFlowData//best//green/20181005_1528_SampleID_G130.tiff
F://SIPFlowData//best//green/20181005_1528_SampleID_G131.tiff
F://SIPFlowData//best//green/20181005_1528_SampleID_G132.tiff
F://SIPFlowData//best//green/20181005_1528_SampleID_G133.tiff
F://SIPFlowData//best//green/20181005_1528_SampleID_G134.tiff
F://SIPFlowData//best//green/20181005_1528_SampleID_G135.tiff
F://SIPFlowData//best//green/20181005_1528_SampleID_G136.tiff
F://SIPFlowData//best//green/20181005_1528_SampleID_G137.tiff
F://SIPFlowData//best//green/20181005_1528_SampleID_G138.tiff
F://SIPFlowData//best//green/20181005_1528_SampleID_G139.tiff
F://SIPFlowData//best//green/20181005_1528_SampleID_G140.tiff
F://SIPFlowData//best//green/20181005_1528_SampleID_G141.tiff
F://SIPFlowData//best//green/20181005_1528_SampleID_G142.tiff
F://SIPFlowData//best//green/20181005_1528_SampleID_G143.tiff
F://SIPFlowData//best//green/20181005_1528_SampleID_G144.tiff
F://SIPFlowData//best//green/20181005_1528_SampleID_G145.tiff
F://SIPFlowData//best//green/20181005_1528_SampleID_G146.tiff
F://SIPFlowData//best//green/20181005_1528_SampleID_G147.tiff
F://SIPFlowData//best//green/20181005_1528_SampleID_G148.tiff
F://SIPFlowData//best//green/20181005_1528_SampleID_G149.tiff
F://SIPFlowData//best//green/20181005_1528_SampleID_G150.tiff
F://SIPFlowData//best//green/20181005_1528_SampleID_G151.tiff
F://SIPFlowData//best//green/20181005_1528_SampleID_G152.tiff
F://SIPFlowData//best//green/20181005_1528_SampleID_G153.tiff
F://SIPFlowData//best//green/20181005_1528_SampleID_G154.tiff
F://SIPFlowData//best//green/20181005_1528_SampleID_G155.tiff
F://SIPFlowData//best//green/20181005_1528_SampleID_G156.tiff
F://SIPFlowData//best//green/20181005_1528_SampleID_G157.tiff
F://SIPFlowData//best//green/20181005_1528_SampleID_G158.tiff
F://SIPFlowData//best//green/20181005_1528_SampleID_G159.tiff
F://SIPFlowData//best//green/20181005_1528_SampleID_G160.tiff
F://SIPFlowData//best//green/20181005_1528_SampleID_G161.tiff
F://SIPFlowData//best//green/20181005_1528_SampleID_G162.tiff
F://SIPFlowData//best//green/20181005_1528_SampleID_G163.tiff
F://SIPFlowData//best//green/20181005_1528_SampleID_G164.tiff
F://SIPFlowData//best//green/20181005_1528_SampleID_G165.tiff
F://SIPFlowData//best//green/20181005_1528_SampleID_G166.tiff
F://SIPFlowData//best//green/20181005_1528_SampleID_G167.tiff
F://SIPFlowData//best//green/20181005_1528_SampleID_G168.tiff
F://SIPFlowData//best//green/20181005_1528_SampleID_G169.tiff
F://SIPFlowData//best//green/20181005_1528_SampleID_G170.tiff
F://SIPFlowData//best//green/20181005_1528_SampleID_G171.tiff
F://SIPFlowData//best//green/20181005_1528_SampleID_G172.tiff
F://SIPFlowData//best//green/20181005_1528_SampleID_G173.tiff
F://SIPFlowData//best//green/20181005_1528_SampleID_G174.tiff
F://SIPFlowData//best//green/20181005_1528_SampleID_G175.tiff
F://SIPFlowData//best//green/20181005_1528_SampleID_G176.tiff
F://SIPFlowData//best//green/20181005_1528_SampleID_G177.tiff
F://SIPFlowData//best//green/20181005_1528_SampleID_G178.tiff
F://SIPFlowData//best//green/20181005_1528_SampleID_G179.tiff
F://SIPFlowData//best//green/20181005_1528_SampleID_G180.tiff
F://SIPFlowData//best//green/20181005_1528_SampleID_G181.tiff
F://SIPFlowData//best//green/20181005_1528_SampleID_G182.tiff
F://SIPFlowData//best//green/20181005_1528_SampleID_G183.tiff
F://SIPFlowData//best//green/20181005_1528_SampleID_G184.tiff
F://SIPFlowData//best//green/20181005_1528_SampleID_G185.tiff
F://SIPFlowData//best//green/20181005_1528_SampleID_G186.tiff
F://SIPFlowData//best//green/20181005_1528_SampleID_G187.tiff
F://SIPFlowData//best//green/20181005_1528_SampleID_G188.tiff
F://SIPFlowData//best//green/20181005_1528_SampleID_G189.tiff
F://SIPFlowData//best//green/20181005_1528_SampleID_G190.tiff
F://SIPFlowData//best//green/20181005_1528_SampleID_G191.tiff
F://SIPFlowData//best//green/20181005_1528_SampleID_G192.tiff
F://SIPFlowData//best//green/20181005_1528_SampleID_G193.tiff
F://SIPFlowData//best//green/20181005_1528_SampleID_G194.tiff
F://SIPFlowData//best//green/20181005_1528_SampleID_G195.tiff
F://SIPFlowData//best//green/20181005_1528_SampleID_G196.tiff
F://SIPFlowData//best//green/20181005_1528_SampleID_G197.tiff
F://SIPFlowData//best//green/20181005_1528_SampleID_G198.tiff
F://SIPFlowData//best//green/20181005_1528_SampleID_G199.tiff
F://SIPFlowData//best//green/20181005_1528_SampleID_G200.tiff
F://SIPFlowData//best//green/20181005_1528_SampleID_G201.tiff
F://SIPFlowData//best//green/20181005_1528_SampleID_G202.tiff
F://SIPFlowData//best//green/20181005_1528_SampleID_G203.tiff
F://SIPFlowData//best//green/20181005_1528_SampleID_G204.tiff
F://SIPFlowData//best//green/20181005_1528_SampleID_G205.tiff
F://SIPFlowData//best//green/20181005_1528_SampleID_G206.tiff
F://SIPFlowData//best//green/20181005_1528_SampleID_G207.tiff
F://SIPFlowData//best//green/20181005_1528_SampleID_G208.tiff
F://SIPFlowData//best//green/20181005_1528_SampleID_G209.tiff
F://SIPFlowData//best//green/20181005_1528_SampleID_G210.tiff
F://SIPFlowData//best//green/20181005_1528_SampleID_G211.tiff
F://SIPFlowData//best//green/20181005_1528_SampleID_G212.tiff
F://SIPFlowData//best//green/20181005_1528_SampleID_G213.tiff
F://SIPFlowData//best//green/20181005_1528_SampleID_G214.tiff
F://SIPFlowData//best//green/20181005_1528_SampleID_G215.tiff
F://SIPFlowData//best//green/20181005_1528_SampleID_G216.tiff
F://SIPFlowData//best//green/20181005_1528_SampleID_G217.tiff
F://SIPFlowData//best//green/20181005_1528_SampleID_G218.tiff
F://SIPFlowData//best//green/20181005_1528_SampleID_G219.tiff
F://SIPFlowData//best//green/20181005_1528_SampleID_G220.tiff
F://SIPFlowData//best//green/20181005_1528_SampleID_G221.tiff
F://SIPFlowData//best//green/20181005_1528_SampleID_G222.tiff
F://SIPFlowData//best//green/20181005_1528_SampleID_G223.tiff
F://SIPFlowData//best//green/20181005_1528_SampleID_G224.tiff
F://SIPFlowData//best//green/20181005_1528_SampleID_G225.tiff
F://SIPFlowData//best//green/20181005_1528_SampleID_G226.tiff
F://SIPFlowData//best//green/20181005_1528_SampleID_G227.tiff
F://SIPFlowData//best//green/20181005_1528_SampleID_G228.tiff
F://SIPFlowData//best//green/20181005_1528_SampleID_G229.tiff
F://SIPFlowData//best//green/20181005_1528_SampleID_G230.tiff
F://SIPFlowData//best//green/20181005_1528_SampleID_G231.tiff
F://SIPFlowData//best//green/20181005_1528_SampleID_G232.tiff
F://SIPFlowData//best//green/20181005_1528_SampleID_G233.tiff
F://SIPFlowData//best//green/20181005_1528_SampleID_G234.tiff
F://SIPFlowData//best//green/20181005_1528_SampleID_G235.tiff
F://SIPFlowData//best//green/20181005_1528_SampleID_G236.tiff
F://SIPFlowData//best//green/20181005_1528_SampleID_G237.tiff
F://SIPFlowData//best//green/20181005_1528_SampleID_G238.tiff
F://SIPFlowData//best//green/20181005_1528_SampleID_G239.tiff
F://SIPFlowData//best//green/20181005_1528_SampleID_G240.tiff
F://SIPFlowData//best//green/20181005_1528_SampleID_G241.tiff
F://SIPFlowData//best//green/20181005_1528_SampleID_G242.tiff
F://SIPFlowData//best//green/20181005_1528_SampleID_G243.tiff
F://SIPFlowData//best//green/20181005_1528_SampleID_G244.tiff
F://SIPFlowData//best//green/20181005_1528_SampleID_G245.tiff
F://SIPFlowData//best//green/20181005_1528_SampleID_G246.tiff
F://SIPFlowData//best//green/20181005_1528_SampleID_G247.tiff
F://SIPFlowData//best//green/20181005_1528_SampleID_G248.tiff
F://SIPFlowData//best//green/20181005_1528_SampleID_G249.tiff
F://SIPFlowData//best//green/20181005_1528_SampleID_G250.tiff
F://SIPFlowData//best//green/20181005_1528_SampleID_G251.tiff
F://SIPFlowData//best//green/20181005_1528_SampleID_G252.tiff
F://SIPFlowData//best//green/20181005_1528_SampleID_G253.tiff
F://SIPFlowData//best//green/20181005_1528_SampleID_G254.tiff
F://SIPFlowData//best//green/20181005_1528_SampleID_G255.tiff
F://SIPFlowData//best//green/20181005_1528_SampleID_G256.tiff
F://SIPFlowData//best//green/20181005_1528_SampleID_G257.tiff
F://SIPFlowData//best//green/20181005_1528_SampleID_G258.tiff
F://SIPFlowData//best//green/20181005_1528_SampleID_G259.tiff
F://SIPFlowData//best//green/20181005_1528_SampleID_G260.tiff
F://SIPFlowData//best//green/20181005_1528_SampleID_G261.tiff
F://SIPFlowData//best//green/20181005_1528_SampleID_G262.tiff
F://SIPFlowData//best//green/20181005_1528_SampleID_G263.tiff
F://SIPFlowData//best//green/20181005_1528_SampleID_G264.tiff
F://SIPFlowData//best//green/20181005_1528_SampleID_G265.tiff
F://SIPFlowData//best//green/20181005_1528_SampleID_G266.tiff
F://SIPFlowData//best//green/20181005_1528_SampleID_G267.tiff
F://SIPFlowData//best//green/20181005_1528_SampleID_G268.tiff
F://SIPFlowData//best//green/20181005_1528_SampleID_G269.tiff
F://SIPFlowData//best//green/20181005_1528_SampleID_G270.tiff
F://SIPFlowData//best//green/20181005_1528_SampleID_G271.tiff
F://SIPFlowData//best//green/20181005_1528_SampleID_G272.tiff
F://SIPFlowData//best//green/20181005_1528_SampleID_G273.tiff
F://SIPFlowData//best//green/20181005_1528_SampleID_G274.tiff
F://SIPFlowData//best//green/20181005_1528_SampleID_G275.tiff
F://SIPFlowData//best//green/20181005_1528_SampleID_G276.tiff
F://SIPFlowData//best//green/20181005_1528_SampleID_G277.tiff
F://SIPFlowData//best//green/20181005_1528_SampleID_G278.tiff
F://SIPFlowData//best//green/20181005_1528_SampleID_G279.tiff
F://SIPFlowData//best//green/20181005_1528_SampleID_G280.tiff
F://SIPFlowData//best//green/20181005_1528_SampleID_G281.tiff
F://SIPFlowData//best//green/20181005_1528_SampleID_G282.tiff
F://SIPFlowData//best//green/20181005_1528_SampleID_G283.tiff
F://SIPFlowData//best//green/20181005_1528_SampleID_G284.tiff
F://SIPFlowData//best//green/20181005_1528_SampleID_G285.tiff
F://SIPFlowData//best//green/20181005_1528_SampleID_G286.tiff
F://SIPFlowData//best//green/20181005_1528_SampleID_G287.tiff
F://SIPFlowData//best//green/20181005_1528_SampleID_G288.tiff
F://SIPFlowData//best//green/20181005_1528_SampleID_G289.tiff
F://SIPFlowData//best//green/20181005_1528_SampleID_G290.tiff
F://SIPFlowData//best//green/20181005_1528_SampleID_G291.tiff
F://SIPFlowData//best//green/20181005_1528_SampleID_G292.tiff
F://SIPFlowData//best//green/20181005_1528_SampleID_G293.tiff
F://SIPFlowData//best//green/20181005_1528_SampleID_G294.tiff
F://SIPFlowData//best//green/20181005_1528_SampleID_G295.tiff
F://SIPFlowData//best//green/20181005_1528_SampleID_G296.tiff
F://SIPFlowData//best//green/20181005_1528_SampleID_G297.tiff
F://SIPFlowData//best//green/20181005_1528_SampleID_G298.tiff
F://SIPFlowData//best//green/20181005_1528_SampleID_G299.tiff
F://SIPFlowData//best//green/20181005_1528_SampleID_G300.tiff
F://SIPFlowData//best//green/20181005_1528_SampleID_G301.tiff
F://SIPFlowData//best//green/20181005_1528_SampleID_G302.tiff
F://SIPFlowData//best//green/20181005_1528_SampleID_G303.tiff
F://SIPFlowData//best//green/20181005_1528_SampleID_G304.tiff
F://SIPFlowData//best//green/20181005_1528_SampleID_G305.tiff
F://SIPFlowData//best//green/20181005_1528_SampleID_G306.tiff
F://SIPFlowData//best//green/20181005_1528_SampleID_G307.tiff
F://SIPFlowData//best//green/20181005_1528_SampleID_G308.tiff
F://SIPFlowData//best//green/20181005_1528_SampleID_G309.tiff
F://SIPFlowData//best//green/20181005_1528_SampleID_G310.tiff
F://SIPFlowData//best//green/20181005_1528_SampleID_G311.tiff
F://SIPFlowData//best//green/20181005_1528_SampleID_G312.tiff
F://SIPFlowData//best//green/20181005_1528_SampleID_G313.tiff
F://SIPFlowData//best//green/20181005_1528_SampleID_G314.tiff
F://SIPFlowData//best//green/20181005_1528_SampleID_G315.tiff
F://SIPFlowData//best//green/20181005_1528_SampleID_G316.tiff
F://SIPFlowData//best//green/20181005_1528_SampleID_G317.tiff
F://SIPFlowData//best//green/20181005_1528_SampleID_G318.tiff
F://SIPFlowData//best//green/20181005_1528_SampleID_G319.tiff
F://SIPFlowData//best//green/20181005_1528_SampleID_G320.tiff
F://SIPFlowData//best//green/20181005_1528_SampleID_G321.tiff
F://SIPFlowData//best//green/20181005_1528_SampleID_G322.tiff
F://SIPFlowData//best//green/20181005_1528_SampleID_G323.tiff
F://SIPFlowData//best//green/20181005_1528_SampleID_G324.tiff
F://SIPFlowData//best//green/20181005_1528_SampleID_G325.tiff
F://SIPFlowData//best//green/20181005_1528_SampleID_G326.tiff
F://SIPFlowData//best//green/20181005_1528_SampleID_G327.tiff
F://SIPFlowData//best//green/20181005_1528_SampleID_G328.tiff
F://SIPFlowData//best//green/20181005_1528_SampleID_G329.tiff
F://SIPFlowData//best//green/20181005_1528_SampleID_G330.tiff
F://SIPFlowData//best//green/20181005_1528_SampleID_G331.tiff
F://SIPFlowData//best//green/20181005_1528_SampleID_G332.tiff
F://SIPFlowData//best//green/20181005_1528_SampleID_G333.tiff
F://SIPFlowData//best//green/20181005_1528_SampleID_G334.tiff
F://SIPFlowData//best//green/20181005_1528_SampleID_G335.tiff
F://SIPFlowData//best//green/20181005_1528_SampleID_G336.tiff
F://SIPFlowData//best//green/20181005_1528_SampleID_G337.tiff
F://SIPFlowData//best//green/20181005_1528_SampleID_G338.tiff
F://SIPFlowData//best//green/20181005_1528_SampleID_G339.tiff
F://SIPFlowData//best//green/20181005_1528_SampleID_G340.tiff
F://SIPFlowData//best//green/20181005_1528_SampleID_G341.tiff
F://SIPFlowData//best//green/20181005_1528_SampleID_G342.tiff
F://SIPFlowData//best//green/20181005_1528_SampleID_G343.tiff
F://SIPFlowData//best//green/20181005_1528_SampleID_G344.tiff
F://SIPFlowData//best//green/20181005_1528_SampleID_G345.tiff
F://SIPFlowData//best//green/20181005_1528_SampleID_G346.tiff
F://SIPFlowData//best//green/20181005_1528_SampleID_G347.tiff
F://SIPFlowData//best//green/20181005_1528_SampleID_G348.tiff
F://SIPFlowData//best//green/20181005_1528_SampleID_G349.tiff
F://SIPFlowData//best//green/20181005_1528_SampleID_G350.tiff
F://SIPFlowData//best//green/20181005_1528_SampleID_G351.tiff
F://SIPFlowData//best//green/20181005_1528_SampleID_G352.tiff
F://SIPFlowData//best//green/20181005_1528_SampleID_G353.tiff
F://SIPFlowData//best//green/20181005_1528_SampleID_G354.tiff
F://SIPFlowData//best//green/20181005_1528_SampleID_G355.tiff
F://SIPFlowData//best//green/20181005_1528_SampleID_G356.tiff
F://SIPFlowData//best//green/20181005_1528_SampleID_G357.tiff
F://SIPFlowData//best//green/20181005_1528_SampleID_G358.tiff
F://SIPFlowData//best//green/20181005_1528_SampleID_G359.tiff
F://SIPFlowData//best//green/20181005_1528_SampleID_G360.tiff
F://SIPFlowData//best//green/20181005_1528_SampleID_G361.tiff
F://SIPFlowData//best//green/20181005_1528_SampleID_G362.tiff
F://SIPFlowData//best//green/20181005_1528_SampleID_G363.tiff
F://SIPFlowData//best//green/20181005_1528_SampleID_G364.tiff
F://SIPFlowData//best//green/20181005_1528_SampleID_G365.tiff
F://SIPFlowData//best//green/20181005_1528_SampleID_G366.tiff
F://SIPFlowData//best//green/20181005_1528_SampleID_G367.tiff
F://SIPFlowData//best//green/20181005_1528_SampleID_G368.tiff
F://SIPFlowData//best//green/20181005_1528_SampleID_G369.tiff
F://SIPFlowData//best//green/20181005_1528_SampleID_G370.tiff
F://SIPFlowData//best//green/20181005_1528_SampleID_G371.tiff
F://SIPFlowData//best//green/20181005_1528_SampleID_G372.tiff
F://SIPFlowData//best//green/20181005_1528_SampleID_G373.tiff
F://SIPFlowData//best//green/20181005_1528_SampleID_G374.tiff
F://SIPFlowData//best//green/20181005_1528_SampleID_G375.tiff
F://SIPFlowData//best//green/20181005_1528_SampleID_G376.tiff
F://SIPFlowData//best//green/20181005_1528_SampleID_G377.tiff
F://SIPFlowData//best//green/20181005_1528_SampleID_G378.tiff
F://SIPFlowData//best//green/20181005_1528_SampleID_G379.tiff
F://SIPFlowData//best//green/20181005_1528_SampleID_G380.tiff
F://SIPFlowData//best//green/20181005_1528_SampleID_G381.tiff
F://SIPFlowData//best//green/20181005_1528_SampleID_G382.tiff
F://SIPFlowData//best//green/20181005_1528_SampleID_G383.tiff
F://SIPFlowData//best//green/20181005_1528_SampleID_G384.tiff
F://SIPFlowData//best//green/20181005_1528_SampleID_G385.tiff
F://SIPFlowData//best//green/20181005_1528_SampleID_G386.tiff
F://SIPFlowData//best//green/20181005_1528_SampleID_G387.tiff
F://SIPFlowData//best//green/20181005_1528_SampleID_G388.tiff
F://SIPFlowData//best//green/20181005_1528_SampleID_G389.tiff
F://SIPFlowData//best//green/20181005_1528_SampleID_G390.tiff
F://SIPFlowData//best//green/20181005_1528_SampleID_G391.tiff
F://SIPFlowData//best//green/20181005_1528_SampleID_G392.tiff
F://SIPFlowData//best//green/20181005_1528_SampleID_G393.tiff
F://SIPFlowData//best//green/20181005_1528_SampleID_G394.tiff
F://SIPFlowData//best//green/20181005_1528_SampleID_G395.tiff
F://SIPFlowData//best//green/20181005_1528_SampleID_G396.tiff
F://SIPFlowData//best//green/20181005_1528_SampleID_G397.tiff
F://SIPFlowData//best//green/20181005_1528_SampleID_G398.tiff
F://SIPFlowData//best//green/20181005_1528_SampleID_G399.tiff
F://SIPFlowData//best//green/20181005_1528_SampleID_G400.tiff
F://SIPFlowData//best//green/20181005_1528_SampleID_G401.tiff
F://SIPFlowData//best//green/20181005_1528_SampleID_G402.tiff
F://SIPFlowData//best//green/20181005_1528_SampleID_G403.tiff
F://SIPFlowData//best//green/20181005_1528_SampleID_G404.tiff
F://SIPFlowData//best//green/20181005_1528_SampleID_G405.tiff
F://SIPFlowData//best//green/20181005_1528_SampleID_G406.tiff
F://SIPFlowData//best//green/20181005_1528_SampleID_G407.tiff
F://SIPFlowData//best//green/20181005_1528_SampleID_G408.tiff
F://SIPFlowData//best//green/20181005_1528_SampleID_G409.tiff
F://SIPFlowData//best//green/20181005_1528_SampleID_G410.tiff
F://SIPFlowData//best//green/20181005_1528_SampleID_G411.tiff
F://SIPFlowData//best//green/20181005_1528_SampleID_G412.tiff
F://SIPFlowData//best//green/20181005_1528_SampleID_G413.tiff
F://SIPFlowData//best//green/20181005_1528_SampleID_G414.tiff
F://SIPFlowData//best//green/20181005_1528_SampleID_G415.tiff
F://SIPFlowData//best//green/20181005_1528_SampleID_G416.tiff
F://SIPFlowData//best//green/20181005_1528_SampleID_G417.tiff
F://SIPFlowData//best//green/20181005_1528_SampleID_G418.tiff
F://SIPFlowData//best//green/20181005_1528_SampleID_G419.tiff
F://SIPFlowData//best//green/20181005_1528_SampleID_G420.tiff
F://SIPFlowData//best//green/20181005_1528_SampleID_G421.tiff
F://SIPFlowData//best//green/20181005_1528_SampleID_G422.tiff
F://SIPFlowData//best//green/20181005_1528_SampleID_G423.tiff
F://SIPFlowData//best//green/20181005_1528_SampleID_G424.tiff
F://SIPFlowData//best//green/20181005_1528_SampleID_G425.tiff
F://SIPFlowData//best//green/20181005_1528_SampleID_G426.tiff
F://SIPFlowData//best//green/20181005_1528_SampleID_G427.tiff
F://SIPFlowData//best//green/20181005_1528_SampleID_G428.tiff
F://SIPFlowData//best//green/20181005_1528_SampleID_G429.tiff
F://SIPFlowData//best//green/20181005_1528_SampleID_G430.tiff
F://SIPFlowData//best//green/20181005_1528_SampleID_G431.tiff
F://SIPFlowData//best//green/20181005_1528_SampleID_G432.tiff
F://SIPFlowData//best//green/20181005_1528_SampleID_G433.tiff
F://SIPFlowData//best//green/20181005_1528_SampleID_G434.tiff
F://SIPFlowData//best//green/20181005_1528_SampleID_G435.tiff
F://SIPFlowData//best//green/20181005_1528_SampleID_G436.tiff
F://SIPFlowData//best//green/20181005_1528_SampleID_G437.tiff
F://SIPFlowData//best//green/20181005_1528_SampleID_G438.tiff
F://SIPFlowData//best//green/20181005_1528_SampleID_G439.tiff
F://SIPFlowData//best//green/20181005_1528_SampleID_G440.tiff
F://SIPFlowData//best//green/20181005_1528_SampleID_G441.tiff
F://SIPFlowData//best//green/20181005_1528_SampleID_G442.tiff
F://SIPFlowData//best//green/20181005_1528_SampleID_G443.tiff
F://SIPFlowData//best//green/20181005_1528_SampleID_G444.tiff
F://SIPFlowData//best//green/20181005_1528_SampleID_G445.tiff
F://SIPFlowData//best//green/20181005_1528_SampleID_G446.tiff
F://SIPFlowData//best//green/20181005_1528_SampleID_G447.tiff
F://SIPFlowData//best//green/20181005_1528_SampleID_G448.tiff
F://SIPFlowData//best//green/20181005_1528_SampleID_G449.tiff
F://SIPFlowData//best//green/20181005_1528_SampleID_G450.tiff
F://SIPFlowData//best//green/20181005_1528_SampleID_G451.tiff
F://SIPFlowData//best//green/20181005_1528_SampleID_G452.tiff
F://SIPFlowData//best//green/20181005_1528_SampleID_G453.tiff
F://SIPFlowData//best//green/20181005_1528_SampleID_G454.tiff
F://SIPFlowData//best//green/20181005_1528_SampleID_G455.tiff
F://SIPFlowData//best//green/20181005_1528_SampleID_G456.tiff
F://SIPFlowData//best//green/20181005_1528_SampleID_G457.tiff
F://SIPFlowData//best//green/20181005_1528_SampleID_G458.tiff
F://SIPFlowData//best//green/20181005_1528_SampleID_G459.tiff
F://SIPFlowData//best//green/20181005_1528_SampleID_G460.tiff
F://SIPFlowData//best//green/20181005_1528_SampleID_G461.tiff
F://SIPFlowData//best//green/20181005_1528_SampleID_G462.tiff
F://SIPFlowData//best//green/20181005_1528_SampleID_G463.tiff
F://SIPFlowData//best//green/20181005_1528_SampleID_G464.tiff
F://SIPFlowData//best//green/20181005_1528_SampleID_G465.tiff
F://SIPFlowData//best//green/20181005_1528_SampleID_G466.tiff
F://SIPFlowData//best//green/20181005_1528_SampleID_G467.tiff
F://SIPFlowData//best//green/20181005_1528_SampleID_G468.tiff
F://SIPFlowData//best//green/20181005_1528_SampleID_G469.tiff
F://SIPFlowData//best//green/20181005_1528_SampleID_G470.tiff
F://SIPFlowData//best//green/20181005_1528_SampleID_G471.tiff
F://SIPFlowData//best//green/20181005_1528_SampleID_G472.tiff
F://SIPFlowData//best//green/20181005_1528_SampleID_G473.tiff
F://SIPFlowData//best//green/20181005_1528_SampleID_G474.tiff
F://SIPFlowData//best//green/20181005_1528_SampleID_G475.tiff
F://SIPFlowData//best//green/20181005_1528_SampleID_G476.tiff
F://SIPFlowData//best//green/20181005_1528_SampleID_G477.tiff
F://SIPFlowData//best//green/20181005_1528_SampleID_G478.tiff
F://SIPFlowData//best//green/20181005_1528_SampleID_G479.tiff
F://SIPFlowData//best//green/20181005_1528_SampleID_G480.tiff
F://SIPFlowData//best//green/20181005_1528_SampleID_G481.tiff
F://SIPFlowData//best//green/20181005_1528_SampleID_G482.tiff
F://SIPFlowData//best//green/20181005_1528_SampleID_G483.tiff
F://SIPFlowData//best//green/20181005_1528_SampleID_G484.tiff
F://SIPFlowData//best//green/20181005_1528_SampleID_G485.tiff
F://SIPFlowData//best//green/20181005_1528_SampleID_G486.tiff
F://SIPFlowData//best//green/20181005_1528_SampleID_G487.tiff
F://SIPFlowData//best//green/20181005_1528_SampleID_G488.tiff
F://SIPFlowData//best//green/20181005_1528_SampleID_G489.tiff
F://SIPFlowData//best//green/20181005_1528_SampleID_G490.tiff
F://SIPFlowData//best//green/20181005_1528_SampleID_G491.tiff
F://SIPFlowData//best//green/20181005_1528_SampleID_G492.tiff
F://SIPFlowData//best//green/20181005_1528_SampleID_G493.tiff
F://SIPFlowData//best//green/20181005_1528_SampleID_G494.tiff
F://SIPFlowData//best//green/20181005_1528_SampleID_G495.tiff
F://SIPFlowData//best//green/20181005_1528_SampleID_G496.tiff
F://SIPFlowData//best//green/20181005_1528_SampleID_G497.tiff
F://SIPFlowData//best//green/20181005_1528_SampleID_G498.tiff
F://SIPFlowData//best//green/20181005_1528_SampleID_G499.tiff
F://SIPFlowData//best//green/20181005_1528_SampleID_G500.tiff
F://SIPFlowData//best//green/20181005_1528_SampleID_G501.tiff
F://SIPFlowData//best//green/20181005_1528_SampleID_G502.tiff
F://SIPFlowData//best//green/20181005_1528_SampleID_G503.tiff
F://SIPFlowData//best//green/20181005_1528_SampleID_G504.tiff
F://SIPFlowData//best//green/20181005_1528_SampleID_G505.tiff
F://SIPFlowData//best//green/20181005_1528_SampleID_G506.tiff
F://SIPFlowData//best//green/20181005_1528_SampleID_G507.tiff
F://SIPFlowData//best//green/20181005_1528_SampleID_G508.tiff
F://SIPFlowData//best//green/20181005_1529_SampleID_G509.tiff
F://SIPFlowData//best//green/20181005_1529_SampleID_G510.tiff
F://SIPFlowData//best//green/20181005_1529_SampleID_G511.tiff
F://SIPFlowData//best//green/20181005_1529_SampleID_G512.tiff
F://SIPFlowData//best//green/20181005_1529_SampleID_G513.tiff
F://SIPFlowData//best//green/20181005_1529_SampleID_G514.tiff
F://SIPFlowData//best//green/20181005_1529_SampleID_G515.tiff
F://SIPFlowData//best//green/20181005_1529_SampleID_G516.tiff
F://SIPFlowData//best//green/20181005_1529_SampleID_G517.tiff
F://SIPFlowData//best//green/20181005_1529_SampleID_G518.tiff
F://SIPFlowData//best//green/20181005_1529_SampleID_G519.tiff
F://SIPFlowData//best//green/20181005_1529_SampleID_G520.tiff
F://SIPFlowData//best//green/20181005_1529_SampleID_G521.tiff
F://SIPFlowData//best//green/20181005_1529_SampleID_G522.tiff
F://SIPFlowData//best//green/20181005_1529_SampleID_G523.tiff
F://SIPFlowData//best//green/20181005_1529_SampleID_G524.tiff
F://SIPFlowData//best//green/20181005_1529_SampleID_G525.tiff
F://SIPFlowData//best//green/20181005_1529_SampleID_G526.tiff
F://SIPFlowData//best//green/20181005_1529_SampleID_G527.tiff
F://SIPFlowData//best//green/20181005_1529_SampleID_G528.tiff
F://SIPFlowData//best//green/20181005_1529_SampleID_G529.tiff
F://SIPFlowData//best//green/20181005_1529_SampleID_G530.tiff
F://SIPFlowData//best//green/20181005_1529_SampleID_G531.tiff
F://SIPFlowData//best//green/20181005_1529_SampleID_G532.tiff
F://SIPFlowData//best//green/20181005_1529_SampleID_G533.tiff
F://SIPFlowData//best//green/20181005_1529_SampleID_G534.tiff
F://SIPFlowData//best//green/20181005_1529_SampleID_G535.tiff
F://SIPFlowData//best//green/20181005_1529_SampleID_G536.tiff
F://SIPFlowData//best//green/20181005_1529_SampleID_G537.tiff
F://SIPFlowData//best//green/20181005_1529_SampleID_G538.tiff
F://SIPFlowData//best//green/20181005_1529_SampleID_G539.tiff
F://SIPFlowData//best//green/20181005_1529_SampleID_G540.tiff
F://SIPFlowData//best//green/20181005_1529_SampleID_G541.tiff
F://SIPFlowData//best//green/20181005_1529_SampleID_G542.tiff
F://SIPFlowData//best//green/20181005_1529_SampleID_G543.tiff
F://SIPFlowData//best//green/20181005_1529_SampleID_G544.tiff
F://SIPFlowData//best//green/20181005_1529_SampleID_G545.tiff
F://SIPFlowData//best//green/20181005_1529_SampleID_G546.tiff
F://SIPFlowData//best//green/20181005_1529_SampleID_G547.tiff
F://SIPFlowData//best//green/20181005_1529_SampleID_G548.tiff
F://SIPFlowData//best//green/20181005_1529_SampleID_G549.tiff
F://SIPFlowData//best//green/20181005_1529_SampleID_G550.tiff
F://SIPFlowData//best//green/20181005_1529_SampleID_G551.tiff
F://SIPFlowData//best//green/20181005_1529_SampleID_G552.tiff
F://SIPFlowData//best//green/20181005_1529_SampleID_G553.tiff
F://SIPFlowData//best//green/20181005_1529_SampleID_G554.tiff
F://SIPFlowData//best//green/20181005_1529_SampleID_G555.tiff
F://SIPFlowData//best//green/20181005_1529_SampleID_G556.tiff
F://SIPFlowData//best//green/20181005_1529_SampleID_G557.tiff
F://SIPFlowData//best//green/20181005_1529_SampleID_G558.tiff
F://SIPFlowData//best//green/20181005_1529_SampleID_G559.tiff
F://SIPFlowData//best//green/20181005_1529_SampleID_G560.tiff
F://SIPFlowData//best//green/20181005_1529_SampleID_G561.tiff
F://SIPFlowData//best//green/20181005_1529_SampleID_G562.tiff
F://SIPFlowData//best//green/20181005_1529_SampleID_G563.tiff
F://SIPFlowData//best//green/20181005_1529_SampleID_G564.tiff
F://SIPFlowData//best//green/20181005_1529_SampleID_G565.tiff
F://SIPFlowData//best//green/20181005_1529_SampleID_G566.tiff
F://SIPFlowData//best//green/20181005_1529_SampleID_G567.tiff
F://SIPFlowData//best//green/20181005_1529_SampleID_G568.tiff
F://SIPFlowData//best//green/20181005_1529_SampleID_G569.tiff
F://SIPFlowData//best//green/20181005_1529_SampleID_G570.tiff
F://SIPFlowData//best//green/20181005_1529_SampleID_G571.tiff
F://SIPFlowData//best//green/20181005_1529_SampleID_G572.tiff
F://SIPFlowData//best//green/20181005_1529_SampleID_G573.tiff
F://SIPFlowData//best//green/20181005_1529_SampleID_G574.tiff
F://SIPFlowData//best//green/20181005_1529_SampleID_G575.tiff
F://SIPFlowData//best//green/20181005_1529_SampleID_G576.tiff
F://SIPFlowData//best//green/20181005_1529_SampleID_G577.tiff
F://SIPFlowData//best//green/20181005_1529_SampleID_G578.tiff
F://SIPFlowData//best//green/20181005_1529_SampleID_G579.tiff
F://SIPFlowData//best//green/20181005_1529_SampleID_G580.tiff
F://SIPFlowData//best//green/20181005_1529_SampleID_G581.tiff
F://SIPFlowData//best//green/20181005_1529_SampleID_G582.tiff
F://SIPFlowData//best//green/20181005_1529_SampleID_G583.tiff
F://SIPFlowData//best//green/20181005_1529_SampleID_G584.tiff
F://SIPFlowData//best//green/20181005_1529_SampleID_G585.tiff
F://SIPFlowData//best//green/20181005_1529_SampleID_G586.tiff
F://SIPFlowData//best//green/20181005_1529_SampleID_G587.tiff
F://SIPFlowData//best//green/20181005_1529_SampleID_G588.tiff
F://SIPFlowData//best//green/20181005_1529_SampleID_G589.tiff
F://SIPFlowData//best//green/20181005_1529_SampleID_G590.tiff
F://SIPFlowData//best//green/20181005_1529_SampleID_G591.tiff
F://SIPFlowData//best//green/20181005_1529_SampleID_G592.tiff
F://SIPFlowData//best//green/20181005_1529_SampleID_G593.tiff
F://SIPFlowData//best//green/20181005_1529_SampleID_G594.tiff
F://SIPFlowData//best//green/20181005_1529_SampleID_G595.tiff
F://SIPFlowData//best//green/20181005_1529_SampleID_G596.tiff
F://SIPFlowData//best//green/20181005_1529_SampleID_G597.tiff
F://SIPFlowData//best//green/20181005_1529_SampleID_G598.tiff
F://SIPFlowData//best//green/20181005_1529_SampleID_G599.tiff
F://SIPFlowData//best//green/20181005_1529_SampleID_G600.tiff
F://SIPFlowData//best//green/20181005_1529_SampleID_G601.tiff
F://SIPFlowData//best//green/20181005_1529_SampleID_G602.tiff
F://SIPFlowData//best//green/20181005_1529_SampleID_G603.tiff
F://SIPFlowData//best//green/20181005_1529_SampleID_G604.tiff
F://SIPFlowData//best//green/20181005_1529_SampleID_G605.tiff
F://SIPFlowData//best//green/20181005_1529_SampleID_G606.tiff
F://SIPFlowData//best//green/20181005_1529_SampleID_G607.tiff
F://SIPFlowData//best//green/20181005_1529_SampleID_G608.tiff
F://SIPFlowData//best//green/20181005_1529_SampleID_G609.tiff
F://SIPFlowData//best//green/20181005_1529_SampleID_G610.tiff
F://SIPFlowData//best//green/20181005_1529_SampleID_G611.tiff
F://SIPFlowData//best//green/20181005_1529_SampleID_G612.tiff
F://SIPFlowData//best//green/20181005_1529_SampleID_G613.tiff
F://SIPFlowData//best//green/20181005_1529_SampleID_G614.tiff
F://SIPFlowData//best//green/20181005_1529_SampleID_G615.tiff
F://SIPFlowData//best//green/20181005_1529_SampleID_G616.tiff
F://SIPFlowData//best//green/20181005_1529_SampleID_G617.tiff
F://SIPFlowData//best//green/20181005_1529_SampleID_G618.tiff
F://SIPFlowData//best//green/20181005_1529_SampleID_G619.tiff
F://SIPFlowData//best//green/20181005_1529_SampleID_G620.tiff
F://SIPFlowData//best//green/20181005_1529_SampleID_G621.tiff
F://SIPFlowData//best//green/20181005_1529_SampleID_G622.tiff
F://SIPFlowData//best//green/20181005_1529_SampleID_G623.tiff
F://SIPFlowData//best//green/20181005_1529_SampleID_G624.tiff
F://SIPFlowData//best//green/20181005_1529_SampleID_G625.tiff
F://SIPFlowData//best//green/20181005_1529_SampleID_G626.tiff
F://SIPFlowData//best//green/20181005_1529_SampleID_G627.tiff
F://SIPFlowData//best//green/20181005_1529_SampleID_G628.tiff
F://SIPFlowData//best//green/20181005_1529_SampleID_G629.tiff
F://SIPFlowData//best//green/20181005_1529_SampleID_G630.tiff
F://SIPFlowData//best//green/20181005_1529_SampleID_G631.tiff
F://SIPFlowData//best//green/20181005_1529_SampleID_G632.tiff
F://SIPFlowData//best//green/20181005_1529_SampleID_G633.tiff
F://SIPFlowData//best//green/20181005_1529_SampleID_G634.tiff
F://SIPFlowData//best//green/20181005_1529_SampleID_G635.tiff
F://SIPFlowData//best//green/20181005_1529_SampleID_G636.tiff
F://SIPFlowData//best//green/20181005_1529_SampleID_G637.tiff
F://SIPFlowData//best//green/20181005_1529_SampleID_G638.tiff
F://SIPFlowData//best//green/20181005_1529_SampleID_G639.tiff
F://SIPFlowData//best//green/20181005_1529_SampleID_G640.tiff
F://SIPFlowData//best//green/20181005_1529_SampleID_G641.tiff
F://SIPFlowData//best//green/20181005_1529_SampleID_G642.tiff
F://SIPFlowData//best//green/20181005_1529_SampleID_G643.tiff
F://SIPFlowData//best//green/20181005_1529_SampleID_G644.tiff
F://SIPFlowData//best//green/20181005_1529_SampleID_G645.tiff
F://SIPFlowData//best//green/20181005_1529_SampleID_G646.tiff
F://SIPFlowData//best//green/20181005_1529_SampleID_G647.tiff
F://SIPFlowData//best//green/20181005_1529_SampleID_G648.tiff
F://SIPFlowData//best//green/20181005_1529_SampleID_G649.tiff
F://SIPFlowData//best//green/20181005_1529_SampleID_G650.tiff
F://SIPFlowData//best//green/20181005_1529_SampleID_G651.tiff
F://SIPFlowData//best//green/20181005_1529_SampleID_G652.tiff
F://SIPFlowData//best//green/20181005_1529_SampleID_G653.tiff
F://SIPFlowData//best//green/20181005_1529_SampleID_G654.tiff
F://SIPFlowData//best//green/20181005_1529_SampleID_G655.tiff
F://SIPFlowData//best//green/20181005_1529_SampleID_G656.tiff
F://SIPFlowData//best//green/20181005_1529_SampleID_G657.tiff
F://SIPFlowData//best//green/20181005_1529_SampleID_G658.tiff
F://SIPFlowData//best//green/20181005_1529_SampleID_G659.tiff
F://SIPFlowData//best//green/20181005_1529_SampleID_G660.tiff
F://SIPFlowData//best//green/20181005_1529_SampleID_G661.tiff
F://SIPFlowData//best//green/20181005_1529_SampleID_G662.tiff
F://SIPFlowData//best//green/20181005_1529_SampleID_G663.tiff
F://SIPFlowData//best//green/20181005_1529_SampleID_G664.tiff
F://SIPFlowData//best//green/20181005_1529_SampleID_G665.tiff
F://SIPFlowData//best//green/20181005_1529_SampleID_G666.tiff
F://SIPFlowData//best//green/20181005_1529_SampleID_G667.tiff
F://SIPFlowData//best//green/20181005_1529_SampleID_G668.tiff
F://SIPFlowData//best//green/20181005_1529_SampleID_G669.tiff
F://SIPFlowData//best//green/20181005_1529_SampleID_G670.tiff
F://SIPFlowData//best//green/20181005_1529_SampleID_G671.tiff
F://SIPFlowData//best//green/20181005_1529_SampleID_G672.tiff
F://SIPFlowData//best//green/20181005_1529_SampleID_G673.tiff
F://SIPFlowData//best//green/20181005_1529_SampleID_G674.tiff
F://SIPFlowData//best//green/20181005_1529_SampleID_G675.tiff
F://SIPFlowData//best//green/20181005_1529_SampleID_G676.tiff
F://SIPFlowData//best//green/20181005_1529_SampleID_G677.tiff
F://SIPFlowData//best//green/20181005_1529_SampleID_G678.tiff
F://SIPFlowData//best//green/20181005_1529_SampleID_G679.tiff
F://SIPFlowData//best//green/20181005_1529_SampleID_G680.tiff
F://SIPFlowData//best//green/20181005_1529_SampleID_G681.tiff
F://SIPFlowData//best//green/20181005_1529_SampleID_G682.tiff
F://SIPFlowData//best//green/20181005_1529_SampleID_G683.tiff
F://SIPFlowData//best//green/20181005_1529_SampleID_G684.tiff
F://SIPFlowData//best//green/20181005_1529_SampleID_G685.tiff
F://SIPFlowData//best//green/20181005_1529_SampleID_G686.tiff
F://SIPFlowData//best//green/20181005_1529_SampleID_G687.tiff
F://SIPFlowData//best//green/20181005_1529_SampleID_G688.tiff
F://SIPFlowData//best//green/20181005_1529_SampleID_G689.tiff
F://SIPFlowData//best//green/20181005_1529_SampleID_G690.tiff
F://SIPFlowData//best//green/20181005_1529_SampleID_G691.tiff
F://SIPFlowData//best//green/20181005_1529_SampleID_G692.tiff
F://SIPFlowData//best//green/20181005_1529_SampleID_G693.tiff
F://SIPFlowData//best//green/20181005_1529_SampleID_G694.tiff
F://SIPFlowData//best//green/20181005_1529_SampleID_G695.tiff
F://SIPFlowData//best//green/20181005_1529_SampleID_G696.tiff
F://SIPFlowData//best//green/20181005_1529_SampleID_G697.tiff
F://SIPFlowData//best//green/20181005_1529_SampleID_G698.tiff
F://SIPFlowData//best//green/20181005_1529_SampleID_G699.tiff
F://SIPFlowData//best//green/20181005_1529_SampleID_G700.tiff
F://SIPFlowData//best//green/20181005_1529_SampleID_G701.tiff
F://SIPFlowData//best//green/20181005_1529_SampleID_G702.tiff
F://SIPFlowData//best//green/20181005_1529_SampleID_G703.tiff
F://SIPFlowData//best//green/20181005_1529_SampleID_G704.tiff
F://SIPFlowData//best//green/20181005_1529_SampleID_G705.tiff
F://SIPFlowData//best//green/20181005_1529_SampleID_G706.tiff
F://SIPFlowData//best//green/20181005_1529_SampleID_G707.tiff
F://SIPFlowData//best//green/20181005_1529_SampleID_G708.tiff
F://SIPFlowData//best//green/20181005_1529_SampleID_G709.tiff
F://SIPFlowData//best//green/20181005_1529_SampleID_G710.tiff
F://SIPFlowData//best//green/20181005_1529_SampleID_G711.tiff
F://SIPFlowData//best//green/20181005_1529_SampleID_G712.tiff
F://SIPFlowData//best//green/20181005_1529_SampleID_G713.tiff
F://SIPFlowData//best//green/20181005_1529_SampleID_G714.tiff
F://SIPFlowData//best//green/20181005_1529_SampleID_G715.tiff
F://SIPFlowData//best//green/20181005_1529_SampleID_G716.tiff
F://SIPFlowData//best//green/20181005_1529_SampleID_G717.tiff
F://SIPFlowData//best//green/20181005_1529_SampleID_G718.tiff
F://SIPFlowData//best//green/20181005_1529_SampleID_G719.tiff
F://SIPFlowData//best//green/20181005_1529_SampleID_G720.tiff
F://SIPFlowData//best//green/20181005_1529_SampleID_G721.tiff
F://SIPFlowData//best//green/20181005_1529_SampleID_G722.tiff
F://SIPFlowData//best//green/20181005_1529_SampleID_G723.tiff
F://SIPFlowData//best//green/20181005_1529_SampleID_G724.tiff
F://SIPFlowData//best//green/20181005_1529_SampleID_G725.tiff
F://SIPFlowData//best//green/20181005_1529_SampleID_G726.tiff
F://SIPFlowData//best//green/20181005_1529_SampleID_G727.tiff
F://SIPFlowData//best//green/20181005_1529_SampleID_G728.tiff
F://SIPFlowData//best//green/20181005_1529_SampleID_G729.tiff
F://SIPFlowData//best//green/20181005_1529_SampleID_G730.tiff
F://SIPFlowData//best//green/20181005_1529_SampleID_G731.tiff
F://SIPFlowData//best//green/20181005_1529_SampleID_G732.tiff
F://SIPFlowData//best//green/20181005_1529_SampleID_G733.tiff
F://SIPFlowData//best//green/20181005_1529_SampleID_G734.tiff
F://SIPFlowData//best//green/20181005_1529_SampleID_G735.tiff
F://SIPFlowData//best//green/20181005_1529_SampleID_G736.tiff
F://SIPFlowData//best//green/20181005_1529_SampleID_G737.tiff
F://SIPFlowData//best//green/20181005_1529_SampleID_G738.tiff
F://SIPFlowData//best//green/20181005_1529_SampleID_G739.tiff
F://SIPFlowData//best//green/20181005_1529_SampleID_G740.tiff
F://SIPFlowData//best//green/20181005_1529_SampleID_G741.tiff
F://SIPFlowData//best//green/20181005_1529_SampleID_G742.tiff
F://SIPFlowData//best//green/20181005_1529_SampleID_G743.tiff
F://SIPFlowData//best//green/20181005_1529_SampleID_G744.tiff
F://SIPFlowData//best//green/20181005_1529_SampleID_G745.tiff
F://SIPFlowData//best//green/20181005_1529_SampleID_G746.tiff
F://SIPFlowData//best//green/20181005_1529_SampleID_G747.tiff
F://SIPFlowData//best//green/20181005_1529_SampleID_G748.tiff
F://SIPFlowData//best//green/20181005_1529_SampleID_G749.tiff
F://SIPFlowData//best//green/20181005_1529_SampleID_G750.tiff
F://SIPFlowData//best//green/20181005_1529_SampleID_G751.tiff
F://SIPFlowData//best//green/20181005_1529_SampleID_G752.tiff
F://SIPFlowData//best//green/20181005_1529_SampleID_G753.tiff
F://SIPFlowData//best//green/20181005_1529_SampleID_G754.tiff
F://SIPFlowData//best//green/20181005_1529_SampleID_G755.tiff
F://SIPFlowData//best//green/20181005_1529_SampleID_G756.tiff
F://SIPFlowData//best//green/20181005_1529_SampleID_G757.tiff
F://SIPFlowData//best//green/20181005_1529_SampleID_G758.tiff
F://SIPFlowData//best//green/20181005_1529_SampleID_G759.tiff
F://SIPFlowData//best//green/20181005_1529_SampleID_G760.tiff
F://SIPFlowData//best//green/20181005_1529_SampleID_G761.tiff
F://SIPFlowData//best//green/20181005_1529_SampleID_G762.tiff
F://SIPFlowData//best//green/20181005_1529_SampleID_G763.tiff
F://SIPFlowData//best//green/20181005_1529_SampleID_G764.tiff
F://SIPFlowData//best//green/20181005_1529_SampleID_G765.tiff
F://SIPFlowData//best//green/20181005_1529_SampleID_G766.tiff
F://SIPFlowData//best//green/20181005_1529_SampleID_G767.tiff
F://SIPFlowData//best//green/20181005_1529_SampleID_G768.tiff
F://SIPFlowData//best//green/20181005_1529_SampleID_G769.tiff
F://SIPFlowData//best//green/20181005_1529_SampleID_G770.tiff
F://SIPFlowData//best//green/20181005_1529_SampleID_G771.tiff
F://SIPFlowData//best//green/20181005_1529_SampleID_G772.tiff
F://SIPFlowData//best//green/20181005_1529_SampleID_G773.tiff
F://SIPFlowData//best//green/20181005_1529_SampleID_G774.tiff
F://SIPFlowData//best//green/20181005_1529_SampleID_G775.tiff
F://SIPFlowData//best//green/20181005_1529_SampleID_G776.tiff
F://SIPFlowData//best//green/20181005_1529_SampleID_G777.tiff
F://SIPFlowData//best//green/20181005_1529_SampleID_G778.tiff
F://SIPFlowData//best//green/20181005_1529_SampleID_G779.tiff
F://SIPFlowData//best//green/20181005_1529_SampleID_G780.tiff
F://SIPFlowData//best//green/20181005_1529_SampleID_G781.tiff
F://SIPFlowData//best//green/20181005_1529_SampleID_G782.tiff
F://SIPFlowData//best//green/20181005_1529_SampleID_G783.tiff
F://SIPFlowData//best//green/20181005_1529_SampleID_G784.tiff
F://SIPFlowData//best//green/20181005_1529_SampleID_G785.tiff
F://SIPFlowData//best//green/20181005_1529_SampleID_G786.tiff
F://SIPFlowData//best//green/20181005_1529_SampleID_G787.tiff
F://SIPFlowData//best//green/20181005_1529_SampleID_G788.tiff
F://SIPFlowData//best//green/20181005_1529_SampleID_G789.tiff
F://SIPFlowData//best//green/20181005_1529_SampleID_G790.tiff
F://SIPFlowData//best//green/20181005_1529_SampleID_G791.tiff
F://SIPFlowData//best//green/20181005_1529_SampleID_G792.tiff
F://SIPFlowData//best//green/20181005_1529_SampleID_G793.tiff
F://SIPFlowData//best//green/20181005_1529_SampleID_G794.tiff
F://SIPFlowData//best//green/20181005_1529_SampleID_G795.tiff
F://SIPFlowData//best//green/20181005_1529_SampleID_G796.tiff
F://SIPFlowData//best//green/20181005_1529_SampleID_G797.tiff
F://SIPFlowData//best//green/20181005_1529_SampleID_G798.tiff
F://SIPFlowData//best//green/20181005_1529_SampleID_G799.tiff
F://SIPFlowData//best//green/20181005_1529_SampleID_G800.tiff
F://SIPFlowData//best//green/20181005_1529_SampleID_G801.tiff
F://SIPFlowData//best//green/20181005_1529_SampleID_G802.tiff
F://SIPFlowData//best//green/20181005_1529_SampleID_G803.tiff
F://SIPFlowData//best//green/20181005_1529_SampleID_G804.tiff
F://SIPFlowData//best//green/20181005_1529_SampleID_G805.tiff
F://SIPFlowData//best//green/20181005_1529_SampleID_G806.tiff
F://SIPFlowData//best//green/20181005_1529_SampleID_G807.tiff
F://SIPFlowData//best//green/20181005_1529_SampleID_G808.tiff
F://SIPFlowData//best//green/20181005_1529_SampleID_G809.tiff
F://SIPFlowData//best//green/20181005_1529_SampleID_G810.tiff
F://SIPFlowData//best//green/20181005_1529_SampleID_G811.tiff
F://SIPFlowData//best//green/20181005_1529_SampleID_G812.tiff
F://SIPFlowData//best//green/20181005_1529_SampleID_G813.tiff
F://SIPFlowData//best//green/20181005_1529_SampleID_G814.tiff
F://SIPFlowData//best//green/20181005_1529_SampleID_G815.tiff
F://SIPFlowData//best//green/20181005_1529_SampleID_G816.tiff
F://SIPFlowData//best//green/20181005_1529_SampleID_G817.tiff
F://SIPFlowData//best//green/20181005_1529_SampleID_G818.tiff
F://SIPFlowData//best//green/20181005_1529_SampleID_G819.tiff
F://SIPFlowData//best//green/20181005_1529_SampleID_G820.tiff
F://SIPFlowData//best//green/20181005_1529_SampleID_G821.tiff
F://SIPFlowData//best//green/20181005_1529_SampleID_G822.tiff
F://SIPFlowData//best//green/20181005_1529_SampleID_G823.tiff
F://SIPFlowData//best//green/20181005_1529_SampleID_G824.tiff
F://SIPFlowData//best//green/20181005_1529_SampleID_G825.tiff
F://SIPFlowData//best//green/20181005_1529_SampleID_G826.tiff
F://SIPFlowData//best//green/20181005_1529_SampleID_G827.tiff
F://SIPFlowData//best//green/20181005_1529_SampleID_G828.tiff
F://SIPFlowData//best//green/20181005_1529_SampleID_G829.tiff
F://SIPFlowData//best//green/20181005_1529_SampleID_G830.tiff
F://SIPFlowData//best//green/20181005_1529_SampleID_G831.tiff
F://SIPFlowData//best//green/20181005_1529_SampleID_G832.tiff
F://SIPFlowData//best//green/20181005_1529_SampleID_G833.tiff
F://SIPFlowData//best//green/20181005_1529_SampleID_G834.tiff
F://SIPFlowData//best//green/20181005_1529_SampleID_G835.tiff
F://SIPFlowData//best//green/20181005_1529_SampleID_G836.tiff
F://SIPFlowData//best//green/20181005_1529_SampleID_G837.tiff
F://SIPFlowData//best//green/20181005_1529_SampleID_G838.tiff
F://SIPFlowData//best//green/20181005_1529_SampleID_G839.tiff
F://SIPFlowData//best//green/20181005_1529_SampleID_G840.tiff
F://SIPFlowData//best//green/20181005_1529_SampleID_G841.tiff
F://SIPFlowData//best//green/20181005_1529_SampleID_G842.tiff
F://SIPFlowData//best//green/20181005_1529_SampleID_G843.tiff
F://SIPFlowData//best//green/20181005_1529_SampleID_G844.tiff
F://SIPFlowData//best//green/20181005_1529_SampleID_G845.tiff
F://SIPFlowData//best//green/20181005_1529_SampleID_G846.tiff
F://SIPFlowData//best//green/20181005_1529_SampleID_G847.tiff
F://SIPFlowData//best//green/20181005_1529_SampleID_G848.tiff
F://SIPFlowData//best//green/20181005_1529_SampleID_G849.tiff
F://SIPFlowData//best//green/20181005_1529_SampleID_G850.tiff
F://SIPFlowData//best//green/20181005_1529_SampleID_G851.tiff
F://SIPFlowData//best//green/20181005_1529_SampleID_G852.tiff
F://SIPFlowData//best//green/20181005_1529_SampleID_G853.tiff
F://SIPFlowData//best//green/20181005_1529_SampleID_G854.tiff
F://SIPFlowData//best//green/20181005_1529_SampleID_G855.tiff
F://SIPFlowData//best//green/20181005_1529_SampleID_G856.tiff
F://SIPFlowData//best//green/20181005_1529_SampleID_G857.tiff
F://SIPFlowData//best//green/20181005_1529_SampleID_G858.tiff
F://SIPFlowData//best//green/20181005_1529_SampleID_G859.tiff
F://SIPFlowData//best//green/20181005_1529_SampleID_G860.tiff
F://SIPFlowData//best//green/20181005_1529_SampleID_G861.tiff
F://SIPFlowData//best//green/20181005_1529_SampleID_G862.tiff
F://SIPFlowData//best//green/20181005_1529_SampleID_G863.tiff
F://SIPFlowData//best//green/20181005_1529_SampleID_G864.tiff
F://SIPFlowData//best//green/20181005_1529_SampleID_G865.tiff
F://SIPFlowData//best//green/20181005_1529_SampleID_G866.tiff
F://SIPFlowData//best//green/20181005_1529_SampleID_G867.tiff
F://SIPFlowData//best//green/20181005_1529_SampleID_G868.tiff
F://SIPFlowData//best//green/20181005_1529_SampleID_G869.tiff
F://SIPFlowData//best//green/20181005_1529_SampleID_G870.tiff
F://SIPFlowData//best//green/20181005_1529_SampleID_G871.tiff
F://SIPFlowData//best//green/20181005_1529_SampleID_G872.tiff
F://SIPFlowData//best//green/20181005_1529_SampleID_G873.tiff
F://SIPFlowData//best//green/20181005_1529_SampleID_G874.tiff
F://SIPFlowData//best//green/20181005_1529_SampleID_G875.tiff
F://SIPFlowData//best//green/20181005_1529_SampleID_G876.tiff
F://SIPFlowData//best//green/20181005_1529_SampleID_G877.tiff
F://SIPFlowData//best//green/20181005_1529_SampleID_G878.tiff
F://SIPFlowData//best//green/20181005_1529_SampleID_G879.tiff
F://SIPFlowData//best//green/20181005_1529_SampleID_G880.tiff
F://SIPFlowData//best//green/20181005_1529_SampleID_G881.tiff
F://SIPFlowData//best//green/20181005_1529_SampleID_G882.tiff
F://SIPFlowData//best//green/20181005_1529_SampleID_G883.tiff
F://SIPFlowData//best//green/20181005_1529_SampleID_G884.tiff
F://SIPFlowData//best//green/20181005_1529_SampleID_G885.tiff
F://SIPFlowData//best//green/20181005_1529_SampleID_G886.tiff
F://SIPFlowData//best//green/20181005_1529_SampleID_G887.tiff
F://SIPFlowData//best//green/20181005_1529_SampleID_G888.tiff
F://SIPFlowData//best//green/20181005_1529_SampleID_G889.tiff
F://SIPFlowData//best//green/20181005_1529_SampleID_G890.tiff
F://SIPFlowData//best//green/20181005_1529_SampleID_G891.tiff
F://SIPFlowData//best//green/20181005_1529_SampleID_G892.tiff
F://SIPFlowData//best//green/20181005_1529_SampleID_G893.tiff
F://SIPFlowData//best//green/20181005_1529_SampleID_G894.tiff
F://SIPFlowData//best//green/20181005_1529_SampleID_G895.tiff
F://SIPFlowData//best//green/20181005_1529_SampleID_G896.tiff
F://SIPFlowData//best//green/20181005_1529_SampleID_G897.tiff
F://SIPFlowData//best//green/20181005_1529_SampleID_G898.tiff
F://SIPFlowData//best//green/20181005_1529_SampleID_G899.tiff
F://SIPFlowData//best//green/20181005_1529_SampleID_G900.tiff
F://SIPFlowData//best//green/20181005_1529_SampleID_G901.tiff
F://SIPFlowData//best//green/20181005_1529_SampleID_G902.tiff
F://SIPFlowData//best//green/20181005_1529_SampleID_G903.tiff
F://SIPFlowData//best//green/20181005_1529_SampleID_G904.tiff
F://SIPFlowData//best//green/20181005_1529_SampleID_G905.tiff
F://SIPFlowData//best//green/20181005_1529_SampleID_G906.tiff
F://SIPFlowData//best//green/20181005_1529_SampleID_G907.tiff
F://SIPFlowData//best//green/20181005_1529_SampleID_G908.tiff
F://SIPFlowData//best//green/20181005_1529_SampleID_G909.tiff
F://SIPFlowData//best//green/20181005_1529_SampleID_G910.tiff
F://SIPFlowData//best//green/20181005_1529_SampleID_G911.tiff
F://SIPFlowData//best//green/20181005_1529_SampleID_G912.tiff
F://SIPFlowData//best//green/20181005_1529_SampleID_G913.tiff
F://SIPFlowData//best//green/20181005_1529_SampleID_G914.tiff
F://SIPFlowData//best//green/20181005_1529_SampleID_G915.tiff
F://SIPFlowData//best//green/20181005_1529_SampleID_G916.tiff
F://SIPFlowData//best//green/20181005_1529_SampleID_G917.tiff
F://SIPFlowData//best//green/20181005_1529_SampleID_G918.tiff
F://SIPFlowData//best//green/20181005_1529_SampleID_G919.tiff
F://SIPFlowData//best//green/20181005_1529_SampleID_G920.tiff
F://SIPFlowData//best//green/20181005_1529_SampleID_G921.tiff
F://SIPFlowData//best//green/20181005_1529_SampleID_G922.tiff
F://SIPFlowData//best//green/20181005_1529_SampleID_G923.tiff
F://SIPFlowData//best//green/20181005_1529_SampleID_G924.tiff
F://SIPFlowData//best//green/20181005_1529_SampleID_G925.tiff
F://SIPFlowData//best//green/20181005_1529_SampleID_G926.tiff
F://SIPFlowData//best//green/20181005_1529_SampleID_G927.tiff
F://SIPFlowData//best//green/20181005_1529_SampleID_G928.tiff
F://SIPFlowData//best//green/20181005_1529_SampleID_G929.tiff
F://SIPFlowData//best//green/20181005_1529_SampleID_G930.tiff
F://SIPFlowData//best//green/20181005_1529_SampleID_G931.tiff
F://SIPFlowData//best//green/20181005_1529_SampleID_G932.tiff
F://SIPFlowData//best//green/20181005_1529_SampleID_G933.tiff
F://SIPFlowData//best//green/20181005_1529_SampleID_G934.tiff
F://SIPFlowData//best//green/20181005_1529_SampleID_G935.tiff
F://SIPFlowData//best//green/20181005_1529_SampleID_G936.tiff
F://SIPFlowData//best//green/20181005_1529_SampleID_G937.tiff
F://SIPFlowData//best//green/20181005_1529_SampleID_G938.tiff
F://SIPFlowData//best//green/20181005_1529_SampleID_G939.tiff
F://SIPFlowData//best//green/20181005_1529_SampleID_G940.tiff
F://SIPFlowData//best//green/20181005_1529_SampleID_G941.tiff
F://SIPFlowData//best//green/20181005_1529_SampleID_G942.tiff
F://SIPFlowData//best//green/20181005_1529_SampleID_G943.tiff
F://SIPFlowData//best//green/20181005_1529_SampleID_G944.tiff
F://SIPFlowData//best//green/20181005_1529_SampleID_G945.tiff
F://SIPFlowData//best//green/20181005_1529_SampleID_G946.tiff
F://SIPFlowData//best//green/20181005_1529_SampleID_G947.tiff
F://SIPFlowData//best//green/20181005_1529_SampleID_G948.tiff
F://SIPFlowData//best//green/20181005_1529_SampleID_G949.tiff
F://SIPFlowData//best//green/20181005_1529_SampleID_G950.tiff
F://SIPFlowData//best//green/20181005_1529_SampleID_G951.tiff
F://SIPFlowData//best//green/20181005_1529_SampleID_G952.tiff
F://SIPFlowData//best//green/20181005_1529_SampleID_G953.tiff
F://SIPFlowData//best//green/20181005_1529_SampleID_G954.tiff
F://SIPFlowData//best//green/20181005_1529_SampleID_G955.tiff
F://SIPFlowData//best//green/20181005_1529_SampleID_G956.tiff
F://SIPFlowData//best//green/20181005_1529_SampleID_G957.tiff
F://SIPFlowData//best//green/20181005_1529_SampleID_G958.tiff
F://SIPFlowData//best//green/20181005_1529_SampleID_G959.tiff
F://SIPFlowData//best//green/20181005_1529_SampleID_G960.tiff
F://SIPFlowData//best//green/20181005_1529_SampleID_G961.tiff
F://SIPFlowData//best//green/20181005_1529_SampleID_G962.tiff
F://SIPFlowData//best//green/20181005_1529_SampleID_G963.tiff
F://SIPFlowData//best//green/20181005_1529_SampleID_G964.tiff
F://SIPFlowData//best//green/20181005_1529_SampleID_G965.tiff
F://SIPFlowData//best//green/20181005_1529_SampleID_G966.tiff
F://SIPFlowData//best//green/20181005_1529_SampleID_G967.tiff
F://SIPFlowData//best//green/20181005_1529_SampleID_G968.tiff
F://SIPFlowData//best//green/20181005_1529_SampleID_G969.tiff
F://SIPFlowData//best//green/20181005_1529_SampleID_G970.tiff
F://SIPFlowData//best//green/20181005_1529_SampleID_G971.tiff
F://SIPFlowData//best//green/20181005_1529_SampleID_G972.tiff
F://SIPFlowData//best//green/20181005_1529_SampleID_G973.tiff
F://SIPFlowData//best//green/20181005_1529_SampleID_G974.tiff
F://SIPFlowData//best//green/20181005_1529_SampleID_G975.tiff
F://SIPFlowData//best//green/20181005_1529_SampleID_G976.tiff
F://SIPFlowData//best//green/20181005_1529_SampleID_G977.tiff
F://SIPFlowData//best//green/20181005_1529_SampleID_G978.tiff
F://SIPFlowData//best//green/20181005_1529_SampleID_G979.tiff
F://SIPFlowData//best//green/20181005_1529_SampleID_G980.tiff
F://SIPFlowData//best//green/20181005_1529_SampleID_G981.tiff
F://SIPFlowData//best//green/20181005_1529_SampleID_G982.tiff
F://SIPFlowData//best//green/20181005_1529_SampleID_G983.tiff
F://SIPFlowData//best//green/20181005_1529_SampleID_G984.tiff
F://SIPFlowData//best//green/20181005_1529_SampleID_G985.tiff
F://SIPFlowData//best//green/20181005_1529_SampleID_G986.tiff
F://SIPFlowData//best//green/20181005_1529_SampleID_G987.tiff
F://SIPFlowData//best//green/20181005_1529_SampleID_G988.tiff
F://SIPFlowData//best//green/20181005_1529_SampleID_G989.tiff
F://SIPFlowData//best//green/20181005_1529_SampleID_G990.tiff
F://SIPFlowData//best//green/20181005_1529_SampleID_G991.tiff
F://SIPFlowData//best//green/20181005_1529_SampleID_G992.tiff
F://SIPFlowData//best//green/20181005_1529_SampleID_G993.tiff
F://SIPFlowData//best//green/20181005_1529_SampleID_G994.tiff
F://SIPFlowData//best//green/20181005_1529_SampleID_G995.tiff
F://SIPFlowData//best//green/20181005_1529_SampleID_G996.tiff
F://SIPFlowData//best//green/20181005_1529_SampleID_G997.tiff
F://SIPFlowData//best//green/20181005_1529_SampleID_G998.tiff
F://SIPFlowData//best//green/20181005_1529_SampleID_G999.tiff
F://SIPFlowData//best//green/20181005_1529_SampleID_G1000.tiff
F://SIPFlowData//best//green/20181005_1529_SampleID_G1001.tiff
F://SIPFlowData//best//green/20181005_1529_SampleID_G1002.tiff
F://SIPFlowData//best//green/20181005_1529_SampleID_G1003.tiff
F://SIPFlowData//best//green/20181005_1529_SampleID_G1004.tiff
F://SIPFlowData//best//green/20181005_1529_SampleID_G1005.tiff
F://SIPFlowData//best//green/20181005_1529_SampleID_G1006.tiff
F://SIPFlowData//best//green/20181005_1529_SampleID_G1007.tiff
F://SIPFlowData//best//green/20181005_1529_SampleID_G1008.tiff
F://SIPFlowData//best//green/20181005_1529_SampleID_G1009.tiff
F://SIPFlowData//best//green/20181005_1529_SampleID_G1010.tiff
F://SIPFlowData//best//green/20181005_1529_SampleID_G1011.tiff
F://SIPFlowData//best//green/20181005_1529_SampleID_G1012.tiff
F://SIPFlowData//best//green/20181005_1529_SampleID_G1013.tiff
F://SIPFlowData//best//green/20181005_1529_SampleID_G1014.tiff
F://SIPFlowData//best//green/20181005_1529_SampleID_G1015.tiff
F://SIPFlowData//best//green/20181005_1529_SampleID_G1016.tiff
F://SIPFlowData//best//green/20181005_1529_SampleID_G1017.tiff
F://SIPFlowData//best//green/20181005_1529_SampleID_G1018.tiff
F://SIPFlowData//best//green/20181005_1529_SampleID_G1019.tiff
F://SIPFlowData//best//green/20181005_1529_SampleID_G1020.tiff
F://SIPFlowData//best//green/20181005_1529_SampleID_G1021.tiff
F://SIPFlowData//best//green/20181005_1529_SampleID_G1022.tiff
F://SIPFlowData//best//green/20181005_1529_SampleID_G1023.tiff
F://SIPFlowData//best//green/20181005_1529_SampleID_G1024.tiff
F://SIPFlowData//best//green/20181005_1529_SampleID_G1025.tiff
F://SIPFlowData//best//green/20181005_1529_SampleID_G1026.tiff
F://SIPFlowData//best//green/20181005_1529_SampleID_G1027.tiff
F://SIPFlowData//best//green/20181005_1529_SampleID_G1028.tiff
F://SIPFlowData//best//green/20181005_1529_SampleID_G1029.tiff
F://SIPFlowData//best//green/20181005_1529_SampleID_G1030.tiff
F://SIPFlowData//best//green/20181005_1529_SampleID_G1031.tiff
F://SIPFlowData//best//green/20181005_1529_SampleID_G1032.tiff
F://SIPFlowData//best//green/20181005_1529_SampleID_G1033.tiff
F://SIPFlowData//best//green/20181005_1529_SampleID_G1034.tiff
F://SIPFlowData//best//green/20181005_1529_SampleID_G1035.tiff
F://SIPFlowData//best//green/20181005_1529_SampleID_G1036.tiff
F://SIPFlowData//best//green/20181005_1529_SampleID_G1037.tiff
F://SIPFlowData//best//green/20181005_1529_SampleID_G1038.tiff
F://SIPFlowData//best//green/20181005_1529_SampleID_G1039.tiff
F://SIPFlowData//best//green/20181005_1529_SampleID_G1040.tiff
F://SIPFlowData//best//green/20181005_1529_SampleID_G1041.tiff
F://SIPFlowData//best//green/20181005_1529_SampleID_G1042.tiff
F://SIPFlowData//best//green/20181005_1529_SampleID_G1043.tiff
F://SIPFlowData//best//green/20181005_1529_SampleID_G1044.tiff
F://SIPFlowData//best//green/20181005_1529_SampleID_G1045.tiff
F://SIPFlowData//best//green/20181005_1529_SampleID_G1046.tiff
F://SIPFlowData//best//green/20181005_1529_SampleID_G1047.tiff
F://SIPFlowData//best//green/20181005_1529_SampleID_G1048.tiff
F://SIPFlowData//best//green/20181005_1529_SampleID_G1049.tiff
F://SIPFlowData//best//green/20181005_1529_SampleID_G1050.tiff
F://SIPFlowData//best//green/20181005_1529_SampleID_G1051.tiff
F://SIPFlowData//best//green/20181005_1529_SampleID_G1052.tiff
F://SIPFlowData//best//green/20181005_1529_SampleID_G1053.tiff
F://SIPFlowData//best//green/20181005_1529_SampleID_G1054.tiff
F://SIPFlowData//best//green/20181005_1529_SampleID_G1055.tiff
F://SIPFlowData//best//green/20181005_1529_SampleID_G1056.tiff
F://SIPFlowData//best//green/20181005_1529_SampleID_G1057.tiff
F://SIPFlowData//best//green/20181005_1529_SampleID_G1058.tiff
F://SIPFlowData//best//green/20181005_1529_SampleID_G1059.tiff
F://SIPFlowData//best//green/20181005_1529_SampleID_G1060.tiff
F://SIPFlowData//best//green/20181005_1529_SampleID_G1061.tiff
F://SIPFlowData//best//green/20181005_1529_SampleID_G1062.tiff
F://SIPFlowData//best//green/20181005_1529_SampleID_G1063.tiff
F://SIPFlowData//best//green/20181005_1529_SampleID_G1064.tiff
F://SIPFlowData//best//green/20181005_1529_SampleID_G1065.tiff
F://SIPFlowData//best//green/20181005_1529_SampleID_G1066.tiff
F://SIPFlowData//best//green/20181005_1529_SampleID_G1067.tiff
F://SIPFlowData//best//green/20181005_1529_SampleID_G1068.tiff
F://SIPFlowData//best//green/20181005_1529_SampleID_G1069.tiff
F://SIPFlowData//best//green/20181005_1529_SampleID_G1070.tiff
F://SIPFlowData//best//green/20181005_1529_SampleID_G1071.tiff
F://SIPFlowData//best//green/20181005_1529_SampleID_G1072.tiff
F://SIPFlowData//best//green/20181005_1529_SampleID_G1073.tiff
F://SIPFlowData//best//green/20181005_1529_SampleID_G1074.tiff
F://SIPFlowData//best//green/20181005_1529_SampleID_G1075.tiff
F://SIPFlowData//best//green/20181005_1529_SampleID_G1076.tiff
F://SIPFlowData//best//green/20181005_1529_SampleID_G1077.tiff
F://SIPFlowData//best//green/20181005_1529_SampleID_G1078.tiff
F://SIPFlowData//best//green/20181005_1529_SampleID_G1079.tiff
F://SIPFlowData//best//green/20181005_1529_SampleID_G1080.tiff
F://SIPFlowData//best//green/20181005_1529_SampleID_G1081.tiff
F://SIPFlowData//best//green/20181005_1529_SampleID_G1082.tiff
F://SIPFlowData//best//green/20181005_1529_SampleID_G1083.tiff
F://SIPFlowData//best//green/20181005_1529_SampleID_G1084.tiff
F://SIPFlowData//best//green/20181005_1529_SampleID_G1085.tiff
F://SIPFlowData//best//green/20181005_1529_SampleID_G1086.tiff
F://SIPFlowData//best//green/20181005_1529_SampleID_G1087.tiff
F://SIPFlowData//best//green/20181005_1529_SampleID_G1088.tiff
F://SIPFlowData//best//green/20181005_1529_SampleID_G1089.tiff
F://SIPFlowData//best//green/20181005_1529_SampleID_G1090.tiff
F://SIPFlowData//best//green/20181005_1529_SampleID_G1091.tiff
F://SIPFlowData//best//green/20181005_1529_SampleID_G1092.tiff
F://SIPFlowData//best//green/20181005_1529_SampleID_G1093.tiff
F://SIPFlowData//best//green/20181005_1529_SampleID_G1094.tiff
F://SIPFlowData//best//green/20181005_1529_SampleID_G1095.tiff
F://SIPFlowData//best//green/20181005_1529_SampleID_G1096.tiff
F://SIPFlowData//best//green/20181005_1529_SampleID_G1097.tiff
F://SIPFlowData//best//green/20181005_1529_SampleID_G1098.tiff
F://SIPFlowData//best//green/20181005_1529_SampleID_G1099.tiff
F://SIPFlowData//best//green/20181005_1529_SampleID_G1100.tiff
F://SIPFlowData//best//green/20181005_1529_SampleID_G1101.tiff
F://SIPFlowData//best//green/20181005_1529_SampleID_G1102.tiff
F://SIPFlowData//best//green/20181005_1529_SampleID_G1103.tiff
F://SIPFlowData//best//green/20181005_1529_SampleID_G1104.tiff
F://SIPFlowData//best//green/20181005_1529_SampleID_G1105.tiff
F://SIPFlowData//best//green/20181005_1529_SampleID_G1106.tiff
F://SIPFlowData//best//green/20181005_1529_SampleID_G1107.tiff
F://SIPFlowData//best//green/20181005_1529_SampleID_G1108.tiff
F://SIPFlowData//best//green/20181005_1529_SampleID_G1109.tiff
F://SIPFlowData//best//green/20181005_1529_SampleID_G1110.tiff
F://SIPFlowData//best//green/20181005_1529_SampleID_G1111.tiff
F://SIPFlowData//best//green/20181005_1529_SampleID_G1112.tiff
F://SIPFlowData//best//green/20181005_1529_SampleID_G1113.tiff
F://SIPFlowData//best//green/20181005_1529_SampleID_G1114.tiff
F://SIPFlowData//best//green/20181005_1529_SampleID_G1115.tiff
F://SIPFlowData//best//green/20181005_1529_SampleID_G1116.tiff
F://SIPFlowData//best//green/20181005_1529_SampleID_G1117.tiff
F://SIPFlowData//best//green/20181005_1529_SampleID_G1118.tiff
F://SIPFlowData//best//green/20181005_1529_SampleID_G1119.tiff
F://SIPFlowData//best//green/20181005_1529_SampleID_G1120.tiff
F://SIPFlowData//best//green/20181005_1529_SampleID_G1121.tiff
F://SIPFlowData//best//green/20181005_1529_SampleID_G1122.tiff
F://SIPFlowData//best//green/20181005_1529_SampleID_G1123.tiff
F://SIPFlowData//best//green/20181005_1529_SampleID_G1124.tiff
F://SIPFlowData//best//green/20181005_1529_SampleID_G1125.tiff
F://SIPFlowData//best//green/20181005_1529_SampleID_G1126.tiff
F://SIPFlowData//best//green/20181005_1529_SampleID_G1127.tiff
F://SIPFlowData//best//green/20181005_1529_SampleID_G1128.tiff
F://SIPFlowData//best//green/20181005_1529_SampleID_G1129.tiff
F://SIPFlowData//best//green/20181005_1529_SampleID_G1130.tiff
F://SIPFlowData//best//green/20181005_1529_SampleID_G1131.tiff
F://SIPFlowData//best//green/20181005_1529_SampleID_G1132.tiff
F://SIPFlowData//best//green/20181005_1529_SampleID_G1133.tiff
F://SIPFlowData//best//green/20181005_1529_SampleID_G1134.tiff
F://SIPFlowData//best//green/20181005_1529_SampleID_G1135.tiff
F://SIPFlowData//best//green/20181005_1529_SampleID_G1136.tiff
F://SIPFlowData//best//green/20181005_1529_SampleID_G1137.tiff
F://SIPFlowData//best//green/20181005_1529_SampleID_G1138.tiff
F://SIPFlowData//best//green/20181005_1529_SampleID_G1139.tiff
F://SIPFlowData//best//green/20181005_1529_SampleID_G1140.tiff
F://SIPFlowData//best//green/20181005_1529_SampleID_G1141.tiff
F://SIPFlowData//best//green/20181005_1529_SampleID_G1142.tiff
F://SIPFlowData//best//green/20181005_1529_SampleID_G1143.tiff
F://SIPFlowData//best//green/20181005_1529_SampleID_G1144.tiff
F://SIPFlowData//best//green/20181005_1529_SampleID_G1145.tiff
F://SIPFlowData//best//green/20181005_1529_SampleID_G1146.tiff
F://SIPFlowData//best//green/20181005_1529_SampleID_G1147.tiff
F://SIPFlowData//best//green/20181005_1529_SampleID_G1148.tiff
F://SIPFlowData//best//green/20181005_1529_SampleID_G1149.tiff
F://SIPFlowData//best//green/20181005_1529_SampleID_G1150.tiff
F://SIPFlowData//best//green/20181005_1529_SampleID_G1151.tiff
F://SIPFlowData//best//green/20181005_1529_SampleID_G1152.tiff
F://SIPFlowData//best//green/20181005_1529_SampleID_G1153.tiff
F://SIPFlowData//best//green/20181005_1529_SampleID_G1154.tiff
F://SIPFlowData//best//green/20181005_1529_SampleID_G1155.tiff
F://SIPFlowData//best//green/20181005_1529_SampleID_G1156.tiff
F://SIPFlowData//best//green/20181005_1529_SampleID_G1157.tiff
F://SIPFlowData//best//green/20181005_1529_SampleID_G1158.tiff
F://SIPFlowData//best//green/20181005_1529_SampleID_G1159.tiff
F://SIPFlowData//best//green/20181005_1529_SampleID_G1160.tiff
F://SIPFlowData//best//green/20181005_1529_SampleID_G1161.tiff
F://SIPFlowData//best//green/20181005_1529_SampleID_G1162.tiff
F://SIPFlowData//best//green/20181005_1529_SampleID_G1163.tiff
F://SIPFlowData//best//green/20181005_1529_SampleID_G1164.tiff
F://SIPFlowData//best//green/20181005_1529_SampleID_G1165.tiff
F://SIPFlowData//best//green/20181005_1529_SampleID_G1166.tiff
F://SIPFlowData//best//green/20181005_1529_SampleID_G1167.tiff
F://SIPFlowData//best//green/20181005_1529_SampleID_G1168.tiff
F://SIPFlowData//best//green/20181005_1529_SampleID_G1169.tiff
F://SIPFlowData//best//green/20181005_1529_SampleID_G1170.tiff
F://SIPFlowData//best//green/20181005_1529_SampleID_G1171.tiff
F://SIPFlowData//best//green/20181005_1529_SampleID_G1172.tiff
F://SIPFlowData//best//green/20181005_1529_SampleID_G1173.tiff
F://SIPFlowData//best//green/20181005_1529_SampleID_G1174.tiff
F://SIPFlowData//best//green/20181005_1529_SampleID_G1175.tiff
F://SIPFlowData//best//green/20181005_1529_SampleID_G1176.tiff
F://SIPFlowData//best//green/20181005_1529_SampleID_G1177.tiff
F://SIPFlowData//best//green/20181005_1529_SampleID_G1178.tiff
F://SIPFlowData//best//green/20181005_1529_SampleID_G1179.tiff
F://SIPFlowData//best//green/20181005_1529_SampleID_G1180.tiff
F://SIPFlowData//best//green/20181005_1529_SampleID_G1181.tiff
F://SIPFlowData//best//green/20181005_1529_SampleID_G1182.tiff
F://SIPFlowData//best//green/20181005_1529_SampleID_G1183.tiff
F://SIPFlowData//best//green/20181005_1529_SampleID_G1184.tiff
F://SIPFlowData//best//green/20181005_1529_SampleID_G1185.tiff
F://SIPFlowData//best//green/20181005_1529_SampleID_G1186.tiff
F://SIPFlowData//best//green/20181005_1529_SampleID_G1187.tiff
F://SIPFlowData//best//green/20181005_1529_SampleID_G1188.tiff
F://SIPFlowData//best//green/20181005_1529_SampleID_G1189.tiff
F://SIPFlowData//best//green/20181005_1529_SampleID_G1190.tiff
F://SIPFlowData//best//green/20181005_1529_SampleID_G1191.tiff
F://SIPFlowData//best//green/20181005_1529_SampleID_G1192.tiff
F://SIPFlowData//best//green/20181005_1529_SampleID_G1193.tiff
F://SIPFlowData//best//green/20181005_1529_SampleID_G1194.tiff
F://SIPFlowData//best//green/20181005_1529_SampleID_G1195.tiff
F://SIPFlowData//best//green/20181005_1529_SampleID_G1196.tiff
F://SIPFlowData//best//green/20181005_1529_SampleID_G1197.tiff
F://SIPFlowData//best//green/20181005_1529_SampleID_G1198.tiff
F://SIPFlowData//best//green/20181005_1529_SampleID_G1199.tiff
F://SIPFlowData//best//green/20181005_1529_SampleID_G1200.tiff
F://SIPFlowData//best//green/20181005_1529_SampleID_G1201.tiff
F://SIPFlowData//best//green/20181005_1529_SampleID_G1202.tiff
F://SIPFlowData//best//green/20181005_1529_SampleID_G1203.tiff
F://SIPFlowData//best//green/20181005_1529_SampleID_G1204.tiff
F://SIPFlowData//best//green/20181005_1529_SampleID_G1205.tiff
F://SIPFlowData//best//green/20181005_1529_SampleID_G1206.tiff
F://SIPFlowData//best//green/20181005_1529_SampleID_G1207.tiff
F://SIPFlowData//best//green/20181005_1529_SampleID_G1208.tiff
F://SIPFlowData//best//green/20181005_1529_SampleID_G1209.tiff
F://SIPFlowData//best//green/20181005_1529_SampleID_G1210.tiff
F://SIPFlowData//best//green/20181005_1529_SampleID_G1211.tiff
F://SIPFlowData//best//green/20181005_1529_SampleID_G1212.tiff
F://SIPFlowData//best//green/20181005_1529_SampleID_G1213.tiff
F://SIPFlowData//best//green/20181005_1529_SampleID_G1214.tiff
F://SIPFlowData//best//green/20181005_1529_SampleID_G1215.tiff
F://SIPFlowData//best//green/20181005_1529_SampleID_G1216.tiff
F://SIPFlowData//best//green/20181005_1529_SampleID_G1217.tiff
F://SIPFlowData//best//green/20181005_1529_SampleID_G1218.tiff
F://SIPFlowData//best//green/20181005_1529_SampleID_G1219.tiff
F://SIPFlowData//best//green/20181005_1529_SampleID_G1220.tiff
F://SIPFlowData//best//green/20181005_1529_SampleID_G1221.tiff
F://SIPFlowData//best//green/20181005_1529_SampleID_G1222.tiff
F://SIPFlowData//best//green/20181005_1529_SampleID_G1223.tiff
F://SIPFlowData//best//green/20181005_1529_SampleID_G1224.tiff
F://SIPFlowData//best//green/20181005_1529_SampleID_G1225.tiff
F://SIPFlowData//best//green/20181005_1529_SampleID_G1226.tiff
F://SIPFlowData//best//green/20181005_1529_SampleID_G1227.tiff
F://SIPFlowData//best//green/20181005_1529_SampleID_G1228.tiff
F://SIPFlowData//best//green/20181005_1529_SampleID_G1229.tiff
F://SIPFlowData//best//green/20181005_1529_SampleID_G1230.tiff
F://SIPFlowData//best//green/20181005_1529_SampleID_G1231.tiff
F://SIPFlowData//best//green/20181005_1529_SampleID_G1232.tiff
F://SIPFlowData//best//green/20181005_1529_SampleID_G1233.tiff
F://SIPFlowData//best//green/20181005_1529_SampleID_G1234.tiff
F://SIPFlowData//best//green/20181005_1529_SampleID_G1235.tiff
F://SIPFlowData//best//green/20181005_1529_SampleID_G1236.tiff
F://SIPFlowData//best//green/20181005_1529_SampleID_G1237.tiff
F://SIPFlowData//best//green/20181005_1529_SampleID_G1238.tiff
F://SIPFlowData//best//green/20181005_1529_SampleID_G1239.tiff
F://SIPFlowData//best//green/20181005_1529_SampleID_G1240.tiff
F://SIPFlowData//best//green/20181005_1529_SampleID_G1241.tiff
F://SIPFlowData//best//green/20181005_1529_SampleID_G1242.tiff
F://SIPFlowData//best//green/20181005_1529_SampleID_G1243.tiff
F://SIPFlowData//best//green/20181005_1529_SampleID_G1244.tiff
F://SIPFlowData//best//green/20181005_1529_SampleID_G1245.tiff
F://SIPFlowData//best//green/20181005_1529_SampleID_G1246.tiff
F://SIPFlowData//best//green/20181005_1529_SampleID_G1247.tiff
F://SIPFlowData//best//green/20181005_1529_SampleID_G1248.tiff
F://SIPFlowData//best//green/20181005_1529_SampleID_G1249.tiff
F://SIPFlowData//best//green/20181005_1529_SampleID_G1250.tiff
F://SIPFlowData//best//green/20181005_1529_SampleID_G1251.tiff
F://SIPFlowData//best//green/20181005_1529_SampleID_G1252.tiff
F://SIPFlowData//best//green/20181005_1529_SampleID_G1253.tiff
F://SIPFlowData//best//green/20181005_1529_SampleID_G1254.tiff
F://SIPFlowData//best//green/20181005_1529_SampleID_G1255.tiff
F://SIPFlowData//best//green/20181005_1529_SampleID_G1256.tiff
F://SIPFlowData//best//green/20181005_1529_SampleID_G1257.tiff
F://SIPFlowData//best//green/20181005_1529_SampleID_G1258.tiff
F://SIPFlowData//best//green/20181005_1529_SampleID_G1259.tiff
F://SIPFlowData//best//green/20181005_1529_SampleID_G1260.tiff
F://SIPFlowData//best//green/20181005_1529_SampleID_G1261.tiff
F://SIPFlowData//best//green/20181005_1529_SampleID_G1262.tiff
F://SIPFlowData//best//green/20181005_1529_SampleID_G1263.tiff
F://SIPFlowData//best//green/20181005_1529_SampleID_G1264.tiff
F://SIPFlowData//best//green/20181005_1529_SampleID_G1265.tiff
F://SIPFlowData//best//green/20181005_1529_SampleID_G1266.tiff
F://SIPFlowData//best//green/20181005_1529_SampleID_G1267.tiff
F://SIPFlowData//best//green/20181005_1529_SampleID_G1268.tiff
F://SIPFlowData//best//green/20181005_1529_SampleID_G1269.tiff
F://SIPFlowData//best//green/20181005_1529_SampleID_G1270.tiff
F://SIPFlowData//best//green/20181005_1529_SampleID_G1271.tiff
F://SIPFlowData//best//green/20181005_1529_SampleID_G1272.tiff
F://SIPFlowData//best//green/20181005_1529_SampleID_G1273.tiff
F://SIPFlowData//best//green/20181005_1529_SampleID_G1274.tiff
F://SIPFlowData//best//green/20181005_1529_SampleID_G1275.tiff
F://SIPFlowData//best//green/20181005_1529_SampleID_G1276.tiff
F://SIPFlowData//best//green/20181005_1529_SampleID_G1277.tiff
F://SIPFlowData//best//green/20181005_1529_SampleID_G1278.tiff
F://SIPFlowData//best//green/20181005_1529_SampleID_G1279.tiff
F://SIPFlowData//best//green/20181005_1529_SampleID_G1280.tiff
F://SIPFlowData//best//green/20181005_1529_SampleID_G1281.tiff
F://SIPFlowData//best//green/20181005_1529_SampleID_G1282.tiff
F://SIPFlowData//best//green/20181005_1529_SampleID_G1283.tiff
F://SIPFlowData//best//green/20181005_1529_SampleID_G1284.tiff
F://SIPFlowData//best//green/20181005_1529_SampleID_G1285.tiff
F://SIPFlowData//best//green/20181005_1529_SampleID_G1286.tiff
F://SIPFlowData//best//green/20181005_1529_SampleID_G1287.tiff
F://SIPFlowData//best//green/20181005_1529_SampleID_G1288.tiff
F://SIPFlowData//best//green/20181005_1529_SampleID_G1289.tiff
F://SIPFlowData//best//green/20181005_1529_SampleID_G1290.tiff
F://SIPFlowData//best//green/20181005_1529_SampleID_G1291.tiff
F://SIPFlowData//best//green/20181005_1529_SampleID_G1292.tiff
F://SIPFlowData//best//green/20181005_1529_SampleID_G1293.tiff
F://SIPFlowData//best//green/20181005_1529_SampleID_G1294.tiff
F://SIPFlowData//best//green/20181005_1529_SampleID_G1295.tiff
F://SIPFlowData//best//green/20181005_1529_SampleID_G1296.tiff
F://SIPFlowData//best//green/20181005_1529_SampleID_G1297.tiff
F://SIPFlowData//best//green/20181005_1529_SampleID_G1298.tiff
F://SIPFlowData//best//green/20181005_1529_SampleID_G1299.tiff
F://SIPFlowData//best//green/20181005_1529_SampleID_G1300.tiff
F://SIPFlowData//best//green/20181005_1529_SampleID_G1301.tiff
F://SIPFlowData//best//green/20181005_1529_SampleID_G1302.tiff
F://SIPFlowData//best//green/20181005_1529_SampleID_G1303.tiff
F://SIPFlowData//best//green/20181005_1529_SampleID_G1304.tiff
F://SIPFlowData//best//green/20181005_1529_SampleID_G1305.tiff
F://SIPFlowData//best//green/20181005_1529_SampleID_G1306.tiff
F://SIPFlowData//best//green/20181005_1529_SampleID_G1307.tiff
F://SIPFlowData//best//green/20181005_1529_SampleID_G1308.tiff
F://SIPFlowData//best//green/20181005_1529_SampleID_G1309.tiff
F://SIPFlowData//best//green/20181005_1529_SampleID_G1310.tiff
F://SIPFlowData//best//green/20181005_1529_SampleID_G1311.tiff
F://SIPFlowData//best//green/20181005_1529_SampleID_G1312.tiff
F://SIPFlowData//best//green/20181005_1529_SampleID_G1313.tiff
F://SIPFlowData//best//green/20181005_1529_SampleID_G1314.tiff
F://SIPFlowData//best//green/20181005_1529_SampleID_G1315.tiff
F://SIPFlowData//best//green/20181005_1529_SampleID_G1316.tiff
F://SIPFlowData//best//green/20181005_1529_SampleID_G1317.tiff
F://SIPFlowData//best//green/20181005_1529_SampleID_G1318.tiff
F://SIPFlowData//best//green/20181005_1529_SampleID_G1319.tiff
F://SIPFlowData//best//green/20181005_1529_SampleID_G1320.tiff
F://SIPFlowData//best//green/20181005_1529_SampleID_G1321.tiff
F://SIPFlowData//best//green/20181005_1529_SampleID_G1322.tiff
F://SIPFlowData//best//green/20181005_1529_SampleID_G1323.tiff
F://SIPFlowData//best//green/20181005_1529_SampleID_G1324.tiff
F://SIPFlowData//best//green/20181005_1529_SampleID_G1325.tiff
F://SIPFlowData//best//green/20181005_1529_SampleID_G1326.tiff
F://SIPFlowData//best//green/20181005_1529_SampleID_G1327.tiff
F://SIPFlowData//best//green/20181005_1529_SampleID_G1328.tiff
F://SIPFlowData//best//green/20181005_1529_SampleID_G1329.tiff
F://SIPFlowData//best//green/20181005_1529_SampleID_G1330.tiff
F://SIPFlowData//best//green/20181005_1529_SampleID_G1331.tiff
F://SIPFlowData//best//green/20181005_1529_SampleID_G1332.tiff
F://SIPFlowData//best//green/20181005_1529_SampleID_G1333.tiff
F://SIPFlowData//best//green/20181005_1529_SampleID_G1334.tiff
F://SIPFlowData//best//green/20181005_1529_SampleID_G1335.tiff
F://SIPFlowData//best//green/20181005_1529_SampleID_G1336.tiff
F://SIPFlowData//best//green/20181005_1529_SampleID_G1337.tiff
F://SIPFlowData//best//green/20181005_1529_SampleID_G1338.tiff
F://SIPFlowData//best//green/20181005_1529_SampleID_G1339.tiff
F://SIPFlowData//best//green/20181005_1529_SampleID_G1340.tiff
F://SIPFlowData//best//green/20181005_1529_SampleID_G1341.tiff
F://SIPFlowData//best//green/20181005_1529_SampleID_G1342.tiff
F://SIPFlowData//best//green/20181005_1529_SampleID_G1343.tiff
F://SIPFlowData//best//green/20181005_1529_SampleID_G1344.tiff
F://SIPFlowData//best//green/20181005_1529_SampleID_G1345.tiff
F://SIPFlowData//best//green/20181005_1529_SampleID_G1346.tiff
F://SIPFlowData//best//green/20181005_1529_SampleID_G1347.tiff
F://SIPFlowData//best//green/20181005_1529_SampleID_G1348.tiff
F://SIPFlowData//best//green/20181005_1529_SampleID_G1349.tiff
F://SIPFlowData//best//green/20181005_1529_SampleID_G1350.tiff
F://SIPFlowData//best//green/20181005_1529_SampleID_G1351.tiff
F://SIPFlowData//best//green/20181005_1529_SampleID_G1352.tiff
F://SIPFlowData//best//green/20181005_1529_SampleID_G1353.tiff
F://SIPFlowData//best//green/20181005_1529_SampleID_G1354.tiff
F://SIPFlowData//best//green/20181005_1529_SampleID_G1355.tiff
F://SIPFlowData//best//green/20181005_1529_SampleID_G1356.tiff
F://SIPFlowData//best//green/20181005_1529_SampleID_G1357.tiff
F://SIPFlowData//best//green/20181005_1529_SampleID_G1358.tiff
F://SIPFlowData//best//green/20181005_1529_SampleID_G1359.tiff
F://SIPFlowData//best//green/20181005_1529_SampleID_G1360.tiff
F://SIPFlowData//best//green/20181005_1529_SampleID_G1361.tiff
F://SIPFlowData//best//green/20181005_1529_SampleID_G1362.tiff
F://SIPFlowData//best//green/20181005_1529_SampleID_G1363.tiff
F://SIPFlowData//best//green/20181005_1529_SampleID_G1364.tiff
F://SIPFlowData//best//green/20181005_1529_SampleID_G1365.tiff
F://SIPFlowData//best//green/20181005_1529_SampleID_G1366.tiff
F://SIPFlowData//best//green/20181005_1529_SampleID_G1367.tiff
F://SIPFlowData//best//green/20181005_1529_SampleID_G1368.tiff
F://SIPFlowData//best//green/20181005_1529_SampleID_G1369.tiff
F://SIPFlowData//best//green/20181005_1529_SampleID_G1370.tiff
F://SIPFlowData//best//green/20181005_1529_SampleID_G1371.tiff
F://SIPFlowData//best//green/20181005_1529_SampleID_G1372.tiff
F://SIPFlowData//best//green/20181005_1529_SampleID_G1373.tiff
F://SIPFlowData//best//green/20181005_1529_SampleID_G1374.tiff
F://SIPFlowData//best//green/20181005_1529_SampleID_G1375.tiff
F://SIPFlowData//best//green/20181005_1529_SampleID_G1376.tiff
F://SIPFlowData//best//green/20181005_1529_SampleID_G1377.tiff
F://SIPFlowData//best//green/20181005_1529_SampleID_G1378.tiff
F://SIPFlowData//best//green/20181005_1529_SampleID_G1379.tiff
F://SIPFlowData//best//green/20181005_1529_SampleID_G1380.tiff
F://SIPFlowData//best//green/20181005_1529_SampleID_G1381.tiff
F://SIPFlowData//best//green/20181005_1529_SampleID_G1382.tiff
F://SIPFlowData//best//green/20181005_1529_SampleID_G1383.tiff
F://SIPFlowData//best//green/20181005_1529_SampleID_G1384.tiff
F://SIPFlowData//best//green/20181005_1529_SampleID_G1385.tiff
F://SIPFlowData//best//green/20181005_1529_SampleID_G1386.tiff
F://SIPFlowData//best//green/20181005_1529_SampleID_G1387.tiff
F://SIPFlowData//best//green/20181005_1529_SampleID_G1388.tiff
F://SIPFlowData//best//green/20181005_1529_SampleID_G1389.tiff
F://SIPFlowData//best//green/20181005_1529_SampleID_G1390.tiff
F://SIPFlowData//best//green/20181005_1529_SampleID_G1391.tiff
F://SIPFlowData//best//green/20181005_1529_SampleID_G1392.tiff
F://SIPFlowData//best//green/20181005_1529_SampleID_G1393.tiff
F://SIPFlowData//best//green/20181005_1529_SampleID_G1394.tiff
F://SIPFlowData//best//green/20181005_1529_SampleID_G1395.tiff
F://SIPFlowData//best//green/20181005_1529_SampleID_G1396.tiff
F://SIPFlowData//best//green/20181005_1529_SampleID_G1397.tiff
F://SIPFlowData//best//green/20181005_1529_SampleID_G1398.tiff
F://SIPFlowData//best//green/20181005_1529_SampleID_G1399.tiff
F://SIPFlowData//best//green/20181005_1529_SampleID_G1400.tiff
F://SIPFlowData//best//green/20181005_1529_SampleID_G1401.tiff
F://SIPFlowData//best//green/20181005_1529_SampleID_G1402.tiff
F://SIPFlowData//best//green/20181005_1529_SampleID_G1403.tiff
F://SIPFlowData//best//green/20181005_1529_SampleID_G1404.tiff
F://SIPFlowData//best//green/20181005_1529_SampleID_G1405.tiff
F://SIPFlowData//best//green/20181005_1529_SampleID_G1406.tiff
F://SIPFlowData//best//green/20181005_1529_SampleID_G1407.tiff
F://SIPFlowData//best//green/20181005_1529_SampleID_G1408.tiff
F://SIPFlowData//best//green/20181005_1529_SampleID_G1409.tiff
F://SIPFlowData//best//green/20181005_1529_SampleID_G1410.tiff