F://SIPFlowData//run10//green/20181010_1345_run10bb5fl5pos_G104.tiff
F://SIPFlowData//run10//green/20181010_1345_run10bb5fl5pos_G105.tiff
F://SIPFlowData//run10//green/20181010_1345_run10bb5fl5pos_G106.tiff
F://SIPFlowData//run10//green/20181010_1345_run10bb5fl5pos_G107.tiff
F://SIPFlowData//run10//green/20181010_1345_run10bb5fl5pos_G108.tiff
F://SIPFlowData//run10//green/20181010_1345_run10bb5fl5pos_G109.tiff
F://SIPFlowData//run10//green/20181010_1345_run10bb5fl5pos_G110.tiff
F://SIPFlowData//run10//green/20181010_1345_run10bb5fl5pos_G111.tiff
F://SIPFlowData//run10//green/20181010_1345_run10bb5fl5pos_G112.tiff
F://SIPFlowData//run10//green/20181010_1345_run10bb5fl5pos_G113.tiff
F://SIPFlowData//run10//green/20181010_1345_run10bb5fl5pos_G114.tiff
F://SIPFlowData//run10//green/20181010_1345_run10bb5fl5pos_G115.tiff
F://SIPFlowData//run10//green/20181010_1345_run10bb5fl5pos_G116.tiff
F://SIPFlowData//run10//green/20181010_1345_run10bb5fl5pos_G117.tiff
F://SIPFlowData//run10//green/20181010_1345_run10bb5fl5pos_G118.tiff
F://SIPFlowData//run10//green/20181010_1345_run10bb5fl5pos_G119.tiff
F://SIPFlowData//run10//green/20181010_1345_run10bb5fl5pos_G120.tiff
F://SIPFlowData//run10//green/20181010_1345_run10bb5fl5pos_G121.tiff
F://SIPFlowData//run10//green/20181010_1345_run10bb5fl5pos_G122.tiff
F://SIPFlowData//run10//green/20181010_1345_run10bb5fl5pos_G123.tiff
F://SIPFlowData//run10//green/20181010_1345_run10bb5fl5pos_G124.tiff
F://SIPFlowData//run10//green/20181010_1345_run10bb5fl5pos_G125.tiff
F://SIPFlowData//run10//green/20181010_1345_run10bb5fl5pos_G126.tiff
F://SIPFlowData//run10//green/20181010_1345_run10bb5fl5pos_G127.tiff
F://SIPFlowData//run10//green/20181010_1345_run10bb5fl5pos_G128.tiff
F://SIPFlowData//run10//green/20181010_1345_run10bb5fl5pos_G129.tiff
F://SIPFlowData//run10//green/20181010_1345_run10bb5fl5pos_G130.tiff
F://SIPFlowData//run10//green/20181010_1345_run10bb5fl5pos_G131.tiff
F://SIPFlowData//run10//green/20181010_1345_run10bb5fl5pos_G132.tiff
F://SIPFlowData//run10//green/20181010_1345_run10bb5fl5pos_G133.tiff
F://SIPFlowData//run10//green/20181010_1345_run10bb5fl5pos_G134.tiff
F://SIPFlowData//run10//green/20181010_1345_run10bb5fl5pos_G135.tiff
F://SIPFlowData//run10//green/20181010_1345_run10bb5fl5pos_G136.tiff
F://SIPFlowData//run10//green/20181010_1345_run10bb5fl5pos_G137.tiff
F://SIPFlowData//run10//green/20181010_1345_run10bb5fl5pos_G138.tiff
F://SIPFlowData//run10//green/20181010_1345_run10bb5fl5pos_G139.tiff
F://SIPFlowData//run10//green/20181010_1345_run10bb5fl5pos_G140.tiff
F://SIPFlowData//run10//green/20181010_1345_run10bb5fl5pos_G141.tiff
F://SIPFlowData//run10//green/20181010_1345_run10bb5fl5pos_G142.tiff
F://SIPFlowData//run10//green/20181010_1345_run10bb5fl5pos_G143.tiff
F://SIPFlowData//run10//green/20181010_1345_run10bb5fl5pos_G144.tiff
F://SIPFlowData//run10//green/20181010_1345_run10bb5fl5pos_G145.tiff
F://SIPFlowData//run10//green/20181010_1345_run10bb5fl5pos_G146.tiff
F://SIPFlowData//run10//green/20181010_1345_run10bb5fl5pos_G147.tiff
F://SIPFlowData//run10//green/20181010_1345_run10bb5fl5pos_G148.tiff
F://SIPFlowData//run10//green/20181010_1345_run10bb5fl5pos_G149.tiff
F://SIPFlowData//run10//green/20181010_1345_run10bb5fl5pos_G150.tiff
F://SIPFlowData//run10//green/20181010_1345_run10bb5fl5pos_G151.tiff
F://SIPFlowData//run10//green/20181010_1345_run10bb5fl5pos_G152.tiff
F://SIPFlowData//run10//green/20181010_1345_run10bb5fl5pos_G153.tiff
F://SIPFlowData//run10//green/20181010_1345_run10bb5fl5pos_G154.tiff
F://SIPFlowData//run10//green/20181010_1345_run10bb5fl5pos_G155.tiff
F://SIPFlowData//run10//green/20181010_1345_run10bb5fl5pos_G156.tiff
F://SIPFlowData//run10//green/20181010_1345_run10bb5fl5pos_G157.tiff
F://SIPFlowData//run10//green/20181010_1345_run10bb5fl5pos_G158.tiff
F://SIPFlowData//run10//green/20181010_1345_run10bb5fl5pos_G159.tiff
F://SIPFlowData//run10//green/20181010_1345_run10bb5fl5pos_G160.tiff
F://SIPFlowData//run10//green/20181010_1345_run10bb5fl5pos_G161.tiff
F://SIPFlowData//run10//green/20181010_1345_run10bb5fl5pos_G162.tiff
F://SIPFlowData//run10//green/20181010_1345_run10bb5fl5pos_G163.tiff
F://SIPFlowData//run10//green/20181010_1345_run10bb5fl5pos_G164.tiff
F://SIPFlowData//run10//green/20181010_1345_run10bb5fl5pos_G165.tiff
F://SIPFlowData//run10//green/20181010_1345_run10bb5fl5pos_G166.tiff
F://SIPFlowData//run10//green/20181010_1345_run10bb5fl5pos_G167.tiff
F://SIPFlowData//run10//green/20181010_1345_run10bb5fl5pos_G168.tiff
F://SIPFlowData//run10//green/20181010_1345_run10bb5fl5pos_G169.tiff
F://SIPFlowData//run10//green/20181010_1345_run10bb5fl5pos_G170.tiff
F://SIPFlowData//run10//green/20181010_1345_run10bb5fl5pos_G171.tiff
F://SIPFlowData//run10//green/20181010_1345_run10bb5fl5pos_G172.tiff
F://SIPFlowData//run10//green/20181010_1345_run10bb5fl5pos_G173.tiff
F://SIPFlowData//run10//green/20181010_1345_run10bb5fl5pos_G174.tiff
F://SIPFlowData//run10//green/20181010_1345_run10bb5fl5pos_G175.tiff
F://SIPFlowData//run10//green/20181010_1345_run10bb5fl5pos_G176.tiff
F://SIPFlowData//run10//green/20181010_1345_run10bb5fl5pos_G177.tiff
F://SIPFlowData//run10//green/20181010_1345_run10bb5fl5pos_G178.tiff
F://SIPFlowData//run10//green/20181010_1345_run10bb5fl5pos_G179.tiff
F://SIPFlowData//run10//green/20181010_1345_run10bb5fl5pos_G180.tiff
F://SIPFlowData//run10//green/20181010_1345_run10bb5fl5pos_G181.tiff
F://SIPFlowData//run10//green/20181010_1345_run10bb5fl5pos_G182.tiff
F://SIPFlowData//run10//green/20181010_1345_run10bb5fl5pos_G183.tiff
F://SIPFlowData//run10//green/20181010_1345_run10bb5fl5pos_G184.tiff
F://SIPFlowData//run10//green/20181010_1345_run10bb5fl5pos_G185.tiff
F://SIPFlowData//run10//green/20181010_1345_run10bb5fl5pos_G186.tiff
F://SIPFlowData//run10//green/20181010_1345_run10bb5fl5pos_G187.tiff
F://SIPFlowData//run10//green/20181010_1345_run10bb5fl5pos_G188.tiff
F://SIPFlowData//run10//green/20181010_1345_run10bb5fl5pos_G189.tiff
F://SIPFlowData//run10//green/20181010_1345_run10bb5fl5pos_G190.tiff
F://SIPFlowData//run10//green/20181010_1345_run10bb5fl5pos_G191.tiff
F://SIPFlowData//run10//green/20181010_1345_run10bb5fl5pos_G192.tiff
F://SIPFlowData//run10//green/20181010_1345_run10bb5fl5pos_G193.tiff
F://SIPFlowData//run10//green/20181010_1345_run10bb5fl5pos_G194.tiff
F://SIPFlowData//run10//green/20181010_1345_run10bb5fl5pos_G195.tiff
F://SIPFlowData//run10//green/20181010_1345_run10bb5fl5pos_G196.tiff
F://SIPFlowData//run10//green/20181010_1345_run10bb5fl5pos_G197.tiff
F://SIPFlowData//run10//green/20181010_1345_run10bb5fl5pos_G198.tiff
F://SIPFlowData//run10//green/20181010_1345_run10bb5fl5pos_G199.tiff
F://SIPFlowData//run10//green/20181010_1345_run10bb5fl5pos_G200.tiff
F://SIPFlowData//run10//green/20181010_1345_run10bb5fl5pos_G201.tiff
F://SIPFlowData//run10//green/20181010_1345_run10bb5fl5pos_G202.tiff
F://SIPFlowData//run10//green/20181010_1345_run10bb5fl5pos_G203.tiff
F://SIPFlowData//run10//green/20181010_1345_run10bb5fl5pos_G204.tiff
F://SIPFlowData//run10//green/20181010_1345_run10bb5fl5pos_G205.tiff
F://SIPFlowData//run10//green/20181010_1345_run10bb5fl5pos_G206.tiff
F://SIPFlowData//run10//green/20181010_1345_run10bb5fl5pos_G207.tiff
F://SIPFlowData//run10//green/20181010_1345_run10bb5fl5pos_G208.tiff
F://SIPFlowData//run10//green/20181010_1345_run10bb5fl5pos_G209.tiff
F://SIPFlowData//run10//green/20181010_1345_run10bb5fl5pos_G210.tiff
F://SIPFlowData//run10//green/20181010_1345_run10bb5fl5pos_G211.tiff
F://SIPFlowData//run10//green/20181010_1345_run10bb5fl5pos_G212.tiff
F://SIPFlowData//run10//green/20181010_1345_run10bb5fl5pos_G213.tiff
F://SIPFlowData//run10//green/20181010_1345_run10bb5fl5pos_G214.tiff
F://SIPFlowData//run10//green/20181010_1345_run10bb5fl5pos_G215.tiff
F://SIPFlowData//run10//green/20181010_1345_run10bb5fl5pos_G216.tiff
F://SIPFlowData//run10//green/20181010_1345_run10bb5fl5pos_G217.tiff
F://SIPFlowData//run10//green/20181010_1345_run10bb5fl5pos_G218.tiff
F://SIPFlowData//run10//green/20181010_1345_run10bb5fl5pos_G219.tiff
F://SIPFlowData//run10//green/20181010_1345_run10bb5fl5pos_G220.tiff
F://SIPFlowData//run10//green/20181010_1345_run10bb5fl5pos_G221.tiff
F://SIPFlowData//run10//green/20181010_1345_run10bb5fl5pos_G222.tiff
F://SIPFlowData//run10//green/20181010_1345_run10bb5fl5pos_G223.tiff
F://SIPFlowData//run10//green/20181010_1345_run10bb5fl5pos_G224.tiff
F://SIPFlowData//run10//green/20181010_1345_run10bb5fl5pos_G225.tiff
F://SIPFlowData//run10//green/20181010_1345_run10bb5fl5pos_G226.tiff
F://SIPFlowData//run10//green/20181010_1345_run10bb5fl5pos_G227.tiff
F://SIPFlowData//run10//green/20181010_1345_run10bb5fl5pos_G228.tiff
F://SIPFlowData//run10//green/20181010_1345_run10bb5fl5pos_G229.tiff
F://SIPFlowData//run10//green/20181010_1345_run10bb5fl5pos_G230.tiff
F://SIPFlowData//run10//green/20181010_1345_run10bb5fl5pos_G231.tiff
F://SIPFlowData//run10//green/20181010_1345_run10bb5fl5pos_G232.tiff
F://SIPFlowData//run10//green/20181010_1345_run10bb5fl5pos_G233.tiff
F://SIPFlowData//run10//green/20181010_1345_run10bb5fl5pos_G234.tiff
F://SIPFlowData//run10//green/20181010_1345_run10bb5fl5pos_G235.tiff
F://SIPFlowData//run10//green/20181010_1345_run10bb5fl5pos_G236.tiff
F://SIPFlowData//run10//green/20181010_1345_run10bb5fl5pos_G237.tiff
F://SIPFlowData//run10//green/20181010_1345_run10bb5fl5pos_G238.tiff
F://SIPFlowData//run10//green/20181010_1345_run10bb5fl5pos_G239.tiff
F://SIPFlowData//run10//green/20181010_1345_run10bb5fl5pos_G240.tiff
F://SIPFlowData//run10//green/20181010_1345_run10bb5fl5pos_G241.tiff
F://SIPFlowData//run10//green/20181010_1345_run10bb5fl5pos_G242.tiff
F://SIPFlowData//run10//green/20181010_1345_run10bb5fl5pos_G243.tiff
F://SIPFlowData//run10//green/20181010_1345_run10bb5fl5pos_G244.tiff
F://SIPFlowData//run10//green/20181010_1345_run10bb5fl5pos_G245.tiff
F://SIPFlowData//run10//green/20181010_1345_run10bb5fl5pos_G246.tiff
F://SIPFlowData//run10//green/20181010_1345_run10bb5fl5pos_G247.tiff
F://SIPFlowData//run10//green/20181010_1345_run10bb5fl5pos_G248.tiff
F://SIPFlowData//run10//green/20181010_1345_run10bb5fl5pos_G249.tiff
F://SIPFlowData//run10//green/20181010_1345_run10bb5fl5pos_G250.tiff
F://SIPFlowData//run10//green/20181010_1345_run10bb5fl5pos_G251.tiff
F://SIPFlowData//run10//green/20181010_1345_run10bb5fl5pos_G252.tiff
F://SIPFlowData//run10//green/20181010_1345_run10bb5fl5pos_G253.tiff
F://SIPFlowData//run10//green/20181010_1345_run10bb5fl5pos_G254.tiff
F://SIPFlowData//run10//green/20181010_1345_run10bb5fl5pos_G255.tiff
F://SIPFlowData//run10//green/20181010_1345_run10bb5fl5pos_G256.tiff
F://SIPFlowData//run10//green/20181010_1345_run10bb5fl5pos_G257.tiff
F://SIPFlowData//run10//green/20181010_1345_run10bb5fl5pos_G258.tiff
F://SIPFlowData//run10//green/20181010_1345_run10bb5fl5pos_G259.tiff
F://SIPFlowData//run10//green/20181010_1345_run10bb5fl5pos_G260.tiff
F://SIPFlowData//run10//green/20181010_1345_run10bb5fl5pos_G261.tiff
F://SIPFlowData//run10//green/20181010_1345_run10bb5fl5pos_G262.tiff
F://SIPFlowData//run10//green/20181010_1345_run10bb5fl5pos_G263.tiff
F://SIPFlowData//run10//green/20181010_1345_run10bb5fl5pos_G264.tiff
F://SIPFlowData//run10//green/20181010_1345_run10bb5fl5pos_G265.tiff
F://SIPFlowData//run10//green/20181010_1345_run10bb5fl5pos_G266.tiff
F://SIPFlowData//run10//green/20181010_1345_run10bb5fl5pos_G267.tiff
F://SIPFlowData//run10//green/20181010_1345_run10bb5fl5pos_G268.tiff
F://SIPFlowData//run10//green/20181010_1345_run10bb5fl5pos_G269.tiff
F://SIPFlowData//run10//green/20181010_1345_run10bb5fl5pos_G270.tiff
F://SIPFlowData//run10//green/20181010_1345_run10bb5fl5pos_G271.tiff
F://SIPFlowData//run10//green/20181010_1345_run10bb5fl5pos_G272.tiff
F://SIPFlowData//run10//green/20181010_1345_run10bb5fl5pos_G273.tiff
F://SIPFlowData//run10//green/20181010_1345_run10bb5fl5pos_G274.tiff
F://SIPFlowData//run10//green/20181010_1345_run10bb5fl5pos_G275.tiff
F://SIPFlowData//run10//green/20181010_1345_run10bb5fl5pos_G276.tiff
F://SIPFlowData//run10//green/20181010_1345_run10bb5fl5pos_G277.tiff
F://SIPFlowData//run10//green/20181010_1345_run10bb5fl5pos_G278.tiff
F://SIPFlowData//run10//green/20181010_1345_run10bb5fl5pos_G279.tiff
F://SIPFlowData//run10//green/20181010_1345_run10bb5fl5pos_G280.tiff
F://SIPFlowData//run10//green/20181010_1345_run10bb5fl5pos_G281.tiff
F://SIPFlowData//run10//green/20181010_1345_run10bb5fl5pos_G282.tiff
F://SIPFlowData//run10//green/20181010_1345_run10bb5fl5pos_G283.tiff
F://SIPFlowData//run10//green/20181010_1345_run10bb5fl5pos_G284.tiff
F://SIPFlowData//run10//green/20181010_1345_run10bb5fl5pos_G285.tiff
F://SIPFlowData//run10//green/20181010_1345_run10bb5fl5pos_G286.tiff
F://SIPFlowData//run10//green/20181010_1345_run10bb5fl5pos_G287.tiff
F://SIPFlowData//run10//green/20181010_1345_run10bb5fl5pos_G288.tiff
F://SIPFlowData//run10//green/20181010_1345_run10bb5fl5pos_G289.tiff
F://SIPFlowData//run10//green/20181010_1345_run10bb5fl5pos_G290.tiff
F://SIPFlowData//run10//green/20181010_1345_run10bb5fl5pos_G291.tiff
F://SIPFlowData//run10//green/20181010_1345_run10bb5fl5pos_G292.tiff
F://SIPFlowData//run10//green/20181010_1345_run10bb5fl5pos_G293.tiff
F://SIPFlowData//run10//green/20181010_1345_run10bb5fl5pos_G294.tiff
F://SIPFlowData//run10//green/20181010_1345_run10bb5fl5pos_G295.tiff
F://SIPFlowData//run10//green/20181010_1345_run10bb5fl5pos_G296.tiff
F://SIPFlowData//run10//green/20181010_1345_run10bb5fl5pos_G297.tiff
F://SIPFlowData//run10//green/20181010_1345_run10bb5fl5pos_G298.tiff
F://SIPFlowData//run10//green/20181010_1345_run10bb5fl5pos_G299.tiff
F://SIPFlowData//run10//green/20181010_1345_run10bb5fl5pos_G300.tiff
F://SIPFlowData//run10//green/20181010_1345_run10bb5fl5pos_G301.tiff
F://SIPFlowData//run10//green/20181010_1345_run10bb5fl5pos_G302.tiff
F://SIPFlowData//run10//green/20181010_1345_run10bb5fl5pos_G303.tiff
F://SIPFlowData//run10//green/20181010_1345_run10bb5fl5pos_G304.tiff
F://SIPFlowData//run10//green/20181010_1345_run10bb5fl5pos_G305.tiff
F://SIPFlowData//run10//green/20181010_1345_run10bb5fl5pos_G306.tiff
F://SIPFlowData//run10//green/20181010_1345_run10bb5fl5pos_G307.tiff
F://SIPFlowData//run10//green/20181010_1345_run10bb5fl5pos_G308.tiff
F://SIPFlowData//run10//green/20181010_1345_run10bb5fl5pos_G309.tiff
F://SIPFlowData//run10//green/20181010_1345_run10bb5fl5pos_G310.tiff
F://SIPFlowData//run10//green/20181010_1345_run10bb5fl5pos_G311.tiff
F://SIPFlowData//run10//green/20181010_1345_run10bb5fl5pos_G312.tiff
F://SIPFlowData//run10//green/20181010_1345_run10bb5fl5pos_G313.tiff
F://SIPFlowData//run10//green/20181010_1345_run10bb5fl5pos_G314.tiff
F://SIPFlowData//run10//green/20181010_1345_run10bb5fl5pos_G315.tiff
F://SIPFlowData//run10//green/20181010_1345_run10bb5fl5pos_G316.tiff
F://SIPFlowData//run10//green/20181010_1345_run10bb5fl5pos_G317.tiff
F://SIPFlowData//run10//green/20181010_1345_run10bb5fl5pos_G318.tiff
F://SIPFlowData//run10//green/20181010_1345_run10bb5fl5pos_G319.tiff
F://SIPFlowData//run10//green/20181010_1345_run10bb5fl5pos_G320.tiff
F://SIPFlowData//run10//green/20181010_1345_run10bb5fl5pos_G321.tiff
F://SIPFlowData//run10//green/20181010_1345_run10bb5fl5pos_G322.tiff
F://SIPFlowData//run10//green/20181010_1345_run10bb5fl5pos_G323.tiff
F://SIPFlowData//run10//green/20181010_1345_run10bb5fl5pos_G324.tiff
F://SIPFlowData//run10//green/20181010_1345_run10bb5fl5pos_G325.tiff
F://SIPFlowData//run10//green/20181010_1345_run10bb5fl5pos_G326.tiff
F://SIPFlowData//run10//green/20181010_1345_run10bb5fl5pos_G327.tiff
F://SIPFlowData//run10//green/20181010_1345_run10bb5fl5pos_G328.tiff
F://SIPFlowData//run10//green/20181010_1345_run10bb5fl5pos_G329.tiff
F://SIPFlowData//run10//green/20181010_1345_run10bb5fl5pos_G330.tiff
F://SIPFlowData//run10//green/20181010_1345_run10bb5fl5pos_G331.tiff
F://SIPFlowData//run10//green/20181010_1345_run10bb5fl5pos_G332.tiff
F://SIPFlowData//run10//green/20181010_1345_run10bb5fl5pos_G333.tiff
F://SIPFlowData//run10//green/20181010_1345_run10bb5fl5pos_G334.tiff
F://SIPFlowData//run10//green/20181010_1345_run10bb5fl5pos_G335.tiff
F://SIPFlowData//run10//green/20181010_1345_run10bb5fl5pos_G336.tiff
F://SIPFlowData//run10//green/20181010_1345_run10bb5fl5pos_G337.tiff
F://SIPFlowData//run10//green/20181010_1345_run10bb5fl5pos_G338.tiff
F://SIPFlowData//run10//green/20181010_1345_run10bb5fl5pos_G339.tiff
F://SIPFlowData//run10//green/20181010_1345_run10bb5fl5pos_G340.tiff
F://SIPFlowData//run10//green/20181010_1345_run10bb5fl5pos_G341.tiff
F://SIPFlowData//run10//green/20181010_1345_run10bb5fl5pos_G342.tiff
F://SIPFlowData//run10//green/20181010_1345_run10bb5fl5pos_G343.tiff
F://SIPFlowData//run10//green/20181010_1345_run10bb5fl5pos_G344.tiff
F://SIPFlowData//run10//green/20181010_1345_run10bb5fl5pos_G345.tiff
F://SIPFlowData//run10//green/20181010_1345_run10bb5fl5pos_G346.tiff
F://SIPFlowData//run10//green/20181010_1345_run10bb5fl5pos_G347.tiff
F://SIPFlowData//run10//green/20181010_1345_run10bb5fl5pos_G348.tiff
F://SIPFlowData//run10//green/20181010_1345_run10bb5fl5pos_G349.tiff
F://SIPFlowData//run10//green/20181010_1345_run10bb5fl5pos_G350.tiff
F://SIPFlowData//run10//green/20181010_1345_run10bb5fl5pos_G351.tiff
F://SIPFlowData//run10//green/20181010_1345_run10bb5fl5pos_G352.tiff
F://SIPFlowData//run10//green/20181010_1345_run10bb5fl5pos_G353.tiff
F://SIPFlowData//run10//green/20181010_1345_run10bb5fl5pos_G354.tiff
F://SIPFlowData//run10//green/20181010_1345_run10bb5fl5pos_G355.tiff
F://SIPFlowData//run10//green/20181010_1345_run10bb5fl5pos_G356.tiff
F://SIPFlowData//run10//green/20181010_1345_run10bb5fl5pos_G357.tiff
F://SIPFlowData//run10//green/20181010_1345_run10bb5fl5pos_G358.tiff
F://SIPFlowData//run10//green/20181010_1345_run10bb5fl5pos_G359.tiff
F://SIPFlowData//run10//green/20181010_1345_run10bb5fl5pos_G360.tiff
F://SIPFlowData//run10//green/20181010_1345_run10bb5fl5pos_G361.tiff
F://SIPFlowData//run10//green/20181010_1345_run10bb5fl5pos_G362.tiff
F://SIPFlowData//run10//green/20181010_1345_run10bb5fl5pos_G363.tiff
F://SIPFlowData//run10//green/20181010_1345_run10bb5fl5pos_G364.tiff
F://SIPFlowData//run10//green/20181010_1345_run10bb5fl5pos_G365.tiff
F://SIPFlowData//run10//green/20181010_1345_run10bb5fl5pos_G366.tiff
F://SIPFlowData//run10//green/20181010_1345_run10bb5fl5pos_G367.tiff
F://SIPFlowData//run10//green/20181010_1345_run10bb5fl5pos_G368.tiff
F://SIPFlowData//run10//green/20181010_1345_run10bb5fl5pos_G369.tiff
F://SIPFlowData//run10//green/20181010_1345_run10bb5fl5pos_G370.tiff
F://SIPFlowData//run10//green/20181010_1345_run10bb5fl5pos_G371.tiff
F://SIPFlowData//run10//green/20181010_1345_run10bb5fl5pos_G372.tiff
F://SIPFlowData//run10//green/20181010_1345_run10bb5fl5pos_G373.tiff
F://SIPFlowData//run10//green/20181010_1345_run10bb5fl5pos_G374.tiff
F://SIPFlowData//run10//green/20181010_1345_run10bb5fl5pos_G375.tiff
F://SIPFlowData//run10//green/20181010_1345_run10bb5fl5pos_G376.tiff
F://SIPFlowData//run10//green/20181010_1345_run10bb5fl5pos_G377.tiff
F://SIPFlowData//run10//green/20181010_1345_run10bb5fl5pos_G378.tiff
F://SIPFlowData//run10//green/20181010_1345_run10bb5fl5pos_G379.tiff
F://SIPFlowData//run10//green/20181010_1345_run10bb5fl5pos_G380.tiff
F://SIPFlowData//run10//green/20181010_1345_run10bb5fl5pos_G381.tiff
F://SIPFlowData//run10//green/20181010_1345_run10bb5fl5pos_G382.tiff
F://SIPFlowData//run10//green/20181010_1345_run10bb5fl5pos_G383.tiff
F://SIPFlowData//run10//green/20181010_1345_run10bb5fl5pos_G384.tiff
F://SIPFlowData//run10//green/20181010_1345_run10bb5fl5pos_G385.tiff
F://SIPFlowData//run10//green/20181010_1345_run10bb5fl5pos_G386.tiff
F://SIPFlowData//run10//green/20181010_1345_run10bb5fl5pos_G387.tiff
F://SIPFlowData//run10//green/20181010_1345_run10bb5fl5pos_G388.tiff
F://SIPFlowData//run10//green/20181010_1345_run10bb5fl5pos_G389.tiff
F://SIPFlowData//run10//green/20181010_1345_run10bb5fl5pos_G390.tiff
F://SIPFlowData//run10//green/20181010_1345_run10bb5fl5pos_G391.tiff
F://SIPFlowData//run10//green/20181010_1345_run10bb5fl5pos_G392.tiff
F://SIPFlowData//run10//green/20181010_1345_run10bb5fl5pos_G393.tiff
F://SIPFlowData//run10//green/20181010_1345_run10bb5fl5pos_G394.tiff
F://SIPFlowData//run10//green/20181010_1345_run10bb5fl5pos_G395.tiff
F://SIPFlowData//run10//green/20181010_1345_run10bb5fl5pos_G396.tiff
F://SIPFlowData//run10//green/20181010_1345_run10bb5fl5pos_G397.tiff
F://SIPFlowData//run10//green/20181010_1345_run10bb5fl5pos_G398.tiff
F://SIPFlowData//run10//green/20181010_1345_run10bb5fl5pos_G399.tiff
F://SIPFlowData//run10//green/20181010_1345_run10bb5fl5pos_G400.tiff
F://SIPFlowData//run10//green/20181010_1345_run10bb5fl5pos_G401.tiff
F://SIPFlowData//run10//green/20181010_1345_run10bb5fl5pos_G402.tiff
F://SIPFlowData//run10//green/20181010_1345_run10bb5fl5pos_G403.tiff
F://SIPFlowData//run10//green/20181010_1345_run10bb5fl5pos_G404.tiff
F://SIPFlowData//run10//green/20181010_1345_run10bb5fl5pos_G405.tiff
F://SIPFlowData//run10//green/20181010_1345_run10bb5fl5pos_G406.tiff
F://SIPFlowData//run10//green/20181010_1345_run10bb5fl5pos_G407.tiff
F://SIPFlowData//run10//green/20181010_1345_run10bb5fl5pos_G408.tiff
F://SIPFlowData//run10//green/20181010_1345_run10bb5fl5pos_G409.tiff
F://SIPFlowData//run10//green/20181010_1345_run10bb5fl5pos_G410.tiff
F://SIPFlowData//run10//green/20181010_1345_run10bb5fl5pos_G411.tiff
F://SIPFlowData//run10//green/20181010_1345_run10bb5fl5pos_G412.tiff
F://SIPFlowData//run10//green/20181010_1345_run10bb5fl5pos_G413.tiff
F://SIPFlowData//run10//green/20181010_1345_run10bb5fl5pos_G414.tiff
F://SIPFlowData//run10//green/20181010_1345_run10bb5fl5pos_G415.tiff
F://SIPFlowData//run10//green/20181010_1345_run10bb5fl5pos_G416.tiff
F://SIPFlowData//run10//green/20181010_1345_run10bb5fl5pos_G417.tiff
F://SIPFlowData//run10//green/20181010_1345_run10bb5fl5pos_G418.tiff
F://SIPFlowData//run10//green/20181010_1345_run10bb5fl5pos_G419.tiff
F://SIPFlowData//run10//green/20181010_1345_run10bb5fl5pos_G420.tiff
F://SIPFlowData//run10//green/20181010_1345_run10bb5fl5pos_G421.tiff
F://SIPFlowData//run10//green/20181010_1345_run10bb5fl5pos_G422.tiff
F://SIPFlowData//run10//green/20181010_1345_run10bb5fl5pos_G423.tiff
F://SIPFlowData//run10//green/20181010_1345_run10bb5fl5pos_G424.tiff
F://SIPFlowData//run10//green/20181010_1345_run10bb5fl5pos_G425.tiff
F://SIPFlowData//run10//green/20181010_1345_run10bb5fl5pos_G426.tiff
F://SIPFlowData//run10//green/20181010_1345_run10bb5fl5pos_G427.tiff
F://SIPFlowData//run10//green/20181010_1345_run10bb5fl5pos_G428.tiff
F://SIPFlowData//run10//green/20181010_1345_run10bb5fl5pos_G429.tiff
F://SIPFlowData//run10//green/20181010_1345_run10bb5fl5pos_G430.tiff
F://SIPFlowData//run10//green/20181010_1345_run10bb5fl5pos_G431.tiff
F://SIPFlowData//run10//green/20181010_1345_run10bb5fl5pos_G432.tiff
F://SIPFlowData//run10//green/20181010_1345_run10bb5fl5pos_G433.tiff
F://SIPFlowData//run10//green/20181010_1345_run10bb5fl5pos_G434.tiff
F://SIPFlowData//run10//green/20181010_1345_run10bb5fl5pos_G435.tiff
F://SIPFlowData//run10//green/20181010_1345_run10bb5fl5pos_G436.tiff
F://SIPFlowData//run10//green/20181010_1345_run10bb5fl5pos_G437.tiff
F://SIPFlowData//run10//green/20181010_1345_run10bb5fl5pos_G438.tiff
F://SIPFlowData//run10//green/20181010_1345_run10bb5fl5pos_G439.tiff
F://SIPFlowData//run10//green/20181010_1345_run10bb5fl5pos_G440.tiff
F://SIPFlowData//run10//green/20181010_1345_run10bb5fl5pos_G441.tiff
F://SIPFlowData//run10//green/20181010_1345_run10bb5fl5pos_G442.tiff
F://SIPFlowData//run10//green/20181010_1345_run10bb5fl5pos_G443.tiff
F://SIPFlowData//run10//green/20181010_1345_run10bb5fl5pos_G444.tiff
F://SIPFlowData//run10//green/20181010_1345_run10bb5fl5pos_G445.tiff
F://SIPFlowData//run10//green/20181010_1345_run10bb5fl5pos_G446.tiff
F://SIPFlowData//run10//green/20181010_1345_run10bb5fl5pos_G447.tiff
F://SIPFlowData//run10//green/20181010_1345_run10bb5fl5pos_G448.tiff
F://SIPFlowData//run10//green/20181010_1345_run10bb5fl5pos_G449.tiff
F://SIPFlowData//run10//green/20181010_1345_run10bb5fl5pos_G450.tiff
F://SIPFlowData//run10//green/20181010_1345_run10bb5fl5pos_G451.tiff
F://SIPFlowData//run10//green/20181010_1345_run10bb5fl5pos_G452.tiff
F://SIPFlowData//run10//green/20181010_1345_run10bb5fl5pos_G453.tiff
F://SIPFlowData//run10//green/20181010_1345_run10bb5fl5pos_G454.tiff
F://SIPFlowData//run10//green/20181010_1345_run10bb5fl5pos_G455.tiff
F://SIPFlowData//run10//green/20181010_1345_run10bb5fl5pos_G456.tiff
F://SIPFlowData//run10//green/20181010_1345_run10bb5fl5pos_G457.tiff
F://SIPFlowData//run10//green/20181010_1345_run10bb5fl5pos_G458.tiff
F://SIPFlowData//run10//green/20181010_1345_run10bb5fl5pos_G459.tiff
F://SIPFlowData//run10//green/20181010_1345_run10bb5fl5pos_G460.tiff
F://SIPFlowData//run10//green/20181010_1345_run10bb5fl5pos_G461.tiff
F://SIPFlowData//run10//green/20181010_1345_run10bb5fl5pos_G462.tiff
F://SIPFlowData//run10//green/20181010_1345_run10bb5fl5pos_G463.tiff
F://SIPFlowData//run10//green/20181010_1345_run10bb5fl5pos_G464.tiff
F://SIPFlowData//run10//green/20181010_1345_run10bb5fl5pos_G465.tiff
F://SIPFlowData//run10//green/20181010_1345_run10bb5fl5pos_G466.tiff
F://SIPFlowData//run10//green/20181010_1345_run10bb5fl5pos_G467.tiff
F://SIPFlowData//run10//green/20181010_1345_run10bb5fl5pos_G468.tiff
F://SIPFlowData//run10//green/20181010_1345_run10bb5fl5pos_G469.tiff
F://SIPFlowData//run10//green/20181010_1345_run10bb5fl5pos_G470.tiff
F://SIPFlowData//run10//green/20181010_1345_run10bb5fl5pos_G471.tiff
F://SIPFlowData//run10//green/20181010_1345_run10bb5fl5pos_G472.tiff
F://SIPFlowData//run10//green/20181010_1345_run10bb5fl5pos_G473.tiff
F://SIPFlowData//run10//green/20181010_1345_run10bb5fl5pos_G474.tiff
F://SIPFlowData//run10//green/20181010_1345_run10bb5fl5pos_G475.tiff
F://SIPFlowData//run10//green/20181010_1345_run10bb5fl5pos_G476.tiff
F://SIPFlowData//run10//green/20181010_1345_run10bb5fl5pos_G477.tiff
F://SIPFlowData//run10//green/20181010_1345_run10bb5fl5pos_G478.tiff
F://SIPFlowData//run10//green/20181010_1345_run10bb5fl5pos_G479.tiff
F://SIPFlowData//run10//green/20181010_1345_run10bb5fl5pos_G480.tiff
F://SIPFlowData//run10//green/20181010_1345_run10bb5fl5pos_G481.tiff
F://SIPFlowData//run10//green/20181010_1345_run10bb5fl5pos_G482.tiff
F://SIPFlowData//run10//green/20181010_1345_run10bb5fl5pos_G483.tiff
F://SIPFlowData//run10//green/20181010_1345_run10bb5fl5pos_G484.tiff
F://SIPFlowData//run10//green/20181010_1345_run10bb5fl5pos_G485.tiff
F://SIPFlowData//run10//green/20181010_1345_run10bb5fl5pos_G486.tiff
F://SIPFlowData//run10//green/20181010_1345_run10bb5fl5pos_G487.tiff
F://SIPFlowData//run10//green/20181010_1345_run10bb5fl5pos_G488.tiff
F://SIPFlowData//run10//green/20181010_1345_run10bb5fl5pos_G489.tiff
F://SIPFlowData//run10//green/20181010_1345_run10bb5fl5pos_G490.tiff
F://SIPFlowData//run10//green/20181010_1345_run10bb5fl5pos_G491.tiff
F://SIPFlowData//run10//green/20181010_1345_run10bb5fl5pos_G492.tiff
F://SIPFlowData//run10//green/20181010_1345_run10bb5fl5pos_G493.tiff
F://SIPFlowData//run10//green/20181010_1345_run10bb5fl5pos_G494.tiff
F://SIPFlowData//run10//green/20181010_1345_run10bb5fl5pos_G495.tiff
F://SIPFlowData//run10//green/20181010_1346_run10bb5fl5pos_G496.tiff
F://SIPFlowData//run10//green/20181010_1346_run10bb5fl5pos_G497.tiff
F://SIPFlowData//run10//green/20181010_1346_run10bb5fl5pos_G498.tiff
F://SIPFlowData//run10//green/20181010_1346_run10bb5fl5pos_G499.tiff
F://SIPFlowData//run10//green/20181010_1346_run10bb5fl5pos_G500.tiff
F://SIPFlowData//run10//green/20181010_1346_run10bb5fl5pos_G501.tiff
F://SIPFlowData//run10//green/20181010_1346_run10bb5fl5pos_G502.tiff
F://SIPFlowData//run10//green/20181010_1346_run10bb5fl5pos_G503.tiff
F://SIPFlowData//run10//green/20181010_1346_run10bb5fl5pos_G504.tiff
F://SIPFlowData//run10//green/20181010_1346_run10bb5fl5pos_G505.tiff
F://SIPFlowData//run10//green/20181010_1346_run10bb5fl5pos_G506.tiff
F://SIPFlowData//run10//green/20181010_1346_run10bb5fl5pos_G507.tiff
F://SIPFlowData//run10//green/20181010_1346_run10bb5fl5pos_G508.tiff
F://SIPFlowData//run10//green/20181010_1346_run10bb5fl5pos_G509.tiff
F://SIPFlowData//run10//green/20181010_1346_run10bb5fl5pos_G510.tiff
F://SIPFlowData//run10//green/20181010_1346_run10bb5fl5pos_G511.tiff
F://SIPFlowData//run10//green/20181010_1346_run10bb5fl5pos_G512.tiff
F://SIPFlowData//run10//green/20181010_1346_run10bb5fl5pos_G513.tiff
F://SIPFlowData//run10//green/20181010_1346_run10bb5fl5pos_G514.tiff
F://SIPFlowData//run10//green/20181010_1346_run10bb5fl5pos_G515.tiff
F://SIPFlowData//run10//green/20181010_1346_run10bb5fl5pos_G516.tiff
F://SIPFlowData//run10//green/20181010_1346_run10bb5fl5pos_G517.tiff
F://SIPFlowData//run10//green/20181010_1346_run10bb5fl5pos_G518.tiff
F://SIPFlowData//run10//green/20181010_1346_run10bb5fl5pos_G519.tiff
F://SIPFlowData//run10//green/20181010_1346_run10bb5fl5pos_G520.tiff
F://SIPFlowData//run10//green/20181010_1346_run10bb5fl5pos_G521.tiff
F://SIPFlowData//run10//green/20181010_1346_run10bb5fl5pos_G522.tiff
F://SIPFlowData//run10//green/20181010_1346_run10bb5fl5pos_G523.tiff
F://SIPFlowData//run10//green/20181010_1346_run10bb5fl5pos_G524.tiff
F://SIPFlowData//run10//green/20181010_1346_run10bb5fl5pos_G525.tiff
F://SIPFlowData//run10//green/20181010_1346_run10bb5fl5pos_G526.tiff
F://SIPFlowData//run10//green/20181010_1346_run10bb5fl5pos_G527.tiff
F://SIPFlowData//run10//green/20181010_1346_run10bb5fl5pos_G528.tiff
F://SIPFlowData//run10//green/20181010_1346_run10bb5fl5pos_G529.tiff
F://SIPFlowData//run10//green/20181010_1346_run10bb5fl5pos_G530.tiff
F://SIPFlowData//run10//green/20181010_1346_run10bb5fl5pos_G531.tiff
F://SIPFlowData//run10//green/20181010_1346_run10bb5fl5pos_G532.tiff
F://SIPFlowData//run10//green/20181010_1346_run10bb5fl5pos_G533.tiff
F://SIPFlowData//run10//green/20181010_1346_run10bb5fl5pos_G534.tiff
F://SIPFlowData//run10//green/20181010_1346_run10bb5fl5pos_G535.tiff
F://SIPFlowData//run10//green/20181010_1346_run10bb5fl5pos_G536.tiff
F://SIPFlowData//run10//green/20181010_1346_run10bb5fl5pos_G537.tiff
F://SIPFlowData//run10//green/20181010_1346_run10bb5fl5pos_G538.tiff
F://SIPFlowData//run10//green/20181010_1346_run10bb5fl5pos_G539.tiff
F://SIPFlowData//run10//green/20181010_1346_run10bb5fl5pos_G540.tiff
F://SIPFlowData//run10//green/20181010_1346_run10bb5fl5pos_G541.tiff
F://SIPFlowData//run10//green/20181010_1346_run10bb5fl5pos_G542.tiff
F://SIPFlowData//run10//green/20181010_1346_run10bb5fl5pos_G543.tiff
F://SIPFlowData//run10//green/20181010_1346_run10bb5fl5pos_G544.tiff
F://SIPFlowData//run10//green/20181010_1346_run10bb5fl5pos_G545.tiff
F://SIPFlowData//run10//green/20181010_1346_run10bb5fl5pos_G546.tiff
F://SIPFlowData//run10//green/20181010_1346_run10bb5fl5pos_G547.tiff
F://SIPFlowData//run10//green/20181010_1346_run10bb5fl5pos_G548.tiff
F://SIPFlowData//run10//green/20181010_1346_run10bb5fl5pos_G549.tiff
F://SIPFlowData//run10//green/20181010_1346_run10bb5fl5pos_G550.tiff
F://SIPFlowData//run10//green/20181010_1346_run10bb5fl5pos_G551.tiff
F://SIPFlowData//run10//green/20181010_1346_run10bb5fl5pos_G552.tiff
F://SIPFlowData//run10//green/20181010_1346_run10bb5fl5pos_G553.tiff
F://SIPFlowData//run10//green/20181010_1346_run10bb5fl5pos_G554.tiff
F://SIPFlowData//run10//green/20181010_1346_run10bb5fl5pos_G555.tiff
F://SIPFlowData//run10//green/20181010_1346_run10bb5fl5pos_G556.tiff
F://SIPFlowData//run10//green/20181010_1346_run10bb5fl5pos_G557.tiff
F://SIPFlowData//run10//green/20181010_1346_run10bb5fl5pos_G558.tiff
F://SIPFlowData//run10//green/20181010_1346_run10bb5fl5pos_G559.tiff
F://SIPFlowData//run10//green/20181010_1346_run10bb5fl5pos_G560.tiff
F://SIPFlowData//run10//green/20181010_1346_run10bb5fl5pos_G561.tiff
F://SIPFlowData//run10//green/20181010_1346_run10bb5fl5pos_G562.tiff
F://SIPFlowData//run10//green/20181010_1346_run10bb5fl5pos_G563.tiff
F://SIPFlowData//run10//green/20181010_1346_run10bb5fl5pos_G564.tiff
F://SIPFlowData//run10//green/20181010_1346_run10bb5fl5pos_G565.tiff
F://SIPFlowData//run10//green/20181010_1346_run10bb5fl5pos_G566.tiff
F://SIPFlowData//run10//green/20181010_1346_run10bb5fl5pos_G567.tiff
F://SIPFlowData//run10//green/20181010_1346_run10bb5fl5pos_G568.tiff
F://SIPFlowData//run10//green/20181010_1346_run10bb5fl5pos_G569.tiff
F://SIPFlowData//run10//green/20181010_1346_run10bb5fl5pos_G570.tiff
F://SIPFlowData//run10//green/20181010_1346_run10bb5fl5pos_G571.tiff
F://SIPFlowData//run10//green/20181010_1346_run10bb5fl5pos_G572.tiff
F://SIPFlowData//run10//green/20181010_1346_run10bb5fl5pos_G573.tiff
F://SIPFlowData//run10//green/20181010_1346_run10bb5fl5pos_G574.tiff
F://SIPFlowData//run10//green/20181010_1346_run10bb5fl5pos_G575.tiff
F://SIPFlowData//run10//green/20181010_1346_run10bb5fl5pos_G576.tiff
F://SIPFlowData//run10//green/20181010_1346_run10bb5fl5pos_G577.tiff
F://SIPFlowData//run10//green/20181010_1346_run10bb5fl5pos_G578.tiff
F://SIPFlowData//run10//green/20181010_1346_run10bb5fl5pos_G579.tiff
F://SIPFlowData//run10//green/20181010_1346_run10bb5fl5pos_G580.tiff
F://SIPFlowData//run10//green/20181010_1346_run10bb5fl5pos_G581.tiff
F://SIPFlowData//run10//green/20181010_1346_run10bb5fl5pos_G582.tiff
F://SIPFlowData//run10//green/20181010_1346_run10bb5fl5pos_G583.tiff
F://SIPFlowData//run10//green/20181010_1346_run10bb5fl5pos_G584.tiff
F://SIPFlowData//run10//green/20181010_1346_run10bb5fl5pos_G585.tiff
F://SIPFlowData//run10//green/20181010_1346_run10bb5fl5pos_G586.tiff
F://SIPFlowData//run10//green/20181010_1346_run10bb5fl5pos_G587.tiff
F://SIPFlowData//run10//green/20181010_1346_run10bb5fl5pos_G588.tiff
F://SIPFlowData//run10//green/20181010_1346_run10bb5fl5pos_G589.tiff
F://SIPFlowData//run10//green/20181010_1346_run10bb5fl5pos_G590.tiff
F://SIPFlowData//run10//green/20181010_1346_run10bb5fl5pos_G591.tiff
F://SIPFlowData//run10//green/20181010_1346_run10bb5fl5pos_G592.tiff
F://SIPFlowData//run10//green/20181010_1346_run10bb5fl5pos_G593.tiff
F://SIPFlowData//run10//green/20181010_1346_run10bb5fl5pos_G594.tiff
F://SIPFlowData//run10//green/20181010_1346_run10bb5fl5pos_G595.tiff
F://SIPFlowData//run10//green/20181010_1346_run10bb5fl5pos_G596.tiff
F://SIPFlowData//run10//green/20181010_1346_run10bb5fl5pos_G597.tiff
F://SIPFlowData//run10//green/20181010_1346_run10bb5fl5pos_G598.tiff
F://SIPFlowData//run10//green/20181010_1346_run10bb5fl5pos_G599.tiff
F://SIPFlowData//run10//green/20181010_1346_run10bb5fl5pos_G600.tiff
F://SIPFlowData//run10//green/20181010_1346_run10bb5fl5pos_G601.tiff
F://SIPFlowData//run10//green/20181010_1346_run10bb5fl5pos_G602.tiff
F://SIPFlowData//run10//green/20181010_1346_run10bb5fl5pos_G603.tiff
F://SIPFlowData//run10//green/20181010_1346_run10bb5fl5pos_G604.tiff
F://SIPFlowData//run10//green/20181010_1346_run10bb5fl5pos_G605.tiff
F://SIPFlowData//run10//green/20181010_1346_run10bb5fl5pos_G606.tiff
F://SIPFlowData//run10//green/20181010_1346_run10bb5fl5pos_G607.tiff
F://SIPFlowData//run10//green/20181010_1346_run10bb5fl5pos_G608.tiff
F://SIPFlowData//run10//green/20181010_1346_run10bb5fl5pos_G609.tiff
F://SIPFlowData//run10//green/20181010_1346_run10bb5fl5pos_G610.tiff
F://SIPFlowData//run10//green/20181010_1346_run10bb5fl5pos_G611.tiff
F://SIPFlowData//run10//green/20181010_1346_run10bb5fl5pos_G612.tiff
F://SIPFlowData//run10//green/20181010_1346_run10bb5fl5pos_G613.tiff
F://SIPFlowData//run10//green/20181010_1346_run10bb5fl5pos_G614.tiff
F://SIPFlowData//run10//green/20181010_1346_run10bb5fl5pos_G615.tiff
F://SIPFlowData//run10//green/20181010_1346_run10bb5fl5pos_G616.tiff
F://SIPFlowData//run10//green/20181010_1346_run10bb5fl5pos_G617.tiff
F://SIPFlowData//run10//green/20181010_1346_run10bb5fl5pos_G618.tiff
F://SIPFlowData//run10//green/20181010_1346_run10bb5fl5pos_G619.tiff
F://SIPFlowData//run10//green/20181010_1346_run10bb5fl5pos_G620.tiff
F://SIPFlowData//run10//green/20181010_1346_run10bb5fl5pos_G621.tiff
F://SIPFlowData//run10//green/20181010_1346_run10bb5fl5pos_G622.tiff
F://SIPFlowData//run10//green/20181010_1346_run10bb5fl5pos_G623.tiff
F://SIPFlowData//run10//green/20181010_1346_run10bb5fl5pos_G624.tiff
F://SIPFlowData//run10//green/20181010_1346_run10bb5fl5pos_G625.tiff
F://SIPFlowData//run10//green/20181010_1346_run10bb5fl5pos_G626.tiff
F://SIPFlowData//run10//green/20181010_1346_run10bb5fl5pos_G627.tiff
F://SIPFlowData//run10//green/20181010_1346_run10bb5fl5pos_G628.tiff
F://SIPFlowData//run10//green/20181010_1346_run10bb5fl5pos_G629.tiff
F://SIPFlowData//run10//green/20181010_1346_run10bb5fl5pos_G630.tiff
F://SIPFlowData//run10//green/20181010_1346_run10bb5fl5pos_G631.tiff
F://SIPFlowData//run10//green/20181010_1346_run10bb5fl5pos_G632.tiff
F://SIPFlowData//run10//green/20181010_1346_run10bb5fl5pos_G633.tiff
F://SIPFlowData//run10//green/20181010_1346_run10bb5fl5pos_G634.tiff
F://SIPFlowData//run10//green/20181010_1346_run10bb5fl5pos_G635.tiff
F://SIPFlowData//run10//green/20181010_1346_run10bb5fl5pos_G636.tiff
F://SIPFlowData//run10//green/20181010_1346_run10bb5fl5pos_G637.tiff
F://SIPFlowData//run10//green/20181010_1346_run10bb5fl5pos_G638.tiff
F://SIPFlowData//run10//green/20181010_1346_run10bb5fl5pos_G639.tiff
F://SIPFlowData//run10//green/20181010_1346_run10bb5fl5pos_G640.tiff
F://SIPFlowData//run10//green/20181010_1346_run10bb5fl5pos_G641.tiff
F://SIPFlowData//run10//green/20181010_1346_run10bb5fl5pos_G642.tiff
F://SIPFlowData//run10//green/20181010_1346_run10bb5fl5pos_G643.tiff
F://SIPFlowData//run10//green/20181010_1346_run10bb5fl5pos_G644.tiff
F://SIPFlowData//run10//green/20181010_1346_run10bb5fl5pos_G645.tiff
F://SIPFlowData//run10//green/20181010_1346_run10bb5fl5pos_G646.tiff
F://SIPFlowData//run10//green/20181010_1346_run10bb5fl5pos_G647.tiff
F://SIPFlowData//run10//green/20181010_1346_run10bb5fl5pos_G648.tiff
F://SIPFlowData//run10//green/20181010_1346_run10bb5fl5pos_G649.tiff
F://SIPFlowData//run10//green/20181010_1346_run10bb5fl5pos_G650.tiff
F://SIPFlowData//run10//green/20181010_1346_run10bb5fl5pos_G651.tiff
F://SIPFlowData//run10//green/20181010_1346_run10bb5fl5pos_G652.tiff
F://SIPFlowData//run10//green/20181010_1346_run10bb5fl5pos_G653.tiff
F://SIPFlowData//run10//green/20181010_1346_run10bb5fl5pos_G654.tiff
F://SIPFlowData//run10//green/20181010_1346_run10bb5fl5pos_G655.tiff
F://SIPFlowData//run10//green/20181010_1346_run10bb5fl5pos_G656.tiff
F://SIPFlowData//run10//green/20181010_1346_run10bb5fl5pos_G657.tiff
F://SIPFlowData//run10//green/20181010_1346_run10bb5fl5pos_G658.tiff
F://SIPFlowData//run10//green/20181010_1346_run10bb5fl5pos_G659.tiff
F://SIPFlowData//run10//green/20181010_1346_run10bb5fl5pos_G660.tiff
F://SIPFlowData//run10//green/20181010_1346_run10bb5fl5pos_G661.tiff
F://SIPFlowData//run10//green/20181010_1346_run10bb5fl5pos_G662.tiff
F://SIPFlowData//run10//green/20181010_1346_run10bb5fl5pos_G663.tiff
F://SIPFlowData//run10//green/20181010_1346_run10bb5fl5pos_G664.tiff
F://SIPFlowData//run10//green/20181010_1346_run10bb5fl5pos_G665.tiff
F://SIPFlowData//run10//green/20181010_1346_run10bb5fl5pos_G666.tiff
F://SIPFlowData//run10//green/20181010_1346_run10bb5fl5pos_G667.tiff
F://SIPFlowData//run10//green/20181010_1346_run10bb5fl5pos_G668.tiff
F://SIPFlowData//run10//green/20181010_1346_run10bb5fl5pos_G669.tiff
F://SIPFlowData//run10//green/20181010_1346_run10bb5fl5pos_G670.tiff
F://SIPFlowData//run10//green/20181010_1346_run10bb5fl5pos_G671.tiff
F://SIPFlowData//run10//green/20181010_1346_run10bb5fl5pos_G672.tiff
F://SIPFlowData//run10//green/20181010_1346_run10bb5fl5pos_G673.tiff
F://SIPFlowData//run10//green/20181010_1346_run10bb5fl5pos_G674.tiff
F://SIPFlowData//run10//green/20181010_1346_run10bb5fl5pos_G675.tiff
F://SIPFlowData//run10//green/20181010_1346_run10bb5fl5pos_G676.tiff
F://SIPFlowData//run10//green/20181010_1346_run10bb5fl5pos_G677.tiff
F://SIPFlowData//run10//green/20181010_1346_run10bb5fl5pos_G678.tiff
F://SIPFlowData//run10//green/20181010_1346_run10bb5fl5pos_G679.tiff
F://SIPFlowData//run10//green/20181010_1346_run10bb5fl5pos_G680.tiff
F://SIPFlowData//run10//green/20181010_1346_run10bb5fl5pos_G681.tiff
F://SIPFlowData//run10//green/20181010_1346_run10bb5fl5pos_G682.tiff
F://SIPFlowData//run10//green/20181010_1346_run10bb5fl5pos_G683.tiff
F://SIPFlowData//run10//green/20181010_1346_run10bb5fl5pos_G684.tiff
F://SIPFlowData//run10//green/20181010_1346_run10bb5fl5pos_G685.tiff
F://SIPFlowData//run10//green/20181010_1346_run10bb5fl5pos_G686.tiff
F://SIPFlowData//run10//green/20181010_1346_run10bb5fl5pos_G687.tiff
F://SIPFlowData//run10//green/20181010_1346_run10bb5fl5pos_G688.tiff
F://SIPFlowData//run10//green/20181010_1346_run10bb5fl5pos_G689.tiff
F://SIPFlowData//run10//green/20181010_1346_run10bb5fl5pos_G690.tiff
F://SIPFlowData//run10//green/20181010_1346_run10bb5fl5pos_G691.tiff
F://SIPFlowData//run10//green/20181010_1346_run10bb5fl5pos_G692.tiff
F://SIPFlowData//run10//green/20181010_1346_run10bb5fl5pos_G693.tiff
F://SIPFlowData//run10//green/20181010_1346_run10bb5fl5pos_G694.tiff
F://SIPFlowData//run10//green/20181010_1346_run10bb5fl5pos_G695.tiff
F://SIPFlowData//run10//green/20181010_1346_run10bb5fl5pos_G696.tiff
F://SIPFlowData//run10//green/20181010_1346_run10bb5fl5pos_G697.tiff
F://SIPFlowData//run10//green/20181010_1346_run10bb5fl5pos_G698.tiff
F://SIPFlowData//run10//green/20181010_1346_run10bb5fl5pos_G699.tiff
F://SIPFlowData//run10//green/20181010_1346_run10bb5fl5pos_G700.tiff
F://SIPFlowData//run10//green/20181010_1346_run10bb5fl5pos_G701.tiff
F://SIPFlowData//run10//green/20181010_1346_run10bb5fl5pos_G702.tiff
F://SIPFlowData//run10//green/20181010_1346_run10bb5fl5pos_G703.tiff
F://SIPFlowData//run10//green/20181010_1346_run10bb5fl5pos_G704.tiff
F://SIPFlowData//run10//green/20181010_1346_run10bb5fl5pos_G705.tiff
F://SIPFlowData//run10//green/20181010_1346_run10bb5fl5pos_G706.tiff
F://SIPFlowData//run10//green/20181010_1346_run10bb5fl5pos_G707.tiff
F://SIPFlowData//run10//green/20181010_1346_run10bb5fl5pos_G708.tiff
F://SIPFlowData//run10//green/20181010_1346_run10bb5fl5pos_G709.tiff
F://SIPFlowData//run10//green/20181010_1346_run10bb5fl5pos_G710.tiff
F://SIPFlowData//run10//green/20181010_1346_run10bb5fl5pos_G711.tiff
F://SIPFlowData//run10//green/20181010_1346_run10bb5fl5pos_G712.tiff
F://SIPFlowData//run10//green/20181010_1346_run10bb5fl5pos_G713.tiff
F://SIPFlowData//run10//green/20181010_1346_run10bb5fl5pos_G714.tiff
F://SIPFlowData//run10//green/20181010_1346_run10bb5fl5pos_G715.tiff
F://SIPFlowData//run10//green/20181010_1346_run10bb5fl5pos_G716.tiff
F://SIPFlowData//run10//green/20181010_1346_run10bb5fl5pos_G717.tiff
F://SIPFlowData//run10//green/20181010_1346_run10bb5fl5pos_G718.tiff
F://SIPFlowData//run10//green/20181010_1346_run10bb5fl5pos_G719.tiff
F://SIPFlowData//run10//green/20181010_1346_run10bb5fl5pos_G720.tiff
F://SIPFlowData//run10//green/20181010_1346_run10bb5fl5pos_G721.tiff
F://SIPFlowData//run10//green/20181010_1346_run10bb5fl5pos_G722.tiff
F://SIPFlowData//run10//green/20181010_1346_run10bb5fl5pos_G723.tiff
F://SIPFlowData//run10//green/20181010_1346_run10bb5fl5pos_G724.tiff
F://SIPFlowData//run10//green/20181010_1346_run10bb5fl5pos_G725.tiff
F://SIPFlowData//run10//green/20181010_1346_run10bb5fl5pos_G726.tiff
F://SIPFlowData//run10//green/20181010_1346_run10bb5fl5pos_G727.tiff
F://SIPFlowData//run10//green/20181010_1346_run10bb5fl5pos_G728.tiff
F://SIPFlowData//run10//green/20181010_1346_run10bb5fl5pos_G729.tiff
F://SIPFlowData//run10//green/20181010_1346_run10bb5fl5pos_G730.tiff
F://SIPFlowData//run10//green/20181010_1346_run10bb5fl5pos_G731.tiff
F://SIPFlowData//run10//green/20181010_1346_run10bb5fl5pos_G732.tiff
F://SIPFlowData//run10//green/20181010_1346_run10bb5fl5pos_G733.tiff
F://SIPFlowData//run10//green/20181010_1346_run10bb5fl5pos_G734.tiff
F://SIPFlowData//run10//green/20181010_1346_run10bb5fl5pos_G735.tiff
F://SIPFlowData//run10//green/20181010_1346_run10bb5fl5pos_G736.tiff
F://SIPFlowData//run10//green/20181010_1346_run10bb5fl5pos_G737.tiff
F://SIPFlowData//run10//green/20181010_1346_run10bb5fl5pos_G738.tiff
F://SIPFlowData//run10//green/20181010_1346_run10bb5fl5pos_G739.tiff
F://SIPFlowData//run10//green/20181010_1346_run10bb5fl5pos_G740.tiff
F://SIPFlowData//run10//green/20181010_1346_run10bb5fl5pos_G741.tiff
F://SIPFlowData//run10//green/20181010_1346_run10bb5fl5pos_G742.tiff
F://SIPFlowData//run10//green/20181010_1346_run10bb5fl5pos_G743.tiff
F://SIPFlowData//run10//green/20181010_1346_run10bb5fl5pos_G744.tiff
F://SIPFlowData//run10//green/20181010_1346_run10bb5fl5pos_G745.tiff
F://SIPFlowData//run10//green/20181010_1346_run10bb5fl5pos_G746.tiff
F://SIPFlowData//run10//green/20181010_1346_run10bb5fl5pos_G747.tiff
F://SIPFlowData//run10//green/20181010_1346_run10bb5fl5pos_G748.tiff
F://SIPFlowData//run10//green/20181010_1346_run10bb5fl5pos_G749.tiff
F://SIPFlowData//run10//green/20181010_1346_run10bb5fl5pos_G750.tiff
F://SIPFlowData//run10//green/20181010_1346_run10bb5fl5pos_G751.tiff
F://SIPFlowData//run10//green/20181010_1346_run10bb5fl5pos_G752.tiff
F://SIPFlowData//run10//green/20181010_1346_run10bb5fl5pos_G753.tiff
F://SIPFlowData//run10//green/20181010_1346_run10bb5fl5pos_G754.tiff
F://SIPFlowData//run10//green/20181010_1346_run10bb5fl5pos_G755.tiff
F://SIPFlowData//run10//green/20181010_1346_run10bb5fl5pos_G756.tiff
F://SIPFlowData//run10//green/20181010_1346_run10bb5fl5pos_G757.tiff
F://SIPFlowData//run10//green/20181010_1346_run10bb5fl5pos_G758.tiff
F://SIPFlowData//run10//green/20181010_1346_run10bb5fl5pos_G759.tiff
F://SIPFlowData//run10//green/20181010_1346_run10bb5fl5pos_G760.tiff
F://SIPFlowData//run10//green/20181010_1346_run10bb5fl5pos_G761.tiff
F://SIPFlowData//run10//green/20181010_1346_run10bb5fl5pos_G762.tiff
F://SIPFlowData//run10//green/20181010_1346_run10bb5fl5pos_G763.tiff
F://SIPFlowData//run10//green/20181010_1346_run10bb5fl5pos_G764.tiff
F://SIPFlowData//run10//green/20181010_1346_run10bb5fl5pos_G765.tiff
F://SIPFlowData//run10//green/20181010_1346_run10bb5fl5pos_G766.tiff
F://SIPFlowData//run10//green/20181010_1346_run10bb5fl5pos_G767.tiff
F://SIPFlowData//run10//green/20181010_1346_run10bb5fl5pos_G768.tiff
F://SIPFlowData//run10//green/20181010_1346_run10bb5fl5pos_G769.tiff
F://SIPFlowData//run10//green/20181010_1346_run10bb5fl5pos_G770.tiff
F://SIPFlowData//run10//green/20181010_1346_run10bb5fl5pos_G771.tiff
F://SIPFlowData//run10//green/20181010_1346_run10bb5fl5pos_G772.tiff
F://SIPFlowData//run10//green/20181010_1346_run10bb5fl5pos_G773.tiff
F://SIPFlowData//run10//green/20181010_1346_run10bb5fl5pos_G774.tiff
F://SIPFlowData//run10//green/20181010_1346_run10bb5fl5pos_G775.tiff
F://SIPFlowData//run10//green/20181010_1346_run10bb5fl5pos_G776.tiff
F://SIPFlowData//run10//green/20181010_1346_run10bb5fl5pos_G777.tiff
F://SIPFlowData//run10//green/20181010_1346_run10bb5fl5pos_G778.tiff
F://SIPFlowData//run10//green/20181010_1346_run10bb5fl5pos_G779.tiff
F://SIPFlowData//run10//green/20181010_1346_run10bb5fl5pos_G780.tiff
F://SIPFlowData//run10//green/20181010_1346_run10bb5fl5pos_G781.tiff
F://SIPFlowData//run10//green/20181010_1346_run10bb5fl5pos_G782.tiff
F://SIPFlowData//run10//green/20181010_1346_run10bb5fl5pos_G783.tiff
F://SIPFlowData//run10//green/20181010_1346_run10bb5fl5pos_G784.tiff
F://SIPFlowData//run10//green/20181010_1346_run10bb5fl5pos_G785.tiff
F://SIPFlowData//run10//green/20181010_1346_run10bb5fl5pos_G786.tiff
F://SIPFlowData//run10//green/20181010_1346_run10bb5fl5pos_G787.tiff
F://SIPFlowData//run10//green/20181010_1346_run10bb5fl5pos_G788.tiff
F://SIPFlowData//run10//green/20181010_1346_run10bb5fl5pos_G789.tiff
F://SIPFlowData//run10//green/20181010_1346_run10bb5fl5pos_G790.tiff
F://SIPFlowData//run10//green/20181010_1346_run10bb5fl5pos_G791.tiff
F://SIPFlowData//run10//green/20181010_1346_run10bb5fl5pos_G792.tiff
F://SIPFlowData//run10//green/20181010_1346_run10bb5fl5pos_G793.tiff
F://SIPFlowData//run10//green/20181010_1346_run10bb5fl5pos_G794.tiff
F://SIPFlowData//run10//green/20181010_1346_run10bb5fl5pos_G795.tiff
F://SIPFlowData//run10//green/20181010_1346_run10bb5fl5pos_G796.tiff
F://SIPFlowData//run10//green/20181010_1346_run10bb5fl5pos_G797.tiff
F://SIPFlowData//run10//green/20181010_1346_run10bb5fl5pos_G798.tiff
F://SIPFlowData//run10//green/20181010_1346_run10bb5fl5pos_G799.tiff
F://SIPFlowData//run10//green/20181010_1346_run10bb5fl5pos_G800.tiff
F://SIPFlowData//run10//green/20181010_1346_run10bb5fl5pos_G801.tiff
F://SIPFlowData//run10//green/20181010_1346_run10bb5fl5pos_G802.tiff
F://SIPFlowData//run10//green/20181010_1346_run10bb5fl5pos_G803.tiff
F://SIPFlowData//run10//green/20181010_1346_run10bb5fl5pos_G804.tiff
F://SIPFlowData//run10//green/20181010_1346_run10bb5fl5pos_G805.tiff
F://SIPFlowData//run10//green/20181010_1346_run10bb5fl5pos_G806.tiff
F://SIPFlowData//run10//green/20181010_1346_run10bb5fl5pos_G807.tiff
F://SIPFlowData//run10//green/20181010_1346_run10bb5fl5pos_G808.tiff
F://SIPFlowData//run10//green/20181010_1346_run10bb5fl5pos_G809.tiff
F://SIPFlowData//run10//green/20181010_1346_run10bb5fl5pos_G810.tiff
F://SIPFlowData//run10//green/20181010_1346_run10bb5fl5pos_G811.tiff
F://SIPFlowData//run10//green/20181010_1346_run10bb5fl5pos_G812.tiff
F://SIPFlowData//run10//green/20181010_1346_run10bb5fl5pos_G813.tiff
F://SIPFlowData//run10//green/20181010_1346_run10bb5fl5pos_G814.tiff
F://SIPFlowData//run10//green/20181010_1346_run10bb5fl5pos_G815.tiff
F://SIPFlowData//run10//green/20181010_1346_run10bb5fl5pos_G816.tiff
F://SIPFlowData//run10//green/20181010_1346_run10bb5fl5pos_G817.tiff
F://SIPFlowData//run10//green/20181010_1346_run10bb5fl5pos_G818.tiff
F://SIPFlowData//run10//green/20181010_1346_run10bb5fl5pos_G819.tiff
F://SIPFlowData//run10//green/20181010_1346_run10bb5fl5pos_G820.tiff
F://SIPFlowData//run10//green/20181010_1346_run10bb5fl5pos_G821.tiff
F://SIPFlowData//run10//green/20181010_1346_run10bb5fl5pos_G822.tiff
F://SIPFlowData//run10//green/20181010_1346_run10bb5fl5pos_G823.tiff
F://SIPFlowData//run10//green/20181010_1346_run10bb5fl5pos_G824.tiff
F://SIPFlowData//run10//green/20181010_1346_run10bb5fl5pos_G825.tiff
F://SIPFlowData//run10//green/20181010_1346_run10bb5fl5pos_G826.tiff
F://SIPFlowData//run10//green/20181010_1346_run10bb5fl5pos_G827.tiff
F://SIPFlowData//run10//green/20181010_1346_run10bb5fl5pos_G828.tiff
F://SIPFlowData//run10//green/20181010_1346_run10bb5fl5pos_G829.tiff
F://SIPFlowData//run10//green/20181010_1346_run10bb5fl5pos_G830.tiff
F://SIPFlowData//run10//green/20181010_1346_run10bb5fl5pos_G831.tiff
F://SIPFlowData//run10//green/20181010_1346_run10bb5fl5pos_G832.tiff
F://SIPFlowData//run10//green/20181010_1346_run10bb5fl5pos_G833.tiff
F://SIPFlowData//run10//green/20181010_1346_run10bb5fl5pos_G834.tiff
F://SIPFlowData//run10//green/20181010_1346_run10bb5fl5pos_G835.tiff
F://SIPFlowData//run10//green/20181010_1346_run10bb5fl5pos_G836.tiff
F://SIPFlowData//run10//green/20181010_1346_run10bb5fl5pos_G837.tiff
F://SIPFlowData//run10//green/20181010_1346_run10bb5fl5pos_G838.tiff
F://SIPFlowData//run10//green/20181010_1346_run10bb5fl5pos_G839.tiff
F://SIPFlowData//run10//green/20181010_1346_run10bb5fl5pos_G840.tiff
F://SIPFlowData//run10//green/20181010_1346_run10bb5fl5pos_G841.tiff
F://SIPFlowData//run10//green/20181010_1346_run10bb5fl5pos_G842.tiff
F://SIPFlowData//run10//green/20181010_1346_run10bb5fl5pos_G843.tiff
F://SIPFlowData//run10//green/20181010_1346_run10bb5fl5pos_G844.tiff
F://SIPFlowData//run10//green/20181010_1346_run10bb5fl5pos_G845.tiff
F://SIPFlowData//run10//green/20181010_1346_run10bb5fl5pos_G846.tiff
F://SIPFlowData//run10//green/20181010_1346_run10bb5fl5pos_G847.tiff
F://SIPFlowData//run10//green/20181010_1346_run10bb5fl5pos_G848.tiff
F://SIPFlowData//run10//green/20181010_1346_run10bb5fl5pos_G849.tiff
F://SIPFlowData//run10//green/20181010_1346_run10bb5fl5pos_G850.tiff
F://SIPFlowData//run10//green/20181010_1346_run10bb5fl5pos_G851.tiff
F://SIPFlowData//run10//green/20181010_1346_run10bb5fl5pos_G852.tiff
F://SIPFlowData//run10//green/20181010_1346_run10bb5fl5pos_G853.tiff
F://SIPFlowData//run10//green/20181010_1346_run10bb5fl5pos_G854.tiff
F://SIPFlowData//run10//green/20181010_1346_run10bb5fl5pos_G855.tiff
F://SIPFlowData//run10//green/20181010_1346_run10bb5fl5pos_G856.tiff
F://SIPFlowData//run10//green/20181010_1346_run10bb5fl5pos_G857.tiff
F://SIPFlowData//run10//green/20181010_1346_run10bb5fl5pos_G858.tiff
F://SIPFlowData//run10//green/20181010_1346_run10bb5fl5pos_G859.tiff
F://SIPFlowData//run10//green/20181010_1346_run10bb5fl5pos_G860.tiff
F://SIPFlowData//run10//green/20181010_1346_run10bb5fl5pos_G861.tiff
F://SIPFlowData//run10//green/20181010_1346_run10bb5fl5pos_G862.tiff
F://SIPFlowData//run10//green/20181010_1346_run10bb5fl5pos_G863.tiff
F://SIPFlowData//run10//green/20181010_1346_run10bb5fl5pos_G864.tiff
F://SIPFlowData//run10//green/20181010_1346_run10bb5fl5pos_G865.tiff
F://SIPFlowData//run10//green/20181010_1346_run10bb5fl5pos_G866.tiff
F://SIPFlowData//run10//green/20181010_1346_run10bb5fl5pos_G867.tiff
F://SIPFlowData//run10//green/20181010_1346_run10bb5fl5pos_G868.tiff
F://SIPFlowData//run10//green/20181010_1346_run10bb5fl5pos_G869.tiff
F://SIPFlowData//run10//green/20181010_1346_run10bb5fl5pos_G870.tiff
F://SIPFlowData//run10//green/20181010_1346_run10bb5fl5pos_G871.tiff
F://SIPFlowData//run10//green/20181010_1346_run10bb5fl5pos_G872.tiff
F://SIPFlowData//run10//green/20181010_1346_run10bb5fl5pos_G873.tiff
F://SIPFlowData//run10//green/20181010_1346_run10bb5fl5pos_G874.tiff
F://SIPFlowData//run10//green/20181010_1346_run10bb5fl5pos_G875.tiff
F://SIPFlowData//run10//green/20181010_1346_run10bb5fl5pos_G876.tiff
F://SIPFlowData//run10//green/20181010_1346_run10bb5fl5pos_G877.tiff
F://SIPFlowData//run10//green/20181010_1346_run10bb5fl5pos_G878.tiff
F://SIPFlowData//run10//green/20181010_1346_run10bb5fl5pos_G879.tiff
F://SIPFlowData//run10//green/20181010_1346_run10bb5fl5pos_G880.tiff
F://SIPFlowData//run10//green/20181010_1346_run10bb5fl5pos_G881.tiff
F://SIPFlowData//run10//green/20181010_1346_run10bb5fl5pos_G882.tiff
F://SIPFlowData//run10//green/20181010_1346_run10bb5fl5pos_G883.tiff
F://SIPFlowData//run10//green/20181010_1346_run10bb5fl5pos_G884.tiff
F://SIPFlowData//run10//green/20181010_1346_run10bb5fl5pos_G885.tiff
F://SIPFlowData//run10//green/20181010_1346_run10bb5fl5pos_G886.tiff
F://SIPFlowData//run10//green/20181010_1346_run10bb5fl5pos_G887.tiff
F://SIPFlowData//run10//green/20181010_1346_run10bb5fl5pos_G888.tiff
F://SIPFlowData//run10//green/20181010_1346_run10bb5fl5pos_G889.tiff
F://SIPFlowData//run10//green/20181010_1346_run10bb5fl5pos_G890.tiff
F://SIPFlowData//run10//green/20181010_1346_run10bb5fl5pos_G891.tiff
F://SIPFlowData//run10//green/20181010_1346_run10bb5fl5pos_G892.tiff
F://SIPFlowData//run10//green/20181010_1346_run10bb5fl5pos_G893.tiff
F://SIPFlowData//run10//green/20181010_1346_run10bb5fl5pos_G894.tiff
F://SIPFlowData//run10//green/20181010_1346_run10bb5fl5pos_G895.tiff
F://SIPFlowData//run10//green/20181010_1346_run10bb5fl5pos_G896.tiff
F://SIPFlowData//run10//green/20181010_1346_run10bb5fl5pos_G897.tiff
F://SIPFlowData//run10//green/20181010_1346_run10bb5fl5pos_G898.tiff
F://SIPFlowData//run10//green/20181010_1346_run10bb5fl5pos_G899.tiff
F://SIPFlowData//run10//green/20181010_1346_run10bb5fl5pos_G900.tiff
F://SIPFlowData//run10//green/20181010_1346_run10bb5fl5pos_G901.tiff
F://SIPFlowData//run10//green/20181010_1346_run10bb5fl5pos_G902.tiff
F://SIPFlowData//run10//green/20181010_1346_run10bb5fl5pos_G903.tiff
F://SIPFlowData//run10//green/20181010_1346_run10bb5fl5pos_G904.tiff
F://SIPFlowData//run10//green/20181010_1346_run10bb5fl5pos_G905.tiff
F://SIPFlowData//run10//green/20181010_1346_run10bb5fl5pos_G906.tiff
F://SIPFlowData//run10//green/20181010_1346_run10bb5fl5pos_G907.tiff
F://SIPFlowData//run10//green/20181010_1346_run10bb5fl5pos_G908.tiff
F://SIPFlowData//run10//green/20181010_1346_run10bb5fl5pos_G909.tiff
F://SIPFlowData//run10//green/20181010_1346_run10bb5fl5pos_G910.tiff
F://SIPFlowData//run10//green/20181010_1346_run10bb5fl5pos_G911.tiff
F://SIPFlowData//run10//green/20181010_1346_run10bb5fl5pos_G912.tiff
F://SIPFlowData//run10//green/20181010_1346_run10bb5fl5pos_G913.tiff
F://SIPFlowData//run10//green/20181010_1346_run10bb5fl5pos_G914.tiff
F://SIPFlowData//run10//green/20181010_1346_run10bb5fl5pos_G915.tiff
F://SIPFlowData//run10//green/20181010_1346_run10bb5fl5pos_G916.tiff
F://SIPFlowData//run10//green/20181010_1346_run10bb5fl5pos_G917.tiff
F://SIPFlowData//run10//green/20181010_1346_run10bb5fl5pos_G918.tiff
F://SIPFlowData//run10//green/20181010_1346_run10bb5fl5pos_G919.tiff
F://SIPFlowData//run10//green/20181010_1346_run10bb5fl5pos_G920.tiff
F://SIPFlowData//run10//green/20181010_1346_run10bb5fl5pos_G921.tiff
F://SIPFlowData//run10//green/20181010_1346_run10bb5fl5pos_G922.tiff
F://SIPFlowData//run10//green/20181010_1346_run10bb5fl5pos_G923.tiff
F://SIPFlowData//run10//green/20181010_1346_run10bb5fl5pos_G924.tiff
F://SIPFlowData//run10//green/20181010_1346_run10bb5fl5pos_G925.tiff
F://SIPFlowData//run10//green/20181010_1346_run10bb5fl5pos_G926.tiff
F://SIPFlowData//run10//green/20181010_1346_run10bb5fl5pos_G927.tiff
F://SIPFlowData//run10//green/20181010_1347_run10bb5fl5pos_G928.tiff
F://SIPFlowData//run10//green/20181010_1347_run10bb5fl5pos_G929.tiff
F://SIPFlowData//run10//green/20181010_1347_run10bb5fl5pos_G930.tiff
F://SIPFlowData//run10//green/20181010_1347_run10bb5fl5pos_G931.tiff
F://SIPFlowData//run10//green/20181010_1347_run10bb5fl5pos_G932.tiff
F://SIPFlowData//run10//green/20181010_1347_run10bb5fl5pos_G933.tiff
F://SIPFlowData//run10//green/20181010_1347_run10bb5fl5pos_G934.tiff
F://SIPFlowData//run10//green/20181010_1347_run10bb5fl5pos_G935.tiff
F://SIPFlowData//run10//green/20181010_1347_run10bb5fl5pos_G936.tiff
F://SIPFlowData//run10//green/20181010_1347_run10bb5fl5pos_G937.tiff
F://SIPFlowData//run10//green/20181010_1347_run10bb5fl5pos_G938.tiff
F://SIPFlowData//run10//green/20181010_1347_run10bb5fl5pos_G939.tiff
F://SIPFlowData//run10//green/20181010_1347_run10bb5fl5pos_G940.tiff
F://SIPFlowData//run10//green/20181010_1347_run10bb5fl5pos_G941.tiff
F://SIPFlowData//run10//green/20181010_1347_run10bb5fl5pos_G942.tiff
F://SIPFlowData//run10//green/20181010_1347_run10bb5fl5pos_G943.tiff
F://SIPFlowData//run10//green/20181010_1347_run10bb5fl5pos_G944.tiff
F://SIPFlowData//run10//green/20181010_1347_run10bb5fl5pos_G945.tiff
F://SIPFlowData//run10//green/20181010_1347_run10bb5fl5pos_G946.tiff
F://SIPFlowData//run10//green/20181010_1347_run10bb5fl5pos_G947.tiff
F://SIPFlowData//run10//green/20181010_1347_run10bb5fl5pos_G948.tiff
F://SIPFlowData//run10//green/20181010_1347_run10bb5fl5pos_G949.tiff
F://SIPFlowData//run10//green/20181010_1347_run10bb5fl5pos_G950.tiff
F://SIPFlowData//run10//green/20181010_1347_run10bb5fl5pos_G951.tiff
F://SIPFlowData//run10//green/20181010_1347_run10bb5fl5pos_G952.tiff
F://SIPFlowData//run10//green/20181010_1347_run10bb5fl5pos_G953.tiff
F://SIPFlowData//run10//green/20181010_1347_run10bb5fl5pos_G954.tiff
F://SIPFlowData//run10//green/20181010_1347_run10bb5fl5pos_G955.tiff
F://SIPFlowData//run10//green/20181010_1347_run10bb5fl5pos_G956.tiff
F://SIPFlowData//run10//green/20181010_1347_run10bb5fl5pos_G957.tiff
F://SIPFlowData//run10//green/20181010_1347_run10bb5fl5pos_G958.tiff
F://SIPFlowData//run10//green/20181010_1347_run10bb5fl5pos_G959.tiff
F://SIPFlowData//run10//green/20181010_1347_run10bb5fl5pos_G960.tiff
F://SIPFlowData//run10//green/20181010_1347_run10bb5fl5pos_G961.tiff
F://SIPFlowData//run10//green/20181010_1347_run10bb5fl5pos_G962.tiff
F://SIPFlowData//run10//green/20181010_1347_run10bb5fl5pos_G963.tiff
F://SIPFlowData//run10//green/20181010_1347_run10bb5fl5pos_G964.tiff
F://SIPFlowData//run10//green/20181010_1347_run10bb5fl5pos_G965.tiff
F://SIPFlowData//run10//green/20181010_1347_run10bb5fl5pos_G966.tiff
F://SIPFlowData//run10//green/20181010_1347_run10bb5fl5pos_G967.tiff
F://SIPFlowData//run10//green/20181010_1347_run10bb5fl5pos_G968.tiff
F://SIPFlowData//run10//green/20181010_1347_run10bb5fl5pos_G969.tiff
F://SIPFlowData//run10//green/20181010_1347_run10bb5fl5pos_G970.tiff
F://SIPFlowData//run10//green/20181010_1347_run10bb5fl5pos_G971.tiff
F://SIPFlowData//run10//green/20181010_1347_run10bb5fl5pos_G972.tiff
F://SIPFlowData//run10//green/20181010_1347_run10bb5fl5pos_G973.tiff
F://SIPFlowData//run10//green/20181010_1347_run10bb5fl5pos_G974.tiff
F://SIPFlowData//run10//green/20181010_1347_run10bb5fl5pos_G975.tiff
F://SIPFlowData//run10//green/20181010_1347_run10bb5fl5pos_G976.tiff
F://SIPFlowData//run10//green/20181010_1347_run10bb5fl5pos_G977.tiff
F://SIPFlowData//run10//green/20181010_1347_run10bb5fl5pos_G978.tiff
F://SIPFlowData//run10//green/20181010_1347_run10bb5fl5pos_G979.tiff
F://SIPFlowData//run10//green/20181010_1347_run10bb5fl5pos_G980.tiff
F://SIPFlowData//run10//green/20181010_1347_run10bb5fl5pos_G981.tiff
F://SIPFlowData//run10//green/20181010_1347_run10bb5fl5pos_G982.tiff
F://SIPFlowData//run10//green/20181010_1347_run10bb5fl5pos_G983.tiff
F://SIPFlowData//run10//green/20181010_1347_run10bb5fl5pos_G984.tiff
F://SIPFlowData//run10//green/20181010_1347_run10bb5fl5pos_G985.tiff
F://SIPFlowData//run10//green/20181010_1347_run10bb5fl5pos_G986.tiff
F://SIPFlowData//run10//green/20181010_1347_run10bb5fl5pos_G987.tiff
F://SIPFlowData//run10//green/20181010_1347_run10bb5fl5pos_G988.tiff
F://SIPFlowData//run10//green/20181010_1347_run10bb5fl5pos_G989.tiff
F://SIPFlowData//run10//green/20181010_1347_run10bb5fl5pos_G990.tiff
F://SIPFlowData//run10//green/20181010_1347_run10bb5fl5pos_G991.tiff
F://SIPFlowData//run10//green/20181010_1347_run10bb5fl5pos_G992.tiff
F://SIPFlowData//run10//green/20181010_1347_run10bb5fl5pos_G993.tiff
F://SIPFlowData//run10//green/20181010_1347_run10bb5fl5pos_G994.tiff
F://SIPFlowData//run10//green/20181010_1347_run10bb5fl5pos_G995.tiff
F://SIPFlowData//run10//green/20181010_1347_run10bb5fl5pos_G996.tiff
F://SIPFlowData//run10//green/20181010_1347_run10bb5fl5pos_G997.tiff
F://SIPFlowData//run10//green/20181010_1347_run10bb5fl5pos_G998.tiff
F://SIPFlowData//run10//green/20181010_1347_run10bb5fl5pos_G999.tiff
F://SIPFlowData//run10//green/20181010_1347_run10bb5fl5pos_G1000.tiff
F://SIPFlowData//run10//green/20181010_1347_run10bb5fl5pos_G1001.tiff
F://SIPFlowData//run10//green/20181010_1347_run10bb5fl5pos_G1002.tiff
F://SIPFlowData//run10//green/20181010_1347_run10bb5fl5pos_G1003.tiff
F://SIPFlowData//run10//green/20181010_1347_run10bb5fl5pos_G1004.tiff
F://SIPFlowData//run10//green/20181010_1347_run10bb5fl5pos_G1005.tiff
F://SIPFlowData//run10//green/20181010_1347_run10bb5fl5pos_G1006.tiff
F://SIPFlowData//run10//green/20181010_1347_run10bb5fl5pos_G1007.tiff
F://SIPFlowData//run10//green/20181010_1347_run10bb5fl5pos_G1008.tiff
F://SIPFlowData//run10//green/20181010_1347_run10bb5fl5pos_G1009.tiff
F://SIPFlowData//run10//green/20181010_1347_run10bb5fl5pos_G1010.tiff
F://SIPFlowData//run10//green/20181010_1347_run10bb5fl5pos_G1011.tiff
F://SIPFlowData//run10//green/20181010_1347_run10bb5fl5pos_G1012.tiff
F://SIPFlowData//run10//green/20181010_1347_run10bb5fl5pos_G1013.tiff
F://SIPFlowData//run10//green/20181010_1347_run10bb5fl5pos_G1014.tiff
F://SIPFlowData//run10//green/20181010_1347_run10bb5fl5pos_G1015.tiff
F://SIPFlowData//run10//green/20181010_1347_run10bb5fl5pos_G1016.tiff
F://SIPFlowData//run10//green/20181010_1347_run10bb5fl5pos_G1017.tiff
F://SIPFlowData//run10//green/20181010_1347_run10bb5fl5pos_G1018.tiff
F://SIPFlowData//run10//green/20181010_1347_run10bb5fl5pos_G1019.tiff
F://SIPFlowData//run10//green/20181010_1347_run10bb5fl5pos_G1020.tiff
F://SIPFlowData//run10//green/20181010_1347_run10bb5fl5pos_G1021.tiff
F://SIPFlowData//run10//green/20181010_1347_run10bb5fl5pos_G1022.tiff
F://SIPFlowData//run10//green/20181010_1347_run10bb5fl5pos_G1023.tiff
F://SIPFlowData//run10//green/20181010_1347_run10bb5fl5pos_G1024.tiff
F://SIPFlowData//run10//green/20181010_1347_run10bb5fl5pos_G1025.tiff
F://SIPFlowData//run10//green/20181010_1347_run10bb5fl5pos_G1026.tiff
F://SIPFlowData//run10//green/20181010_1347_run10bb5fl5pos_G1027.tiff
F://SIPFlowData//run10//green/20181010_1347_run10bb5fl5pos_G1028.tiff
F://SIPFlowData//run10//green/20181010_1347_run10bb5fl5pos_G1029.tiff
F://SIPFlowData//run10//green/20181010_1347_run10bb5fl5pos_G1030.tiff
F://SIPFlowData//run10//green/20181010_1347_run10bb5fl5pos_G1031.tiff
F://SIPFlowData//run10//green/20181010_1347_run10bb5fl5pos_G1032.tiff
F://SIPFlowData//run10//green/20181010_1347_run10bb5fl5pos_G1033.tiff
F://SIPFlowData//run10//green/20181010_1347_run10bb5fl5pos_G1034.tiff
F://SIPFlowData//run10//green/20181010_1347_run10bb5fl5pos_G1035.tiff
F://SIPFlowData//run10//green/20181010_1347_run10bb5fl5pos_G1036.tiff
F://SIPFlowData//run10//green/20181010_1347_run10bb5fl5pos_G1037.tiff
F://SIPFlowData//run10//green/20181010_1347_run10bb5fl5pos_G1038.tiff
F://SIPFlowData//run10//green/20181010_1347_run10bb5fl5pos_G1039.tiff
F://SIPFlowData//run10//green/20181010_1347_run10bb5fl5pos_G1040.tiff
F://SIPFlowData//run10//green/20181010_1347_run10bb5fl5pos_G1041.tiff
F://SIPFlowData//run10//green/20181010_1347_run10bb5fl5pos_G1042.tiff
F://SIPFlowData//run10//green/20181010_1347_run10bb5fl5pos_G1043.tiff
F://SIPFlowData//run10//green/20181010_1347_run10bb5fl5pos_G1044.tiff
F://SIPFlowData//run10//green/20181010_1347_run10bb5fl5pos_G1045.tiff
F://SIPFlowData//run10//green/20181010_1347_run10bb5fl5pos_G1046.tiff
F://SIPFlowData//run10//green/20181010_1347_run10bb5fl5pos_G1047.tiff
F://SIPFlowData//run10//green/20181010_1347_run10bb5fl5pos_G1048.tiff
F://SIPFlowData//run10//green/20181010_1347_run10bb5fl5pos_G1049.tiff
F://SIPFlowData//run10//green/20181010_1347_run10bb5fl5pos_G1050.tiff
F://SIPFlowData//run10//green/20181010_1347_run10bb5fl5pos_G1051.tiff
F://SIPFlowData//run10//green/20181010_1347_run10bb5fl5pos_G1052.tiff
F://SIPFlowData//run10//green/20181010_1347_run10bb5fl5pos_G1053.tiff
F://SIPFlowData//run10//green/20181010_1347_run10bb5fl5pos_G1054.tiff
F://SIPFlowData//run10//green/20181010_1347_run10bb5fl5pos_G1055.tiff
F://SIPFlowData//run10//green/20181010_1347_run10bb5fl5pos_G1056.tiff
F://SIPFlowData//run10//green/20181010_1347_run10bb5fl5pos_G1057.tiff
F://SIPFlowData//run10//green/20181010_1347_run10bb5fl5pos_G1058.tiff
F://SIPFlowData//run10//green/20181010_1347_run10bb5fl5pos_G1059.tiff
F://SIPFlowData//run10//green/20181010_1347_run10bb5fl5pos_G1060.tiff
F://SIPFlowData//run10//green/20181010_1347_run10bb5fl5pos_G1061.tiff
F://SIPFlowData//run10//green/20181010_1347_run10bb5fl5pos_G1062.tiff
F://SIPFlowData//run10//green/20181010_1347_run10bb5fl5pos_G1063.tiff
F://SIPFlowData//run10//green/20181010_1347_run10bb5fl5pos_G1064.tiff
F://SIPFlowData//run10//green/20181010_1347_run10bb5fl5pos_G1065.tiff
F://SIPFlowData//run10//green/20181010_1347_run10bb5fl5pos_G1066.tiff
F://SIPFlowData//run10//green/20181010_1347_run10bb5fl5pos_G1067.tiff
F://SIPFlowData//run10//green/20181010_1347_run10bb5fl5pos_G1068.tiff
F://SIPFlowData//run10//green/20181010_1347_run10bb5fl5pos_G1069.tiff
F://SIPFlowData//run10//green/20181010_1347_run10bb5fl5pos_G1070.tiff
F://SIPFlowData//run10//green/20181010_1347_run10bb5fl5pos_G1071.tiff
F://SIPFlowData//run10//green/20181010_1347_run10bb5fl5pos_G1072.tiff
F://SIPFlowData//run10//green/20181010_1347_run10bb5fl5pos_G1073.tiff
F://SIPFlowData//run10//green/20181010_1347_run10bb5fl5pos_G1074.tiff
F://SIPFlowData//run10//green/20181010_1347_run10bb5fl5pos_G1075.tiff
F://SIPFlowData//run10//green/20181010_1347_run10bb5fl5pos_G1076.tiff
F://SIPFlowData//run10//green/20181010_1347_run10bb5fl5pos_G1077.tiff
F://SIPFlowData//run10//green/20181010_1347_run10bb5fl5pos_G1078.tiff
F://SIPFlowData//run10//green/20181010_1347_run10bb5fl5pos_G1079.tiff
F://SIPFlowData//run10//green/20181010_1347_run10bb5fl5pos_G1080.tiff
F://SIPFlowData//run10//green/20181010_1347_run10bb5fl5pos_G1081.tiff
F://SIPFlowData//run10//green/20181010_1347_run10bb5fl5pos_G1082.tiff
F://SIPFlowData//run10//green/20181010_1347_run10bb5fl5pos_G1083.tiff
F://SIPFlowData//run10//green/20181010_1347_run10bb5fl5pos_G1084.tiff
F://SIPFlowData//run10//green/20181010_1347_run10bb5fl5pos_G1085.tiff
F://SIPFlowData//run10//green/20181010_1347_run10bb5fl5pos_G1086.tiff
F://SIPFlowData//run10//green/20181010_1347_run10bb5fl5pos_G1087.tiff
F://SIPFlowData//run10//green/20181010_1347_run10bb5fl5pos_G1088.tiff
F://SIPFlowData//run10//green/20181010_1347_run10bb5fl5pos_G1089.tiff
F://SIPFlowData//run10//green/20181010_1347_run10bb5fl5pos_G1090.tiff
F://SIPFlowData//run10//green/20181010_1347_run10bb5fl5pos_G1091.tiff
F://SIPFlowData//run10//green/20181010_1347_run10bb5fl5pos_G1092.tiff
F://SIPFlowData//run10//green/20181010_1347_run10bb5fl5pos_G1093.tiff
F://SIPFlowData//run10//green/20181010_1347_run10bb5fl5pos_G1094.tiff
F://SIPFlowData//run10//green/20181010_1347_run10bb5fl5pos_G1095.tiff
F://SIPFlowData//run10//green/20181010_1347_run10bb5fl5pos_G1096.tiff
F://SIPFlowData//run10//green/20181010_1347_run10bb5fl5pos_G1097.tiff
F://SIPFlowData//run10//green/20181010_1347_run10bb5fl5pos_G1098.tiff
F://SIPFlowData//run10//green/20181010_1347_run10bb5fl5pos_G1099.tiff
F://SIPFlowData//run10//green/20181010_1347_run10bb5fl5pos_G1100.tiff
F://SIPFlowData//run10//green/20181010_1347_run10bb5fl5pos_G1101.tiff
F://SIPFlowData//run10//green/20181010_1347_run10bb5fl5pos_G1102.tiff
F://SIPFlowData//run10//green/20181010_1347_run10bb5fl5pos_G1103.tiff
F://SIPFlowData//run10//green/20181010_1347_run10bb5fl5pos_G1104.tiff
F://SIPFlowData//run10//green/20181010_1347_run10bb5fl5pos_G1105.tiff
F://SIPFlowData//run10//green/20181010_1347_run10bb5fl5pos_G1106.tiff
F://SIPFlowData//run10//green/20181010_1347_run10bb5fl5pos_G1107.tiff
F://SIPFlowData//run10//green/20181010_1347_run10bb5fl5pos_G1108.tiff
F://SIPFlowData//run10//green/20181010_1347_run10bb5fl5pos_G1109.tiff
F://SIPFlowData//run10//green/20181010_1347_run10bb5fl5pos_G1110.tiff
F://SIPFlowData//run10//green/20181010_1347_run10bb5fl5pos_G1111.tiff
F://SIPFlowData//run10//green/20181010_1347_run10bb5fl5pos_G1112.tiff
F://SIPFlowData//run10//green/20181010_1347_run10bb5fl5pos_G1113.tiff
F://SIPFlowData//run10//green/20181010_1347_run10bb5fl5pos_G1114.tiff
F://SIPFlowData//run10//green/20181010_1347_run10bb5fl5pos_G1115.tiff
F://SIPFlowData//run10//green/20181010_1347_run10bb5fl5pos_G1116.tiff
F://SIPFlowData//run10//green/20181010_1347_run10bb5fl5pos_G1117.tiff
F://SIPFlowData//run10//green/20181010_1347_run10bb5fl5pos_G1118.tiff
F://SIPFlowData//run10//green/20181010_1347_run10bb5fl5pos_G1119.tiff
F://SIPFlowData//run10//green/20181010_1347_run10bb5fl5pos_G1120.tiff
F://SIPFlowData//run10//green/20181010_1347_run10bb5fl5pos_G1121.tiff
F://SIPFlowData//run10//green/20181010_1347_run10bb5fl5pos_G1122.tiff
F://SIPFlowData//run10//green/20181010_1347_run10bb5fl5pos_G1123.tiff
F://SIPFlowData//run10//green/20181010_1347_run10bb5fl5pos_G1124.tiff
F://SIPFlowData//run10//green/20181010_1347_run10bb5fl5pos_G1125.tiff
F://SIPFlowData//run10//green/20181010_1347_run10bb5fl5pos_G1126.tiff
F://SIPFlowData//run10//green/20181010_1347_run10bb5fl5pos_G1127.tiff
F://SIPFlowData//run10//green/20181010_1347_run10bb5fl5pos_G1128.tiff
F://SIPFlowData//run10//green/20181010_1347_run10bb5fl5pos_G1129.tiff
F://SIPFlowData//run10//green/20181010_1347_run10bb5fl5pos_G1130.tiff
F://SIPFlowData//run10//green/20181010_1347_run10bb5fl5pos_G1131.tiff
F://SIPFlowData//run10//green/20181010_1347_run10bb5fl5pos_G1132.tiff
F://SIPFlowData//run10//green/20181010_1347_run10bb5fl5pos_G1133.tiff
F://SIPFlowData//run10//green/20181010_1347_run10bb5fl5pos_G1134.tiff
F://SIPFlowData//run10//green/20181010_1347_run10bb5fl5pos_G1135.tiff
F://SIPFlowData//run10//green/20181010_1347_run10bb5fl5pos_G1136.tiff
F://SIPFlowData//run10//green/20181010_1347_run10bb5fl5pos_G1137.tiff
F://SIPFlowData//run10//green/20181010_1347_run10bb5fl5pos_G1138.tiff
F://SIPFlowData//run10//green/20181010_1347_run10bb5fl5pos_G1139.tiff
F://SIPFlowData//run10//green/20181010_1347_run10bb5fl5pos_G1140.tiff
F://SIPFlowData//run10//green/20181010_1347_run10bb5fl5pos_G1141.tiff
F://SIPFlowData//run10//green/20181010_1347_run10bb5fl5pos_G1142.tiff
F://SIPFlowData//run10//green/20181010_1347_run10bb5fl5pos_G1143.tiff
F://SIPFlowData//run10//green/20181010_1347_run10bb5fl5pos_G1144.tiff
F://SIPFlowData//run10//green/20181010_1347_run10bb5fl5pos_G1145.tiff
F://SIPFlowData//run10//green/20181010_1347_run10bb5fl5pos_G1146.tiff
F://SIPFlowData//run10//green/20181010_1347_run10bb5fl5pos_G1147.tiff
F://SIPFlowData//run10//green/20181010_1347_run10bb5fl5pos_G1148.tiff
F://SIPFlowData//run10//green/20181010_1347_run10bb5fl5pos_G1149.tiff
F://SIPFlowData//run10//green/20181010_1347_run10bb5fl5pos_G1150.tiff
F://SIPFlowData//run10//green/20181010_1347_run10bb5fl5pos_G1151.tiff
F://SIPFlowData//run10//green/20181010_1347_run10bb5fl5pos_G1152.tiff
F://SIPFlowData//run10//green/20181010_1347_run10bb5fl5pos_G1153.tiff
F://SIPFlowData//run10//green/20181010_1347_run10bb5fl5pos_G1154.tiff
F://SIPFlowData//run10//green/20181010_1347_run10bb5fl5pos_G1155.tiff
F://SIPFlowData//run10//green/20181010_1347_run10bb5fl5pos_G1156.tiff
F://SIPFlowData//run10//green/20181010_1347_run10bb5fl5pos_G1157.tiff
F://SIPFlowData//run10//green/20181010_1347_run10bb5fl5pos_G1158.tiff
F://SIPFlowData//run10//green/20181010_1347_run10bb5fl5pos_G1159.tiff
F://SIPFlowData//run10//green/20181010_1347_run10bb5fl5pos_G1160.tiff
F://SIPFlowData//run10//green/20181010_1347_run10bb5fl5pos_G1161.tiff
F://SIPFlowData//run10//green/20181010_1347_run10bb5fl5pos_G1162.tiff
F://SIPFlowData//run10//green/20181010_1347_run10bb5fl5pos_G1163.tiff
F://SIPFlowData//run10//green/20181010_1347_run10bb5fl5pos_G1164.tiff
F://SIPFlowData//run10//green/20181010_1347_run10bb5fl5pos_G1165.tiff
F://SIPFlowData//run10//green/20181010_1347_run10bb5fl5pos_G1166.tiff
F://SIPFlowData//run10//green/20181010_1347_run10bb5fl5pos_G1167.tiff
F://SIPFlowData//run10//green/20181010_1347_run10bb5fl5pos_G1168.tiff
F://SIPFlowData//run10//green/20181010_1347_run10bb5fl5pos_G1169.tiff
F://SIPFlowData//run10//green/20181010_1347_run10bb5fl5pos_G1170.tiff
F://SIPFlowData//run10//green/20181010_1347_run10bb5fl5pos_G1171.tiff
F://SIPFlowData//run10//green/20181010_1347_run10bb5fl5pos_G1172.tiff
F://SIPFlowData//run10//green/20181010_1347_run10bb5fl5pos_G1173.tiff
F://SIPFlowData//run10//green/20181010_1347_run10bb5fl5pos_G1174.tiff
F://SIPFlowData//run10//green/20181010_1347_run10bb5fl5pos_G1175.tiff
F://SIPFlowData//run10//green/20181010_1347_run10bb5fl5pos_G1176.tiff
F://SIPFlowData//run10//green/20181010_1347_run10bb5fl5pos_G1177.tiff
F://SIPFlowData//run10//green/20181010_1347_run10bb5fl5pos_G1178.tiff
F://SIPFlowData//run10//green/20181010_1347_run10bb5fl5pos_G1179.tiff